185.25
172.25
168
161.75
166
158.75
156.75
143
143
131.5
151
137.75
134.75
130.5
133.5
139.75
130.75
146.75
139.75
144.75
134.5
155.75
167
175
154.75
138.5
127.75
161.75
175.25
197.25
217.5
231
223.5
224.5
230.75
235.75
245
246
251
252
179.25
171.25
169.25
156.75
152.75
149.75
148.75
144.75
129.5
137.5
140.75
138.75
138.5
136.5
129.5
141.75
143.75
132.5
137.75
138.75
145.5
155
145.5
144.75
133.5
126.5
139.75
184.25
190.25
177.25
190.25
207.5
214.5
225.75
238
241
243
245
247
244
183.25
169
167.75
154
152.75
145.75
152.75
154
150
160
168
154.5
145.75
145.75
146.75
153.75
129.5
130.5
139.75
142.5
140.5
145.75
130.25
127.5
116
118.25
148.75
162
156.75
131.5
184.25
198.25
213.5
234.75
247
249
248
248
239.75
244
185.25
176
177
150
148.75
135.5
147.75
151.75
156
175
167
158
151
148
155
150
112.25
137.75
152.75
148
129.75
123.25
116.25
124.25
124.5
122.5
143.75
147
145.75
143.75
185.25
195.25
204.25
224.75
242
248
247
245
239.75
241
171
165.25
161
146.75
142.5
140.5
153.75
171
177
189.25
162
165
153
153
150.75
139.75
104.25
125.5
131.75
146.75
146.75
139.5
127.5
123.5
129.5
145.75
138.75
148.75
164
166
185.25
187.25
208.25
230.5
238
246
243
241
235.75
240
175.25
154.75
156.75
157.75
163
151.75
165.75
174
180.25
192.25
182.25
158
147
152.75
148.75
134.5
121.5
127.5
135.75
129.5
143.75
131.5
128.5
136.5
128.25
145.75
144.75
163.75
176
170
187.25
195.25
216.5
232.75
239
240
240
235.75
232.75
238.75
174
151.75
160.75
150.5
162
164
170.75
177.25
172
172
176
159
159
152.75
137.5
129.5
132.5
142.5
137.75
130.5
132.5
136.75
119.5
116.5
131.5
129.25
142.75
180.25
169
170
184.25
200.5
224.75
230.75
235
236
242
234.75
232.75
236.75
174
164
174
163
178.25
164
195.5
185.25
188.25
179.25
182.25
158.75
150
136.5
134.75
122.5
122.5
134.5
118.25
110.25
119.25
142.75
121.25
112
134.25
150.75
159.25
183.25
165
168
194.25
203.75
221.75
224
236
235
238
234.75
230.75
232.75
172
175
157.75
182.25
199.5
188.5
199.25
196.25
179.25
180.25
189.5
178.25
150.75
129.5
131.5
128.5
128.5
118.5
117.25
118.25
127.5
133.5
131.5
123.25
144.5
155
162
184.25
186.25
192.25
182
215.75
216.75
224.75
226.75
233
233
237
233.75
236.75
178
156.75
161.75
182
191.25
188.25
180.25
191.25
179.25
185.25
176.25
164
153.75
125.5
123.5
121.5
117.25
122.25
125.25
128.25
130.25
127.25
138
138
142.75
159
169
192.5
193.25
190.25
183.25
206.5
218.75
203.5
204.5
208.75
233
237
236
233
171.75
185.25
195.5
199.5
202.5
205.5
188.25
191.25
174.25
173
171
160
138.5
124.5
125.5
123.5
124.25
141.5
148.5
147.5
143.5
142.75
139
133.75
146.75
161.75
162.75
182
181
180
181
170.25
191.5
220.5
223.75
225.75
234.75
234.75
227.75
221.75
186.25
192.25
183
192.5
193.25
179
180.25
188.25
169
162.75
165
158
146.5
126.5
129.5
131.25
134.5
139.5
141.75
145
139.75
144.75
147.75
145.75
154.75
156
149.75
171
175
178
170
173
187
206.5
220.75
223.75
224.75
224.75
221.75
222.5
181.25
190.25
186.25
190.25
184
184.25
172
159
170.25
166.75
162
153.75
139.5
124.5
123.5
125.25
130.25
142.5
139.75
138.75
146
152
154
156
153.75
149.75
144.75
166
175
186
206.25
198.25
198
209.25
217.75
219.75
225.75
227.75
233
232
180.25
200.5
194.25
183
177
170
180.25
178.25
174
167
153
147.75
127.5
117.25
126.25
128.25
137.5
152.5
160
154
148
151
152
153
154.75
162.75
157.75
169
172
192.5
217.75
207.5
211.75
213.5
215.5
216.75
218.75
221.75
227
225
180.25
181.25
181
186.25
175.25
177.25
179.25
155
157.75
154
149.5
145.5
123.25
108.25
117.25
125.5
128.25
135.5
133.75
143
144
159
153
139.75
147.75
173
176
187.25
188.5
207.5
206.5
207.25
214.5
210.5
219.5
221.5
223.75
225.75
222.75
217.75
181.25
182.25
184.25
183.25
175.25
183.25
179.25
173
162
154
138.5
131.5
110.25
108.25
119.25
138.5
144.5
157
152
157
156
162
156
144.75
139.75
158
174
194.25
204.5
209.5
217.5
213.5
211.5
205.25
200.25
203.5
218.75
215.75
220.75
220.75
174
178
171
173
179.25
179.25
177
169
155
144.75
125.5
122.5
121.5
114.25
132.25
145.5
138.75
139.75
139.75
138.75
149
163
172.25
167
163
164
173
187.25
208.25
214.5
217.5
221.5
227.75
227.75
216.75
214.75
211.75
209.5
207.5
201.5
187
188.25
187.25
170
178.25
175.25
171
164.75
156
139.75
131.5
125.5
127.25
126.5
138.5
141.75
133.5
148
154
151.75
162
162
162.75
156.75
155.75
164
177
184.5
202.5
206.5
231
232.75
232.75
229
227
228
217.75
212.5
203.5
201.25
181.25
181.25
175.25
167
173.25
169.25
167
169.25
159
135.75
129.25
126.25
127.25
119.25
127.5
127.5
129.5
145
149
156
155
163
162.75
151.75
153.75
160.75
161.75
184.5
207.5
211.25
216.5
218.5
221.75
214.25
193
194.25
207.5
198.25
194.5
196.5
177
176
191.25
170.25
160
164.25
167.25
154.75
153
135.5
125.25
132.25
131.25
134.25
152.75
155.75
149.75
153
154
168.25
160
162
145.75
142.75
157.75
165
179.25
199.5
214.5
219.75
224.75
223.75
215.75
213.75
207.25
213.5
208.5
202.25
194
193.25
163.75
173
165
164
174.25
174.25
162.75
142.75
142.75
133.5
128.25
140.75
148.75
149.75
155.75
156.75
157
157
146
140.75
144.75
151
145.75
141.5
154.75
168.75
194.25
208.5
224.5
225.75
223.75
212.5
205.5
208.5
211.75
218.5
201.5
200.25
193
194
162.75
173
174
169.25
175.25
157.25
160.75
143.75
139.75
130.75
122.25
132.5
135.75
133.5
147.75
147.75
144.5
145.75
147.75
153
154
153.75
133.5
136.5
183.25
199.5
206.5
221.5
230.75
226.75
219.75
207.5
202.25
203.5
212.5
217.5
205.5
202.25
202.25
206.25
177
183.25
184.25
175.25
170.25
175.25
171
153.75
145.75
130.5
125.5
132.5
134.75
136.75
143.75
142.75
144.75
154.75
141.5
142.5
147.75
156.75
165.75
191
198.5
208.75
210.75
223.75
232
226.75
222.75
216.5
204.5
203.75
208.5
211.5
200.25
198
196
200
163
178
170
180.25
175.25
169.25
161.75
145.75
130.5
120.5
114.5
120.5
123.5
137.5
140.75
137.5
131.25
131.5
122.5
132.5
139.5
151.75
157
172.25
191.25
199.5
199.5
208.5
213.5
212.5
211.5
210.5
210.5
199.5
190.25
195
198.25
199
200.25
205.25
172
178
167
175.25
169
160.5
147.5
124.5
120.5
123.5
112.5
115.5
122.5
129.5
144.75
139.75
131.5
133.5
132.5
136.75
133.75
142.5
156.75
172
184.5
195.5
196.5
204.5
214.75
216.75
204.5
200.5
202.5
206.75
194
198
198.25
199
196
198
183.25
184.25
177.25
177.25
155
154.75
146.5
123.5
116.5
124.5
117.5
131.5
138.75
138.75
142.75
137.5
135.5
131.5
147.75
148.75
149.75
151.75
152.75
154
173
188
207.5
211.5
220.75
215.75
213.75
211.75
204.5
207.5
201.5
203.5
206.5
205.25
208.5
210.5
176
176
171
170
149
143.75
127.75
110.25
104.25
114.25
109.5
121.5
124.5
133.5
137.75
140.75
140.5
136.5
146.5
149.75
153.75
162.75
175
178
180
192.25
213.5
209.5
214.5
212.5
214.5
209.25
204.25
205.5
201.5
198.25
202.25
204.5
209.5
207.25
171
164
155.75
148.75
148.75
148.75
141.75
125.75
121.5
132.75
126.5
139.75
139.75
145.75
151.75
144.75
144.75
138.5
148.5
157.75
155
166
171
198.5
200.25
204.25
215.5
208.5
211.5
207.25
214.75
210.5
211.25
208.25
203.25
197.25
208.25
205.25
199
199.25
165
171
174
169
157
141.75
143.75
126.75
119.5
119.5
109.25
129.5
131.5
153.75
163.75
168.75
158.75
152.75
158.75
164
157
175
187.25
202.5
197.25
208.5
214.75
210.5
214.75
209.5
209.25
202
208.25
202.25
197.25
193.25
203.25
197.25
190
192
162
166
172
170
157.75
139.75
135.5
128.5
127.5
122.5
121.5
123.5
126.5
124.5
128.5
139.5
146.5
142.5
147.75
155.75
149.75
156.75
158.75
184
187.25
197.25
206.5
212.5
213.5
210.5
209.25
209.5
209.5
204.25
195.25
198.25
203.25
196
190
191
161
161
173.25
156.75
145.5
132.5
125.5
121.25
120.25
116.25
122.5
137.75
131.75
128.5
131.5
144.5
150.5
155.75
155.75
159
156.75
172
180.25
184.25
190.25
200.25
204.5
210.5
212.5
210.25
208.5
206.25
204.25
202.25
196.25
191.25
191
192
188
191
163
159
161.75
151.5
137.5
133.5
134.5
130.5
131.5
130.5
127.5
138.5
141.75
139.75
138.5
139.5
138.75
130.75
134.75
154.75
163
183.25
189.25
196.25
201.5
204.5
203.5
204.25
204.25
206.25
209.5
211.5
207.5
196.25
184.25
183.25
190.25
188.25
180
182
159
147.75
136.25
124.25
138.75
120.5
132.75
130.75
141.75
138.5
127.5
135.5
146.75
144.75
142.75
147.75
143.75
141.75
147.75
155
155
157.75
174
188
180.25
183.25
183
185
193.25
198.5
204.25
209.75
208.5
198.25
179.25
174.25
191.25
190.25
184
188
174.25
166
147.5
123.5
105.25
116.25
111
120.25
119.25
114.5
103.25
107.25
118.5
116.5
127.5
143.75
161
166
159
147.75
153.75
158.75
158.75
168.75
169
165
175
176
175
176
191.25
196.25
195.25
185.25
171
168
170
172
174
178
163
151
124.25
119.5
113.75
106.5
114.5
120.5
124.5
132.75
125.5
127.5
139.75
130.5
129.5
128.5
141.75
153.75
167.75
174
156.75
159
156.5
152.5
156.75
142.75
141.75
151.75
143.75
157.75
164
163.75
160.75
161
162
161
158
157
161
166
160
146
132.5
115.25
117.25
93.75
102.25
104.25
99.25
116.5
114.5
116.5
129.75
121.25
125.25
120.5
121.75
114.5
114.5
121.5
124.5
128.5
129.5
124.5
135.5
124.5
124.5
111.25
120.5
132.5
143.75
134.75
141.75
133.75
132.75
138.75
145.75
146.75
162
171
152.75
127.5
134.5
104.25
94.25
77.75
94
83
97
104.25
106.25
98.25
120.5
113.25
100.25
99
103.25
94.25
98.25
109.25
99.25
104.25
106.25
106.25
109.25
99.25
96
108.25
105.25
105.25
126.5
126.5
104.25
111.25
108.25
105.25
112.5
120.5
145
156
135.75
117.25
105.25
81.25
79.25
67
54.5
51.5
63.75
77
84
89.25
82.75
72.75
72
63.5
61.5
63.5
69.5
80
92.25
83
77
81
87
82
76
82
93.25
72.25
80
97
85
78
77
73
82.75
91
130.75
142.75
106
107.25
97.25
82.75
84
80
52.5
50.5
63.5
73.75
59.75
38.5
40.25
57.75
48.75
44.5
22.25
27.25
39.5
31.5
42.5
63.75
40.75
47.75
57.75
59.75
59.75
79
72
58.5
66.75
78
76.25
70
82
66
65.75
91.25
119.5
150.75
108
107.25
93
91
92
82.25
53.5
61.5
62.75
68.75
62.75
49.5
27.25
35.25
30.25
34.5
23.25
24
45.75
41.5
41.75
32.5
47.75
47.75
49.75
60.75
63.75
63.75
72
64.75
76
67
70
70
67.75
71
81.25
87.25
118.5
153.75
107.25
108.25
93.25
77
62.5
56.5
44.5
39.5
44.5
47.5
50.75
40.5
26.25
19.25
11
27.25
20.25
23.25
25
23
43.75
45.5
46.5
38.5
29.5
44.25
41.5
50.75
62
56
58
52.75
47.5
40.5
64.75
38.25
51.5
73.75
119.75
141.75
114.25
91.25
70.75
69.75
68.75
57.75
61.5
60.75
52.5
33.25
47.75
34.25
29.25
17.25
14
14
17
20
18
17
22
46.5
32.25
32.25
27.25
37.5
44.75
34.25
45.75
43.75
49.75
45.75
31.25
24
40.25
36.25
50.25
70
114.5
145.75
94.5
77.75
80
53.75
55.5
57.75
76.75
59.75
51.75
33.25
23.25
20
34.25
28.25
28.25
32.25
29.25
19
11
10
16.25
25.25
30.25
32.25
33.5
34.25
51.5
59.75
61.75
60.75
47.5
41.5
47.5
50.75
34.25
47.5
57.75
81
125.75
155.75
85
81
66.75
60.75
67.75
49.5
62.75
45.5
44.5
43.5
37.25
19
32.5
26.25
6
17
18
16
9
12
22.25
43.75
50.5
50.5
32.5
38.5
40.5
34.25
54.5
39.25
38.25
44.5
49.5
47.5
35.25
39.25
84
93
126.5
160
79.75
67.75
53.75
44.75
55.75
57.75
38.5
35.25
22
23
32.25
22.25
31.25
26.25
19.25
13
12
15
30.5
29.25
37.5
44.5
32.5
27.25
22.25
30.5
37.5
34.5
36.5
35.5
37.5
40.25
39.25
30.25
38.25
56.75
83
108.5
135.75
155.75
82.75
72.75
52.75
48.5
54.5
53.5
48.25
40.25
39.25
35.25
38.5
41.5
29.25
18
22.25
19
21.25
22.25
23.25
21
26.25
30.25
28.25
23.25
26.25
25.25
31.5
40.25
44.5
47.75
35.5
30
25
44.5
66.75
70.5
91.25
115.25
151.75
168
91
60.75
62.75
57.75
58.75
51.75
70
53.75
40.5
44.5
55.75
35.25
36.25
27.25
25.25
31.25
30.25
28.25
25.25
25.5
32.5
37.5
41.5
37.5
34.5
31.5
35.5
40.25
41.5
28
22
25
26
33.5
54.5
73.75
90.25
115.25
145
160
96
72.75
69.75
44.5
29.5
29.5
34.25
45.25
47.5
50.5
52.5
42.25
33.25
29.25
25.25
35.25
34.25
34.25
32.5
25.5
32.5
38.5
36.5
37.5
33.25
30.25
29.25
36.5
28.25
24
24
40.25
43.5
44.5
62.5
75.75
92.25
103.25
146.75
160.75
98
83
65.75
50.5
38.5
25.25
36.25
36.25
48.5
41.25
53.75
48.75
30.25
23
23
24
17
15
21
18
24
24
19
23
17
29
31
25
22
22
12
24.25
37.5
60.5
75
82
103.25
129.5
149.75
162
93.25
76
70
61.75
44.5
49.5
32.25
26.25
35.25
45.25
31.25
37.25
32.25
7
9
18
13
7
15
12
14
14
18
21
12
22
19
25.25
27.25
25.25
30.5
32.25
48.25
61.5
76.75
102.25
109.5
126.5
145.75
158.75
103.25
86.25
77
73
62
49.5
28.25
21.25
33.25
38.25
23.25
30.25
31.25
32.25
36.5
22.25
15
6
8
22.25
22
20.25
19
18
36.25
35.5
27.25
24
22
36.5
52.75
39.5
52.5
77
99.25
124.5
137.5
140.75
157.75
171
110.5
90
70.75
69
57.75
39.75
35.25
26.25
26.25
19.25
43.25
32.25
41.5
36.5
28.25
17
7
7
9
8
13.25
15.25
7
18
27.25
26
16
18
16
33
36.25
39.25
46.5
63.5
93.25
121.5
140.75
139.75
162
168
103.25
97.25
89.25
81
62.75
55.75
60.5
39.5
31.5
21.25
39.25
46.25
41.25
27.25
35.25
23.25
16.25
12
9
16.25
6
21.25
26.25
21
30
44.75
40.5
18
13
29.25
38.5
47.5
54.75
75.75
105.25
116.25
129.5
138.75
154
162
115.25
106.25
95.25
87
64.75
63
52.75
47.5
41.5
46.5
42.5
46.5
20.25
35.25
42.25
38.25
33.25
26.25
19
17
14
15
17
18
20.25
33.25
25
21
39.75
44.75
61.75
70.75
74.75
88.25
117.5
122.5
133.5
150.75
160
162
116.5
107.25
97.25
91.25
81.25
66.5
51.75
36.5
44.5
35.5
33.5
40.5
29
47.25
44.25
41.25
25.25
30.25
26.25
23.25
16
30.25
24
29
31
36.25
39.5
50.75
53.75
69
75
80
94.25
107.25
128.5
137.5
141.5
156
159
161
117.5
105.25
98.25
91.25
94.25
92.25
85
66.75
54.75
47.75
48.75
50.5
54.25
37.25
49.25
57.5
50.5
42.25
34.25
36.5
36.25
34.5
30
38.25
39.5
46.75
53.75
61
76
92
105.25
99.25
106.25
104.25
152.75
137.5
142.5
157.25
163.25
167.25
121.25
112.5
111.5
101.25
97.25
93
93.25
80
77
53.75
55.5
51.75
58.75
58.75
62.5
58.75
46.5
44.5
43.25
42.25
45.5
45.75
48.75
35.25
45.75
53
62
71
81
90.25
102.25
119.25
117.25
115.5
135.5
142.5
159
166.25
177.25
181.25
129.75
111.5
111.5
106.25
104.25
105.25
97.25
90
87
76.75
61.75
57.5
62.75
64.75
57.75
71
65
65
52.5
50.25
63.75
62.75
47.25
39.5
51
61
76
77
88.25
108.25
114.25
122.25
122.25
122.5
132.5
144.5
166
170.25
177.25
178.25
122.5
120.5
127.5
122.5
114.5
109.5
104.25
96
98.25
81
85
68.75
74.75
60.75
71.75
66.75
55.75
62.75
63.75
70.75
77.25
65.75
58.75
63
70
79
86.25
103.25
113.25
120.25
128.25
131.5
123.25
123.5
140.5
160.75
172.25
179.25
174.25
175.25
132.75
133.75
136.75
135.5
128.5
122.5
123.5
118.5
115.5
106.25
106.25
95
86
75.75
82.75
73.75
81.75
81
90.25
89
87
85
91
98
94.25
97.25
118.25
115.25
126.5
128.5
139.5
151
146.75
147.5
167
167
168.25
173.25
179.25
184.25
