material default
{
	receive_shadows on
	technique
	{
		pass
		{
			ambient 0.4 0.3 0.25 1.0
			diffuse 0.64 0.48 0.4 1.0
			emissive 0.0 0.0 0.0 1.0
			cull_hardware none
			cull_software none
		}
	}
}
material eyelid
{
	receive_shadows on
	technique
	{
		pass
		{
			ambient 0.5 0.5 0.5 1.0
			diffuse 0.8 0.8 0.8 1.0
			emissive 0.0 0.0 0.0 1.0
			cull_hardware none
			cull_software none
			texture_unit
			{
				texture eyelid.jpg
				colour_op modulate
			}
		}
	}
}
material hair
{
	receive_shadows on
	technique
	{
		pass
		{
			ambient 0.092 0.053 0.029 1.0
			//ambient 0.24 0.15 0.05 1.0
			diffuse 0.15 0.085 0.047 1.0
			//diffuse 0.48 0.24 0.08 1.0
			emissive 0.0 0.0 0.0 1.0
			cull_hardware none
			cull_software none
		}
	}
}
material lipstick
{
	receive_shadows on
	technique
	{
		pass
		{
			ambient 0.4 0.24 0.2 1.0
			diffuse 0.64 0.38 0.32 1.0
			emissive 0.0 0.0 0.0 1.0
			cull_hardware none
			cull_software none
		}
	}
}

material gum
{
	receive_shadows on
	technique
	{
		pass
		{
			ambient 0.3 0.15 0.15 1.0
			diffuse 0.48 0.24 0.24 1.0
			emissive 0.0 0.0 0.0 1.0
		}
	}
}
material glottis
{
	receive_shadows on
	technique
	{
		pass
		{
			ambient 0.4 0.4 0.4 1.0
			diffuse 0.7 0.7 0.7 1.0
			emissive 0.0 0.0 0.0 1.0
			texture_unit
			{
				texture glottis.jpg
				colour_op modulate
			}
		}
	}
}
material teeth
{
	receive_shadows on
	technique
	{
		pass
		{
			ambient 0.5 0.5 0.5 1.0
            diffuse 0.8 0.8 0.8 1.0
			specular 1 1 1 1 127
		}
	}
}

material green_eye
{
	receive_shadows on
	technique
	{
		pass
		{
			ambient 0.5 0.5 0.5 1.0
            diffuse 0.8 0.8 0.8 1.0
			specular 1 1 1 1 127
			texture_unit
			{
				texture green_eye.jpg
				colour_op modulate
			}
		}
	}
}

material body_materials1.bmp
{
	receive_shadows on
	technique
	{
		pass
		{
			ambient 0.5 0.5 0.5 1.0
			diffuse 0.8 0.8 0.8 1.0
			emissive 0.0 0.0 0.0 1.0
			cull_hardware none
			cull_software none
			texture_unit
			{
				texture body_materials1.jpg
				colour_op modulate
			}
		}
	}
}
material body_materials2.bmp
{
	receive_shadows on
	technique
	{
		pass
		{
			ambient 0.500000 0.500000 0.500000 1.000000
			diffuse 0.800000 0.800000 0.800000 1.000000
			emissive 0.000000 0.000000 0.000000 1.000000
			cull_hardware none
			cull_software none
			texture_unit
			{
				texture body_materials2.jpg
				colour_op modulate
			}
		}
	}
}
material body_materials3.bmp
{
	receive_shadows on
	technique
	{
		pass
		{
			ambient 0.5 0.5 0.5 1.0
			diffuse 0.8 0.8 0.8 1.0
			emissive 0.0 0.0 0.0 1.0
			cull_hardware none
			cull_software none
			texture_unit
			{
				texture body_materials3.jpg
				colour_op modulate
			}
		}
	}
}
material body_materials4.bmp
{
	receive_shadows on
	technique
	{
		pass
		{
			ambient 0.5 0.5 0.5 1.0
			diffuse 0.8 0.8 0.8 1.0
			emissive 0.0 0.0 0.0 1.0
			cull_hardware none
			cull_software none
			texture_unit
			{
				texture body_materials4.jpg
				colour_op modulate
			}
		}
	}
}
