-0.102922 0.056748 -0.007378 0.074334 0.049577 -0.006338 -0.086622 -0.013880 -0.058121 0.035650 0.046721 0.098394 0.011390 0.016233 -0.028247 -0.030904
-0.004039 0.006845 0.103051 0.059081 0.072584 0.043376 -0.023142 -0.047622 -0.044832 -0.013927 -0.089709 -0.026860 0.038160 -0.049375 -0.036498 0.040102
0.006453 0.083060 0.116661 0.173732 0.069476 0.057469 0.009430 -0.029893 -0.006744 0.014123 -0.027962 -0.027674 0.011120 0.028808 0.036747 0.065949
0.055480 -0.005180 -0.031389 -0.021609 -0.002431 0.072901 0.075815 0.098391 0.086868 0.047916 -0.002424 -0.062206 -0.038282 -0.004886 0.024820 0.007790
0.003860 0.019464 0.054700 0.064700 0.007689 0.055688 0.077977 0.100760 0.133056 0.033082 0.006765 0.031566 0.004050 0.001379 0.025844 -0.054080
0.000571 0.027666 -0.030572 -0.020032 -0.026833 -0.014208 0.000722 -0.014890 -0.020800 0.028473 0.054235 0.039586 0.022286 -0.022149 -0.038794 -0.055790
-0.024248 0.008844 0.064311 0.059380 0.058028 0.032897 0.070756 0.056900 -0.003723 0.029555 0.040975 -0.028393 -0.022126 -0.011455 0.009179 -0.050929
-0.018732 -0.003565 -0.038567 -0.030866 -0.000808 0.018260 -0.003081 -0.005870 -0.002852 -0.027497 -0.042190 -0.028116 -0.027595 -0.019541 0.016402 0.034433
-0.008935 0.020598 -0.000214 -0.007702 -0.011376 -0.003859 0.009742 0.018259 0.063762 0.047207 0.035732 -0.013217 -0.003526 0.025431 0.014557 0.004691
0.045703 0.070310 0.018251 0.018827 0.003900 -0.003684 -0.035279 -0.035792 -0.012940 0.011031 0.061392 0.001407 0.018259 0.013597 0.015266 -0.012085
-0.013183 0.009682 0.020210 0.046939 0.067897 0.056886 0.020670 0.012560 0.024052 -0.034321 -0.014491 -0.007438 -0.003811 -0.029882 -0.017354 0.004826
0.013789 -0.031714 -0.024820 -0.029300 0.047630 0.048831 0.008901 0.007702 0.048081 -0.010182 -0.027577 0.012982 0.021017 -0.012892 -0.039723 0.004306
0.006881 0.040821 0.042732 0.028956 0.014982 0.012815 0.036992 0.083637 0.071130 0.032750 0.003499 0.036699 0.018496 -0.004945 -0.059765 -0.012703
0.050839 -0.018398 -0.031791 0.010224 -0.025627 -0.034472 -0.008273 0.017965 -0.038231 -0.023646 -0.018162 0.025962 0.024874 -0.007584 0.012173 -0.022751
-0.015592 0.010785 -0.017377 0.033890 0.058582 0.060377 0.030596 0.020485 0.024346 0.061005 0.070175 0.056972 0.092151 0.071465 0.099749 0.065358
0.076889 0.039987 0.006293 0.040478 0.057912 0.039180 0.014124 0.027104 0.026198 -0.004826 -0.009612 0.006121 0.022633 0.006326 -0.012044 -0.000236
0.030130 0.033128 0.017119 -0.019262 0.024819 0.019954 0.039750 0.049402 0.065895 0.026524 -0.013994 -0.039992 -0.054968 0.000558 -0.002995 0.067417
0.071450 0.091778 0.103292 0.109551 0.082811 0.052424 0.069848 0.038816 -0.018387 -0.011050 -0.051668 -0.004826 0.016587 0.012410 -0.030355 -0.026796
-0.019879 -0.019719 -0.027305 -0.023677 -0.040891 -0.043659 -0.026935 -0.045853 -0.010656 -0.023509 0.043730 0.011656 0.011701 -0.010942 -0.037160 -0.034954
-0.037703 0.017707 0.045367 0.041680 0.091913 0.101150 0.059534 0.067463 0.073250 0.026304 -0.013193 0.001771 0.019304 -0.027243 -0.075933 -0.043553
-0.015512 -0.020173 -0.012430 -0.034485 0.021426 -0.020420 -0.035688 -0.040469 0.008693 -0.020723 -0.034749 -0.071445 -0.064536 -0.039049 -0.040675 -0.020719
-0.037012 -0.059084 -0.051271 -0.034709 0.013348 -0.036841 -0.000337 -0.005448 -0.046323 0.020641 -0.002755 -0.009956 0.004709 -0.039267 -0.011837 0.026590
-0.020359 -0.040977 -0.084030 -0.031143 -0.020920 0.026297 0.035154 0.014927 0.030134 0.004974 -0.041752 -0.075512 -0.020939 -0.005182 -0.037559 -0.053946
-0.017335 -0.005426 0.024909 0.000000 -0.021166 -0.001339 -0.029907 -0.007128 -0.051922 -0.047936 -0.091588 -0.086375 -0.045977 -0.041891 -0.027632 -0.068274
0.010558 -0.004137 -0.005526 -0.044606 -0.054596 -0.025547 -0.031473 0.033133 0.050290 -0.030098 0.065182 0.146389 0.051905 0.089956 0.025994 0.042177
-0.095971 -0.060022 -0.045108 -0.012830 -0.003507 0.064797 0.039505 0.062945 0.059850 0.004204 -0.027673 -0.069511 -0.050695 -0.064234 -0.060346 -0.038385
-0.044497 -0.064871 0.012726 0.055954 0.052024 0.017047 -0.011164 0.000351 -0.023860 0.019833 0.065065 0.072518 0.034469 0.054359 0.140328 0.044633
0.026557 -0.028186 0.045758 0.012127 0.017199 -0.089890 -0.016031 0.041230 -0.006468 0.037623 0.042044 0.039121 0.086220 -0.004666 -0.035857 -0.018158
-0.107387 -0.072959 -0.037204 -0.052874 0.014267 0.092104 -0.010197 -0.037695 0.029104 0.107063 0.028829 0.010103 -0.064982 -0.027473 0.039471 0.090772
0.137445 0.077284 0.127529 0.187932 0.014555 0.006011 -0.011022 -0.035007 -0.048384 -0.033812 0.013526 0.021011 0.020746 0.007084 -0.001938 -0.002320
0.028975 0.066672 0.068252 0.042459 0.024340 -0.002455 -0.020543 -0.013803 -0.024576 -0.018910 -0.019748 -0.028371 -0.015354 -0.037320 -0.068672 -0.053811
-0.048050 -0.044038 -0.026819 0.000999 0.013392 0.001262 -0.037194 -0.075751 0.018104 0.015908 0.000394 -0.022371 -0.052398 -0.039933 0.015850 0.045585
0.020869 0.027922 0.020543 -0.003996 0.026734 0.077818 0.066395 0.060378 0.019411 -0.042732 -0.064743 -0.036931 -0.019760 -0.016843 -0.017348 -0.016312
-0.006732 -0.061545 -0.059041 -0.042238 -0.049630 -0.042446 -0.006287 0.008925 0.017174 -0.001916 -0.062830 -0.097494 0.034961 0.006722 0.024976 0.011806
-0.013183 -0.019613 -0.044212 0.037979 0.035835 0.042667 0.040789 0.014840 0.021536 0.053650 0.040343 0.003499 -0.017845 -0.108760 -0.117746 -0.015989
-0.015407 0.019543 0.008230 0.046659 0.053763 -0.031132 -0.053197 -0.051165 -0.051593 -0.037121 0.019807 0.034181 0.028454 -0.011502 -0.074724 -0.087137
0.068595 0.107260 0.104949 0.103184 0.101586 0.051537 0.049660 -0.083998 -0.043333 -0.070192 -0.082970 -0.044246 -0.006108 0.023288 0.052694 0.017328
0.033374 0.104193 0.116321 -0.012368 -0.019160 0.014298 0.004945 -0.049547 -0.013041 0.064506 0.038269 0.014892 -0.000527 0.023894 0.020196 0.031021
0.027036 -0.052033 -0.048628 -0.060677 -0.014215 -0.032263 -0.065374 0.001539 -0.021707 0.009066 -0.010860 -0.001855 -0.044565 -0.014487 -0.012566 -0.015972
-0.016823 -0.010169 0.000330 0.040700 0.065703 0.133680 0.115004 0.078356 0.018371 0.015893 -0.012537 -0.026244 0.032026 0.042364 0.040750 0.059625
0.049111 -0.011667 -0.013569 -0.049639 -0.040642 0.052012 -0.023661 -0.064073 -0.045528 -0.093367 -0.057061 -0.158682 -0.045023 0.005519 0.027807 0.045698
0.019544 0.009981 -0.012092 -0.013148 0.015851 0.047054 0.037796 0.027801 0.013848 0.024867 0.028814 0.028604 0.038140 0.029444 0.002316 0.013149
0.012607 -0.005040 0.040303 0.062829 0.016338 -0.055892 -0.065059 -0.071637 0.010278 0.080039 -0.077791 -0.083053 0.016571 0.068090 -0.017540 -0.013517
-0.028776 0.055088 0.057907 0.050279 0.027504 0.000218 0.001316 -0.015709 0.036924 0.053064 0.034229 0.028844 0.012854 0.013469 0.019678 0.035373
0.034584 0.025469 0.021662 0.041681 0.038653 0.042027 0.052107 0.028761 -0.037088 -0.022179 -0.034242 -0.052107 -0.051760 0.054727 -0.026187 -0.068968
0.021969 -0.007461 0.101288 0.074322 0.074869 -0.069693 -0.076472 -0.058498 -0.023529 -0.010815 -0.022743 0.005530 0.003069 -0.015951 -0.019240 -0.032187
-0.027747 -0.027206 -0.015642 -0.020946 -0.021811 -0.062486 -0.031983 0.007393 0.001620 -0.008013 -0.052099 -0.007916 0.061072 0.045796 0.039609 0.026962
0.053962 -0.034660 -0.050026 -0.059312 -0.044915 -0.004224 0.015870 0.039586 0.017948 0.004583 -0.016855 -0.009378 0.012941 -0.030089 -0.030109 -0.015216
-0.051771 -0.040928 -0.066443 -0.089327 -0.055084 -0.008619 -0.020090 -0.030435 -0.056662 -0.062579 -0.052888 -0.060907 -0.030935 -0.047150 -0.060769 0.013325
0.041312 0.039291 0.030191 0.028061 0.036441 0.009869 -0.055995 -0.069863 -0.035261 -0.009670 0.033574 0.005679 -0.031352 -0.011487 0.019665 0.125736
0.078674 -0.011882 0.001188 0.028352 0.011102 -0.017194 -0.058957 -0.059926 0.003578 0.021082 -0.005889 -0.032823 -0.038033 -0.045778 0.000178 0.002691
-0.019992 -0.033492 -0.008705 0.004147 0.019032 0.035481 0.037987 0.042789 0.042132 0.045262 -0.022417 -0.066939 -0.034549 -0.010482 0.000227 -0.058710
-0.106877 -0.020319 0.098845 0.114259 0.118641 0.072253 0.074688 0.023060 0.045158 -0.073301 -0.066465 0.007177 0.007164 0.010089 0.011701 -0.013171
-0.027178 -0.007774 -0.026798 0.023259 -0.046900 -0.016522 -0.021588 0.034053 -0.003029 -0.025550 0.023309 0.053014 0.039159 0.049352 0.000316 -0.040267
-0.035207 -0.018983 -0.043468 -0.084192 -0.020333 0.028379 0.085311 0.151708 0.033633 -0.003284 -0.043309 -0.055125 -0.100701 0.013329 0.025825 -0.011223
-0.002410 0.021332 0.040023 0.065125 0.068374 0.085755 0.052076 -0.098752 -0.093916 -0.088949 -0.005086 -0.017643 -0.009282 -0.042833 -0.039663 -0.002409
0.039609 0.029773 0.014314 -0.021925 -0.036990 -0.039657 -0.064692 -0.017815 0.032760 0.057587 0.086070 0.113299 0.065576 -0.038140 -0.057099 -0.077396
-0.040591 0.003695 -0.020192 -0.033243 -0.026037 -0.003397 0.001655 0.002146 0.028383 0.045739 0.015608 -0.051479 -0.104806 -0.087472 -0.056832 -0.018893
-0.000287 -0.015650 -0.040031 -0.042314 0.004680 0.031533 0.011780 -0.007391 -0.025783 0.002158 0.042178 0.074881 0.089329 0.099885 0.079333 0.034293
0.001158 0.013804 0.023677 -0.004354 -0.023998 -0.027434 -0.011447 0.005996 0.011918 0.005135 0.010531 0.017299 -0.011647 -0.038750 -0.005700 0.043715
0.032652 0.029856 -0.009612 -0.040255 -0.013518 0.006867 0.023870 0.036330 0.033471 0.026845 0.003250 -0.013869 -0.034282 -0.023363 0.021559 0.058831
0.094423 0.073598 0.062527 0.024295 -0.004298 0.003474 0.035959 0.004645 -0.039887 -0.046825 -0.015190 -0.010344 0.013501 0.008716 0.018810 0.029419
0.032819 -0.054809 0.025123 0.022015 0.017408 0.034213 -0.043960 -0.057813 -0.004323 -0.005049 -0.001597 0.014573 0.028344 0.013086 -0.004070 -0.038505
-0.035729 -0.026197 -0.029219 -0.004847 0.024916 0.027181 0.034003 0.004340 0.002776 0.027606 -0.003814 -0.008261 -0.082875 -0.112005 -0.065342 -0.020328
-0.006213 -0.038012 -0.040405 -0.002040 -0.004947 0.051768 -0.023482 -0.066931 -0.066919 -0.092416 -0.083283 -0.012522 -0.006061 -0.014300 -0.036448 -0.031441
-0.042980 -0.058534 -0.089355 -0.082026 -0.039062 0.002654 -0.012300 -0.011188 -0.014429 0.036274 0.022939 0.068042 -0.031598 -0.042961 -0.035167 -0.028307
0.009532 -0.015678 -0.055261 -0.017743 -0.021154 -0.000045 -0.001898 -0.026184 -0.031895 -0.004798 -0.030229 0.038028 0.017946 0.046156 0.077647 0.075202
0.011842 -0.038181 -0.053477 -0.065786 -0.082384 -0.143462 -0.148174 -0.110630 -0.046163 -0.081447 -0.028218 -0.048633 -0.018790 -0.035748 0.002448 -0.059224
-0.001397 -0.050203 -0.055215 -0.034821 0.030673 0.059648 0.048101 -0.017167 0.005457 -0.001087 -0.023097 -0.050969 -0.034904 -0.028580 -0.007384 0.025635
0.023268 0.048679 0.053239 0.020792 -0.019901 0.041775 0.051378 0.064017 0.025715 0.044340 -0.017069 -0.023003 -0.000080 0.006630 0.021657 0.032857
-0.016155 -0.001228 -0.016062 -0.044558 -0.001100 -0.027601 0.010962 0.029253 -0.015244 -0.060008 -0.051944 -0.038553 -0.031951 -0.047502 -0.061018 -0.064878
-0.063641 -0.016860 -0.026598 -0.028473 -0.028502 -0.025642 -0.011227 -0.067958 -0.056369 -0.013501 0.060104 0.054419 0.119722 0.096811 -0.007776 -0.022422
0.008242 0.038145 -0.017342 -0.011105 -0.028405 0.012463 0.022591 0.029443 0.082386 0.020038 0.062625 0.079791 0.029267 -0.008722 -0.012635 -0.013483
-0.001634 -0.006147 -0.015762 -0.034947 -0.031571 0.066408 -0.002765 -0.000105 0.007058 0.026717 0.048388 -0.050763 -0.084312 -0.015266 -0.039448 -0.021336
-0.017864 -0.013634 -0.116377 -0.073359 -0.043962 -0.060303 -0.053682 -0.037137 -0.047383 0.012775 0.023774 0.011142 -0.022980 0.075148 0.044158 0.029180
0.064760 0.072221 0.055857 0.034194 0.039140 0.037907 0.022588 0.024624 0.021433 -0.036992 0.035151 -0.003682 0.017131 0.026661 0.077559 0.052889
0.083084 0.015910 -0.014751 -0.020745 -0.032325 -0.075975 -0.007251 -0.040688 0.019406 0.047984 0.084667 0.066526 0.076520 0.026289 -0.018321 -0.014501
-0.011287 0.028165 0.011043 -0.013838 0.020667 0.028639 0.036465 0.030245 0.018693 -0.000446 0.000581 0.011629 -0.037387 -0.087555 -0.061292 -0.020753
-0.026332 -0.005913 -0.019800 -0.003067 -0.061056 0.017279 0.051271 0.051983 0.060037 0.077596 0.058422 0.059698 0.067297 0.099350 0.018398 -0.010907
-0.017504 -0.046976 -0.030597 0.025752 0.079977 0.111791 0.026407 0.002357 0.021253 0.010813 -0.031446 -0.018338 -0.022083 -0.048916 -0.023812 0.008173
0.014949 -0.013857 -0.000646 0.034782 0.023795 -0.020073 -0.019550 -0.087265 -0.034041 -0.001385 0.048386 -0.011842 -0.071022 -0.007817 0.074223 0.082764
0.076117 0.019392 -0.072945 -0.112856 -0.070531 -0.117102 -0.004498 -0.013505 0.061124 0.070320 0.065767 0.075875 0.036253 0.025411 0.030732 -0.027731
-0.050209 -0.060844 -0.053408 0.006973 0.043550 0.066191 0.075538 0.080849 0.088298 0.076874 0.032123 0.042294 0.069771 0.096176 -0.013347 -0.056309
-0.120073 -0.056025 0.009060 0.052487 0.018482 -0.040296 -0.072844 -0.079816 -0.058557 0.040840 -0.036808 -0.033397 -0.057789 -0.030439 -0.015636 -0.027111
0.031224 0.031343 0.012396 0.003157 -0.004754 -0.008415 0.001892 -0.017985 -0.005050 0.015264 0.024153 -0.000178 -0.016923 -0.042140 0.024846 0.115716
0.145821 0.115388 -0.020147 -0.108217 -0.055374 -0.063165 -0.037661 0.003861 -0.021227 -0.051929 -0.063661 -0.054345 0.012826 0.037110 0.023967 0.004797
-0.018989 -0.001266 -0.006883 0.011427 0.041268 0.042235 0.038026 0.016254 0.013892 0.010318 0.014486 0.020944 0.008624 0.017897 0.019227 0.010344
-0.009947 -0.022960 0.028453 0.102568 0.130175 0.068289 -0.009177 -0.055424 -0.055030 -0.051813 -0.044426 -0.025506 0.022200 0.017591 0.010386 0.004489
0.014264 0.013539 0.001919 0.007602 0.003950 -0.024416 -0.049699 -0.029520 0.039301 0.101287 0.123232 0.115725 0.096343 0.089284 0.061164 0.004602
-0.041203 -0.006457 0.028905 0.037516 0.035968 0.014587 0.002214 0.003193 0.000336 0.011034 0.030882 0.019064 0.003232 -0.017143 -0.030270 -0.025184
0.022185 0.023869 0.016880 0.004508 0.011504 0.021679 0.005129 0.002396 0.010971 -0.028642 -0.075413 -0.058732 -0.010269 0.081093 0.101387 0.114021
0.093934 0.067552 0.045629 -0.032234 -0.070904 -0.025433 0.018072 0.044324 0.044377 0.000512 0.007284 0.001322 -0.008811 0.013703 0.029121 0.007287
-0.005195 -0.024129 -0.032386 -0.025839 0.007488 0.025965 0.019124 0.003300 -0.004659 0.024080 0.010978 -0.003723 -0.019791 -0.061051 -0.085177 -0.075049
-0.035380 -0.013522 0.020979 0.013188 0.021566 0.003000 0.029452 -0.020704 -0.043702 -0.048719 -0.038698 0.022078 -0.003213 0.036437 0.013017 -0.011412
-0.017282 0.021226 0.004167 0.004326 -0.025069 -0.039925 -0.039422 -0.031797 -0.007744 -0.013712 -0.026029 -0.045545 -0.064715 -0.108026 -0.088615 -0.058898
-0.059189 -0.060243 -0.086163 -0.111718 -0.098595 -0.074448 -0.053959 -0.027105 0.013417 -0.051052 -0.032779 0.040150 -0.021208 -0.017821 -0.004745 -0.026088
0.003802 -0.027496 -0.016060 -0.061719 0.010004 -0.000506 -0.001035 -0.007575 -0.047431 -0.054900 -0.036264 -0.017457 0.017902 0.013607 -0.033373 -0.007367
0.016823 0.013957 0.033955 0.066054 0.061946 0.031820 0.003043 -0.025796 -0.000006 0.010343 0.042827 0.064754 0.020921 0.038225 -0.026350 -0.031553
0.057624 0.035846 0.049949 0.057459 0.037837 0.011041 0.009458 0.022785 -0.034643 -0.018534 0.014149 -0.049150 -0.088645 -0.076655 -0.034682 -0.004437
0.007849 0.027735 0.054591 0.041615 0.058918 0.093125 0.126212 0.074844 0.050796 0.041489 0.002109 -0.039048 -0.016999 -0.008562 0.029880 0.058726
0.086847 0.054157 0.014039 -0.026417 -0.023662 0.007051 0.003605 0.003705 0.020628 0.042974 0.073480 0.023794 0.002445 0.011058 0.038709 0.060972
0.086527 0.069255 0.074561 0.035316 -0.032749 -0.049758 0.051089 0.017302 -0.052796 -0.025208 0.041915 0.024069 0.037127 0.043679 0.011226 -0.010037
0.031818 0.026772 0.026095 0.054620 0.033361 0.027963 0.017277 0.035268 -0.000157 -0.031674 -0.059428 -0.023441 0.031805 0.089113 0.089954 0.099220
0.117614 0.075100 0.099461 0.076550 0.050944 0.020357 -0.082463 -0.037380 -0.043788 -0.043773 -0.036590 -0.097068 -0.148512 -0.035314 -0.030189 0.010298
0.013199 0.033969 0.010935 0.014445 0.042725 0.075005 0.063334 0.043737 0.090062 0.058929 0.083455 0.040681 0.021133 -0.041854 -0.060904 -0.023663
0.030288 0.078286 0.076993 0.086543 0.056340 0.068883 0.035338 -0.039928 -0.042378 -0.042384 -0.012408 -0.033786 -0.024317 -0.019509 -0.051635 -0.011701
0.006642 -0.067139 -0.021943 -0.043258 0.022442 0.009533 0.007405 0.015315 0.002006 0.011177 0.005760 -0.047513 -0.030640 0.007536 -0.023720 -0.032361
-0.052967 -0.065117 -0.061205 -0.076184 -0.004242 -0.003482 -0.001090 -0.026379 -0.053689 -0.021715 0.051095 -0.058439 -0.065147 0.066152 0.058170 0.033601
-0.035086 -0.041498 0.027484 0.081921 0.059433 0.007165 -0.027013 -0.044025 -0.127010 -0.100160 -0.049562 -0.051581 -0.054023 -0.060963 -0.090541 -0.060226
-0.043931 -0.015809 -0.008780 0.005027 0.006385 0.014818 -0.007631 -0.034723 -0.098658 -0.089258 -0.090683 -0.074417 -0.094685 -0.094948 -0.060839 0.004517
0.015941 0.008712 0.036452 0.040507 -0.036466 -0.008964 0.037533 0.069511 0.042620 0.010387 0.005567 -0.044499 -0.101215 -0.075860 -0.047050 0.019527
0.001155 -0.058552 -0.052913 -0.059109 0.000538 0.040021 0.043709 0.045292 0.048353 0.041452 -0.001902 -0.026655 -0.117413 -0.099520 -0.057849 -0.013133
-0.031293 -0.024488 -0.062169 -0.041888 0.006292 0.023771 0.023997 0.045096 -0.015631 0.010571 0.046322 0.055963 0.058979 0.081230 0.057674 -0.025101
-0.054434 -0.001626 0.019399 -0.012238 -0.026921 -0.033579 -0.044678 -0.000736 0.005203 0.033398 0.025868 0.007532 0.002167 -0.007508 -0.038825 -0.062602
-0.032784 -0.032717 -0.004624 -0.018370 -0.027175 -0.022576 -0.045488 -0.051547 -0.004497 0.012294 0.027173 0.035061 -0.000284 0.023954 0.053109 0.060722
0.074292 0.075407 0.043200 -0.001133 -0.026506 0.013163 0.023059 0.007911 -0.021639 -0.030005 -0.038102 -0.019031 0.008344 0.026675 0.024867 0.009790
0.010275 -0.009930 -0.047024 -0.043418 -0.021161 -0.020134 -0.002941 -0.011016 -0.015735 -0.014417 -0.029804 -0.042292 -0.021013 0.011396 0.019090 0.031965
-0.042768 -0.023679 -0.002123 0.045523 0.092343 0.097359 0.083814 0.073010 0.069719 0.091900 0.081417 0.028764 -0.012754 -0.048728 -0.048892 -0.038971
-0.018927 -0.019459 -0.043113 -0.028202 -0.042159 -0.078268 -0.069912 0.001973 0.039660 0.026513 0.049164 0.067424 0.046399 0.006461 0.000794 0.031692
0.065027 0.038580 0.043463 0.042356 -0.066467 -0.038355 -0.033109 0.008056 0.064433 0.054123 0.070126 0.059325 0.081984 0.073098 0.109767 0.035157
-0.010980 -0.049352 -0.060724 -0.016387 -0.017874 -0.044223 -0.042123 -0.052200 -0.040228 -0.074132 -0.068306 -0.017114 0.008017 -0.002957 0.033336 0.066933
0.057405 0.013541 -0.025953 0.025335 0.068552 0.067437 0.045962 0.043714 -0.077563 -0.055753 0.005283 0.031584 0.054176 0.074297 0.001979 -0.002245
0.001029 0.014162 0.054618 0.083080 -0.012888 -0.045167 -0.041401 -0.071783 -0.064334 -0.031893 -0.071672 -0.119636 -0.105112 -0.054341 -0.033563 0.020370
-0.029570 -0.026336 -0.034270 0.034871 0.013419 0.019909 0.024786 0.001230 0.026354 0.010687 0.055031 0.042157 -0.105259 -0.103925 -0.027300 0.000030
0.028014 0.042172 -0.007467 -0.082492 -0.070066 -0.036186 0.013944 -0.039251 -0.066377 0.000380 0.036907 0.057532 0.060466 0.047551 0.051045 0.061797
0.051727 0.064307 0.077262 0.016237 0.043881 -0.003124 -0.041418 0.004941 0.009702 0.031902 -0.029270 -0.010244 -0.001047 0.054467 0.024187 0.044545
-0.072574 -0.074392 -0.065272 -0.045221 -0.081542 -0.070523 -0.064596 -0.017560 0.009806 0.001327 -0.008823 -0.060730 -0.015657 0.014911 0.003527 0.069999
0.067394 0.024802 0.038681 0.075851 0.051560 0.040634 0.042087 -0.020084 -0.003911 0.014776 0.017803 -0.004777 0.021774 -0.084844 0.008158 -0.003803
0.032449 -0.043866 0.039728 0.046823 -0.033755 0.004730 -0.082046 -0.073771 0.003291 -0.061879 0.005932 0.000359 -0.004431 -0.033739 -0.079317 -0.105193
-0.006601 0.002486 -0.009002 -0.022241 -0.002635 -0.018883 -0.023484 -0.025819 -0.040270 -0.029909 -0.026725 -0.021226 -0.007520 -0.003236 0.070690 0.028642
-0.044513 -0.015738 0.011306 0.013709 -0.038654 -0.036799 0.041739 0.044581 -0.040421 -0.053493 0.003970 -0.002358 -0.006145 0.005294 0.034368 0.065453
0.053051 -0.001668 -0.011298 -0.059989 -0.055713 0.023700 0.016261 0.037485 0.019138 0.018053 0.027103 0.066039 0.050026 0.032537 -0.009013 -0.007749
0.009429 0.011535 -0.000532 0.048624 0.014965 0.036990 0.073424 0.000470 -0.046400 0.033803 0.032617 0.045930 -0.046533 -0.026886 0.014688 -0.014035
-0.016657 -0.102525 -0.020586 0.064659 0.088430 0.074439 0.031741 -0.007263 -0.067472 -0.072536 -0.022993 0.032971 0.032642 0.042885 0.085505 0.036290
0.029443 -0.005773 0.033482 0.005622 -0.001948 -0.006273 -0.018999 -0.002810 0.054431 0.045051 0.030670 0.007589 -0.066641 0.021767 0.018509 0.007913
-0.003808 -0.010787 0.023978 0.021624 0.037350 0.015425 0.013281 0.048373 0.046133 0.009588 0.019141 -0.047006 -0.068572 -0.045945 -0.000507 -0.008323
0.017165 0.077673 0.070215 0.030861 -0.020877 -0.018193 -0.017111 0.041851 -0.015621 0.003339 0.018895 -0.011760 -0.034851 -0.005098 -0.002066 -0.046867
0.006004 0.000499 -0.023567 0.008404 0.064451 0.100041 0.050693 0.046259 0.063136 0.077586 0.047306 0.025252 -0.035115 -0.069614 -0.022384 -0.063077
-0.023049 0.028282 0.057217 0.090017 0.039221 0.018020 0.027247 -0.003161 -0.008709 -0.009662 -0.022828 -0.051639 -0.011888 0.024284 0.008845 -0.014815
0.025522 0.018744 -0.050490 -0.037628 -0.041312 -0.029879 0.019562 0.021129 0.092678 0.098978 0.055961 -0.029393 -0.055571 -0.018800 0.007623 0.034361
-0.045772 -0.015157 -0.099031 -0.105526 0.041850 0.107441 0.037641 0.012257 -0.008659 0.050532 0.048913 0.003211 -0.046640 -0.038685 -0.057120 -0.046614
-0.037233 -0.034419 -0.046117 0.045079 0.052457 -0.008261 -0.073604 -0.062323 -0.046553 -0.036118 -0.000510 0.006081 0.090484 0.084705 0.029807 -0.026296
-0.046492 -0.044170 -0.004296 0.043073 0.081830 -0.009362 -0.091899 -0.102612 -0.074423 -0.044812 -0.024820 0.061144 0.012416 -0.024544 -0.040807 -0.021968
0.001371 -0.035750 -0.025553 0.000028 -0.019636 0.063936 0.030807 -0.038414 -0.028917 -0.075809 -0.108370 -0.085718 0.015281 0.007291 -0.017026 -0.008313
0.084302 0.062622 0.022883 -0.016110 -0.038619 -0.040766 -0.010839 0.042155 0.050029 0.013361 -0.037999 -0.100366 -0.070253 -0.034251 0.008246 0.055965
0.015545 -0.026555 -0.031249 -0.029880 -0.008566 -0.015775 -0.010360 -0.007891 0.006276 0.037460 0.028270 -0.016388 -0.035931 -0.070242 -0.099111 -0.082669
-0.029180 0.018923 0.008644 -0.012755 -0.038898 -0.006056 0.024128 0.047955 0.065970 0.054500 0.016499 -0.045760 -0.050598 -0.035211 -0.024647 -0.010221
-0.002653 -0.018067 -0.016624 -0.035240 -0.070267 -0.056075 -0.025288 -0.011403 -0.030637 -0.033269 -0.032304 -0.007863 0.022339 0.064401 0.052790 0.028337
0.027955 0.025561 0.037693 0.021137 -0.008709 -0.005515 0.007761 -0.002297 -0.035832 -0.040524 0.005640 0.035600 0.061854 0.062177 -0.000936 -0.051690
-0.090635 -0.043323 -0.045322 -0.022323 -0.017939 -0.028921 -0.037055 -0.061427 -0.085648 -0.044544 -0.049777 -0.008070 -0.019422 -0.053561 -0.010430 -0.037776
-0.001014 0.060493 0.028976 0.016816 0.020017 0.023861 0.031806 0.013683 -0.019249 -0.019159 0.019153 -0.012777 -0.034738 -0.031102 -0.070737 -0.042979
-0.024171 -0.022351 0.085650 0.040198 0.015236 -0.034314 -0.039598 -0.031299 -0.034986 -0.038161 -0.025815 -0.030055 -0.069519 -0.026960 0.054987 0.016769
0.005966 0.050117 -0.033842 -0.054916 -0.021530 -0.000000 0.054093 0.028539 -0.008209 0.035455 -0.005279 -0.030519 -0.019710 0.002112 -0.034948 -0.046706
-0.015071 -0.027342 0.006148 -0.012296 0.011160 0.050110 0.019714 0.036614 -0.018439 -0.029036 -0.027024 -0.016642 0.033073 -0.000244 -0.024387 -0.014336
-0.032073 0.008549 0.073748 0.054272 0.041859 0.053933 -0.008126 -0.035194 -0.016121 0.036472 0.005803 -0.031797 0.006800 0.063039 0.038923 -0.012414
0.005826 -0.034921 -0.111019 -0.119672 0.037979 0.000683 0.056676 0.107631 0.002208 -0.000372 0.022115 0.055474 0.039373 0.031636 0.034688 0.037140
0.040722 0.033526 0.050403 -0.022004 -0.027436 0.021046 0.031618 0.075034 0.042853 0.119216 0.040485 0.044266 0.075940 0.042012 0.019141 0.016214
0.013254 0.024514 -0.023659 0.042648 0.056450 0.014912 -0.079615 -0.064239 0.051655 0.107732 0.022859 0.020077 -0.035432 0.002940 -0.021986 0.035423
0.064383 0.005078 0.043637 0.045535 0.026826 0.081413 0.052844 0.033756 -0.005020 0.021214 0.056021 0.075735 0.121569 0.098068 0.092920 0.079597
0.028257 0.033717 0.008265 0.056531 0.065751 -0.007332 -0.036718 0.005384 -0.015878 -0.002251 -0.009403 -0.016995 -0.006761 -0.032492 -0.018719 -0.098226
-0.021367 0.007874 0.012050 -0.052855 -0.099723 -0.078076 -0.068355 -0.027575 0.036944 0.066280 0.039381 -0.005718 -0.045093 -0.033894 -0.006425 0.028670
0.044621 0.021211 0.014123 0.046181 0.003921 -0.029547 0.068097 0.009280 -0.045123 -0.002929 -0.001197 0.022982 0.035808 0.025044 -0.001819 0.004117
-0.035357 -0.050522 -0.078454 -0.033889 0.032060 0.025758 0.017556 -0.049042 -0.083239 -0.086872 -0.062791 -0.033342 0.007191 0.014083 -0.001903 -0.039081
-0.099227 -0.129534 -0.116130 -0.081630 -0.067534 -0.085147 -0.064505 0.038965 0.004152 0.019536 0.061409 0.009900 0.040281 -0.023726 0.008655 0.043732
0.049643 -0.019715 -0.015423 -0.021591 0.008510 0.006807 -0.020527 0.047916 0.019480 0.033599 -0.007093 -0.053667 -0.097224 -0.062535 0.017597 0.072368
0.019708 -0.032661 -0.028030 0.037449 -0.025638 -0.108379 -0.146319 -0.141569 -0.122989 -0.088427 -0.014036 0.005938 0.095928 0.056520 -0.014780 -0.041405
-0.017290 -0.000867 -0.035547 -0.009976 0.025685 -0.036484 -0.011920 0.010119 -0.003247 -0.009741 0.036671 0.028868 0.014430 0.046626 0.036004 -0.036937
-0.070861 -0.057888 -0.034782 0.026029 0.022727 -0.038910 0.013358 0.073725 0.042288 0.000983 -0.057103 -0.088447 -0.110119 -0.067781 -0.024393 0.024795
0.006361 -0.007439 -0.037168 -0.099808 -0.071260 -0.051907 -0.008111 -0.003001 -0.040067 0.000935 0.079765 0.063147 -0.015292 -0.016426 0.014122 -0.008992
-0.000851 0.058337 0.014563 0.039368 0.015663 -0.051541 -0.064788 -0.075208 -0.084801 -0.026812 0.002189 0.031256 0.089079 0.017510 -0.022328 -0.080902
-0.089282 -0.094226 -0.045202 0.015228 0.033045 0.007929 -0.015535 -0.049102 -0.034002 -0.007120 -0.013171 0.028376 -0.018732 -0.036798 0.029658 0.060768
-0.017029 -0.011423 -0.013317 -0.031797 0.016475 -0.006462 0.053578 0.079050 0.046781 0.009450 -0.011374 -0.047850 -0.046262 0.002518 0.020400 -0.001645
0.003292 0.002462 -0.028570 -0.037396 -0.088486 -0.044294 0.005481 0.070874 0.118767 0.094188 0.006603 -0.071094 -0.010311 0.001790 -0.037783 -0.066857
-0.042531 -0.035817 -0.010539 0.034165 -0.014061 -0.015720 -0.024035 -0.020208 -0.003319 0.013403 0.038651 0.040913 0.034489 0.021197 0.008496 -0.034088
-0.014803 0.002889 0.023779 0.013390 0.014611 0.013656 -0.008019 -0.022011 -0.043534 -0.018483 0.041170 0.093998 0.113835 0.083861 -0.001519 -0.049664
-0.027952 -0.039838 -0.061508 -0.073234 -0.076453 -0.053374 -0.027407 -0.002388 -0.033227 -0.021756 -0.014438 -0.001362 0.024397 -0.001638 -0.022737 -0.005708
-0.013019 -0.015582 -0.018962 0.008635 0.013494 -0.017617 -0.024396 -0.001493 -0.003232 -0.015876 -0.028879 -0.023526 0.009434 0.039988 0.052163 0.057446
0.063808 0.039221 -0.004204 -0.011982 -0.000230 -0.012983 -0.007821 0.007644 0.017812 0.015435 0.030331 0.019265 -0.043424 -0.030411 -0.016046 -0.014468
0.019438 0.020822 -0.039145 -0.018902 -0.004138 -0.036174 -0.034924 -0.022937 -0.005308 -0.018153 -0.013444 -0.020573 -0.002602 0.013814 -0.005058 -0.013741
-0.022267 0.004663 0.028781 0.065511 0.070435 0.021479 -0.028192 0.001426 -0.007579 -0.030624 -0.013279 -0.005496 0.012537 0.017098 0.022722 0.005393
-0.025004 -0.049030 -0.026687 -0.033565 -0.024233 0.018612 0.018768 0.017941 0.051679 0.045399 -0.018102 -0.029282 0.000751 -0.009847 -0.058803 -0.053451
-0.024526 -0.045829 0.012648 0.012057 0.018693 -0.015759 0.011243 0.073495 0.018511 0.034234 0.036072 -0.008281 -0.035338 -0.033060 -0.034318 -0.007801
-0.032769 -0.012452 -0.016074 -0.017091 0.011961 0.055017 0.034366 0.051877 0.021263 0.020830 0.049607 0.063311 0.047514 0.024420 -0.009298 -0.032254
-0.054112 -0.067595 -0.039736 0.019567 0.014204 0.021708 -0.023038 0.034172 0.043391 0.030435 0.054568 0.028339 -0.001274 -0.000865 0.009551 0.007821
0.044194 0.045564 0.023868 -0.045432 -0.056584 -0.043968 -0.035832 -0.017830 0.057330 0.066159 0.124339 0.036580 0.043942 0.009647 0.043212 0.078320
0.027997 -0.048698 -0.085065 -0.099167 -0.044903 -0.040185 0.001561 0.028635 0.054920 0.016507 0.007805 -0.020847 -0.009829 -0.043942 -0.049263 -0.070917
-0.045588 -0.022446 0.011441 -0.001534 0.027848 0.020361 0.041663 -0.014265 0.018510 0.047047 0.035088 0.015283 0.035484 0.063357 -0.030335 -0.036361
-0.031701 -0.006519 0.012918 -0.039569 -0.075971 -0.079372 -0.087008 -0.102641 -0.072259 -0.062428 -0.016762 0.019703 0.078154 0.058902 0.042796 -0.000360
-0.034748 -0.044331 -0.052580 -0.114321 -0.085044 0.009616 0.012712 -0.022776 -0.044088 -0.051480 0.012849 0.066998 0.020610 0.031408 0.034510 0.006671
-0.028430 -0.032117 0.023643 -0.021817 -0.056681 -0.044568 -0.014604 -0.025603 -0.040403 -0.066205 -0.074002 -0.102739 -0.073002 -0.071375 -0.024446 0.028716
0.013794 0.007513 -0.006602 0.007569 -0.031555 -0.046586 -0.067109 -0.072124 -0.026247 -0.043690 -0.055872 -0.014928 -0.009965 -0.070089 0.024011 0.017303
-0.017834 -0.034244 -0.055448 -0.039661 -0.027220 -0.024862 0.019122 0.049786 -0.008882 0.001715 0.018280 0.064956 0.056207 0.028853 -0.033557 -0.065603
-0.116852 -0.079356 -0.045526 -0.030607 0.022877 -0.006157 0.017997 -0.030328 -0.051438 -0.047393 -0.080359 -0.048062 -0.017110 -0.032269 -0.067125 -0.027981
-0.028323 0.001006 0.096660 0.031933 -0.022725 0.072620 0.014662 -0.030433 -0.016006 -0.009155 -0.011956 -0.033916 -0.031865 -0.053977 0.020895 0.003008
0.008088 -0.029304 -0.040850 -0.065340 -0.038943 -0.023823 -0.018523 0.000631 0.021092 0.066204 0.038152 0.031220 0.007417 -0.010022 -0.077824 -0.037999
-0.037819 -0.045520 -0.016142 0.018902 0.025201 0.027354 0.018867 -0.061671 -0.026757 0.047370 0.000692 -0.024694 -0.055335 -0.076877 -0.031206 0.024314
0.004166 -0.012764 -0.070835 -0.064863 -0.075337 -0.051706 -0.038821 -0.056739 -0.012635 0.020571 -0.045491 -0.077506 -0.030852 0.011237 0.016157 0.030557
0.014701 -0.036814 -0.057252 -0.068165 -0.016373 -0.021182 0.009664 0.074659 0.053766 0.018676 -0.031324 0.013188 0.055513 0.027752 0.007052 -0.016538
-0.086617 -0.108226 -0.062695 -0.022908 -0.025893 -0.068001 -0.036279 0.004823 0.007603 0.009651 -0.031909 0.016707 0.042148 -0.011212 -0.025051 -0.087627
-0.072918 -0.024483 -0.004215 0.008376 0.052273 0.015596 -0.021544 0.056372 0.035633 0.021039 0.053180 0.070324 0.009692 -0.028686 -0.020953 -0.002769
0.055584 0.061372 0.032116 0.009141 -0.101288 -0.103575 -0.090963 -0.059031 -0.013719 0.007202 0.037049 0.064016 0.032162 0.054030 0.109360 0.074266
0.061437 0.066647 0.045093 0.027551 -0.083171 -0.096134 -0.075410 -0.018056 0.015673 0.074193 0.055342 0.078554 0.111101 0.094962 0.117787 0.034597
-0.045766 -0.060817 -0.101357 -0.025324 0.035760 0.048359 0.041159 0.030476 -0.103309 -0.105680 -0.100711 -0.052137 0.011841 0.027450 0.061984 0.086190
0.063019 0.088914 0.105454 0.089959 0.074990 0.082240 0.068399 0.015038 -0.035414 -0.075492 -0.063597 -0.017281 0.019286 0.045479 0.055308 0.085417
0.113042 0.114444 0.105184 0.049242 -0.024786 -0.070323 -0.083083 -0.052444 0.000474 0.029462 0.026251 0.019894 -0.071052 -0.077570 -0.063850 -0.046084
-0.042328 -0.045437 -0.033202 -0.006287 0.014807 0.037603 0.007569 -0.048642 -0.062601 -0.056160 -0.040306 -0.031555 -0.024919 -0.044343 -0.054651 -0.044839
-0.015396 -0.014352 -0.027152 -0.030452 -0.031743 -0.030801 -0.022514 -0.002930 -0.007826 -0.025201 -0.037670 -0.035820 0.005029 -0.011475 -0.040262 -0.050593
-0.071258 -0.076717 -0.082160 -0.054490 -0.042964 -0.057936 -0.033313 -0.029935 0.021316 0.056143 0.008830 -0.029221 -0.039230 -0.044737 -0.011694 -0.004215
-0.029233 -0.039177 -0.059083 -0.043081 -0.019751 0.007420 -0.025098 -0.046917 -0.047340 -0.032731 -0.013125 0.009089 -0.004978 -0.010185 -0.061564 -0.029949
0.017695 0.001600 -0.044393 -0.052212 -0.056068 -0.077034 -0.049301 -0.026928 -0.016196 -0.027445 -0.033819 0.017091 -0.031049 0.023221 0.106320 0.073227
0.061256 0.046538 0.053203 0.017581 0.005150 -0.004313 0.007888 0.033376 0.038508 0.049403 0.089508 0.054428 0.054122 0.038998 0.018795 0.001312
0.011216 -0.014004 -0.039450 -0.010611 0.006505 -0.033611 -0.031419 -0.045846 -0.033668 -0.043461 -0.014435 0.004480 0.025706 0.012886 -0.008294 -0.006667
0.024525 0.016572 0.082492 0.100964 0.061017 0.069248 0.021684 0.019123 0.006044 0.019500 0.037847 0.001796 -0.000908 0.007272 0.024842 0.035640
0.033305 0.031310 -0.018717 0.002567 0.010064 -0.016492 -0.012010 -0.006590 -0.009825 -0.009300 -0.048221 -0.014838 -0.011322 -0.008803 -0.011593 0.039886
0.051900 0.064045 0.053910 0.032418 0.008779 0.035172 0.035579 0.047638 0.036243 0.045578 -0.000694 -0.003606 0.007203 0.000526 -0.023832 -0.037908
-0.034887 -0.030312 -0.023497 -0.044962 -0.023258 -0.017016 -0.003527 -0.034951 -0.038370 -0.020082 0.025372 0.013960 -0.001221 -0.036008 0.028099 0.020861
0.029225 0.033431 0.059114 0.024759 0.030622 0.016423 0.064611 0.054156 0.059515 0.061177 0.039292 0.050977 0.065230 0.052658 0.028176 -0.007387
-0.011363 -0.021408 -0.027358 -0.026179 -0.014627 -0.007998 0.014268 0.037082 0.047169 0.063740 0.001701 -0.037775 -0.034221 -0.001370 0.010192 0.001917
0.005665 0.009057 0.006492 0.012559 0.039192 0.045798 -0.016161 -0.054853 -0.085538 -0.027583 -0.007222 0.020052 0.038891 0.037146 0.061370 0.042439
-0.013691 0.008629 -0.006533 -0.017533 -0.020916 -0.026318 -0.029067 -0.034590 -0.025435 -0.028222 -0.014171 0.055208 0.052040 0.030827 0.013279 0.024164
0.000386 0.016590 0.046050 0.020612 -0.024250 0.004909 0.042436 0.030121 0.019399 -0.009463 -0.041620 -0.035901 -0.043961 -0.058572 -0.010620 0.016948
0.028833 0.003973 -0.037342 -0.039545 -0.034037 -0.063380 -0.070371 -0.052807 -0.056930 -0.042411 -0.048792 -0.051537 -0.055010 -0.036646 -0.037542 -0.090494
-0.094196 -0.093539 -0.030324 0.009606 0.059795 0.076077 0.041554 0.017766 -0.046060 -0.019540 0.014206 0.032732 0.052586 0.048705 0.034757 0.005650
-0.039033 -0.117831 -0.087971 -0.064580 -0.049681 -0.006525 -0.001360 -0.010700 0.002126 0.003491 0.011309 -0.024898 -0.027032 -0.039415 -0.021370 -0.043168
-0.028798 -0.014008 -0.051184 -0.077757 -0.105187 -0.058411 -0.030946 0.006354 0.042553 0.011810 -0.001027 -0.051763 0.012993 0.032674 0.042372 0.054451
0.054509 0.028992 -0.008952 -0.035535 -0.100702 -0.111782 -0.171687 -0.141455 -0.093063 -0.034187 -0.032919 0.023660 0.004480 0.002460 0.007768 0.067153
0.024964 0.022960 0.044147 0.029018 -0.000299 0.015854 0.014072 -0.031778 -0.014092 0.014593 0.008539 -0.010989 -0.055174 -0.043603 -0.105099 -0.031490
0.008401 0.033659 0.069830 0.067290 0.026205 -0.013796 -0.036564 -0.038899 -0.032249 -0.110101 -0.109819 -0.131629 -0.091893 -0.062472 -0.016708 -0.053583
-0.027469 -0.000923 -0.006624 0.041036 0.088076 0.102973 0.103127 0.132713 0.095958 0.014334 0.003965 0.010302 0.012090 0.029855 0.022996 -0.009450
-0.045119 -0.100534 -0.050793 -0.021979 0.025230 0.033568 0.066737 0.076649 -0.000394 -0.031336 -0.041337 -0.043096 -0.056096 -0.041738 -0.068303 -0.059071
-0.065105 -0.091504 -0.085903 -0.057866 -0.008649 0.033380 0.050401 0.105509 0.108875 0.093361 0.105521 0.077679 0.095765 0.091086 0.030905 -0.007553
-0.021903 0.004766 0.016036 0.025284 0.011077 -0.010136 -0.048443 0.005858 0.025790 0.041279 0.052652 0.077814 -0.017772 -0.036270 -0.042378 -0.053976
-0.034303 -0.040276 -0.037955 -0.038963 -0.063826 -0.079138 -0.079848 -0.053364 -0.004478 0.019619 0.043431 0.080957 0.078398 0.082532 0.083332 0.065126
0.053616 0.062383 0.013025 -0.034039 -0.042637 -0.011399 0.021502 0.020865 0.016150 -0.001013 -0.026220 0.000956 0.028473 0.029686 0.046587 0.058902
0.061789 0.057513 0.045822 0.026538 0.018662 0.017266 0.004379 0.021734 0.054152 0.075034 0.036769 0.051229 0.046746 0.034723 -0.004012 -0.056549
-0.075007 -0.009033 0.062194 0.061963 0.043372 0.042365 0.010495 -0.034272 -0.031395 -0.011163 -0.027103 -0.007711 -0.000833 -0.016250 -0.018065 -0.019164
-0.037734 -0.083112 -0.090779 -0.088959 0.058872 0.068514 0.057021 0.040660 0.032027 0.039469 0.037272 0.019911 0.049115 0.091581 0.042503 0.059100
0.069821 0.044827 -0.036297 -0.055782 -0.082047 0.004502 0.070965 0.090607 0.037037 0.039675 0.029341 -0.035922 -0.019449 -0.011921 0.012567 0.014912
0.006482 -0.000608 -0.011575 -0.019676 -0.052797 -0.073533 -0.097963 -0.082393 0.065687 0.056727 0.093426 0.093881 0.069223 0.092853 0.074500 0.055372
0.065544 0.035049 0.008228 -0.039760 -0.017908 0.008576 0.065266 -0.012637 -0.030948 -0.016829 0.063743 0.033724 0.013104 0.007747 -0.020024 -0.022062
-0.016140 0.039918 0.065559 0.098264 0.054397 -0.001004 0.022400 -0.015993 -0.060165 -0.079019 -0.065417 -0.060447 0.061883 0.045262 0.039446 0.060490
0.082468 0.020066 -0.010731 -0.043058 -0.020578 -0.031717 -0.065877 -0.087163 -0.020278 -0.000715 -0.002978 0.035208 0.016294 0.050124 0.012173 0.050378
0.057369 0.075807 0.047803 -0.003137 -0.028845 0.014885 -0.001754 0.034955 0.064612 0.039094 -0.015747 -0.052712 -0.072287 -0.052963 -0.027427 -0.021993
0.071507 0.045956 0.008163 -0.009686 -0.018488 -0.062294 -0.088439 -0.058345 -0.053442 -0.050852 -0.063134 -0.071661 -0.101879 -0.022677 -0.011003 -0.016896
-0.009356 0.031921 0.053675 0.059020 0.049363 0.065077 0.030906 0.030681 0.079964 -0.009593 0.013576 -0.018994 -0.033755 -0.028809 0.026666 -0.003352
0.005454 -0.028045 -0.022774 -0.007054 0.097267 0.091813 0.044111 -0.019478 -0.035895 0.002400 0.033473 0.038271 0.022281 -0.031496 -0.073312 -0.106609
-0.082952 0.012625 0.032125 0.006568 0.023700 0.053462 0.081718 0.057388 0.055932 0.003317 -0.039813 0.056124 0.051017 0.063570 0.012564 -0.021571
0.028397 0.013022 0.033046 0.077175 0.065569 0.005619 -0.043465 -0.006389 0.078622 0.061343 0.050524 0.024374 -0.033886 0.041531 0.076909 0.008257
-0.008767 -0.073494 -0.116767 -0.112565 -0.087160 -0.041532 -0.005064 0.010557 -0.023722 -0.010127 0.000541 0.032713 0.003803 0.005142 -0.019572 -0.015989
-0.014836 -0.017761 0.008264 0.039226 0.056045 0.051125 0.044331 0.011607 0.012558 0.065862 0.002601 0.005694 0.086153 0.053489 0.050564 -0.005816
-0.041979 -0.045082 -0.036488 -0.024713 -0.039220 -0.053679 -0.059982 -0.038546 -0.031029 -0.068775 -0.077691 -0.067827 -0.000815 -0.013244 0.008014 0.025868
0.027957 -0.000244 -0.003853 0.030754 -0.005499 -0.052738 0.014650 0.012080 -0.015301 -0.049526 -0.024289 -0.037997 0.004637 -0.001281 0.002588 0.002058
0.100611 0.104264 0.019424 -0.011211 -0.069939 -0.039181 -0.005614 -0.065825 -0.058000 -0.040605 0.000949 0.034113 0.014320 -0.012263 -0.054290 -0.037326
0.011212 0.048160 0.051585 0.043020 0.050105 0.061938 0.035503 0.043346 0.071478 0.074050 -0.008887 -0.011987 -0.042323 -0.036860 -0.045657 -0.040338
-0.018187 0.012131 0.012409 0.017716 0.102735 0.084495 0.069732 -0.013141 -0.027959 -0.037434 -0.061644 -0.025898 -0.029755 -0.001991 0.038250 0.081061
0.017208 -0.013302 -0.040566 -0.009474 0.024738 0.048104 0.047998 0.028880 0.032278 0.070131 0.054082 0.063579 0.128289 0.108999 0.020804 -0.012146
-0.022437 -0.042670 0.029561 0.023260 0.009756 0.047034 0.048937 0.043951 0.088579 0.081946 0.040266 -0.019086 -0.057018 -0.039752 -0.045429 -0.085740
-0.071327 -0.016345 0.070719 0.075935 0.048483 -0.011020 -0.013935 0.039656 -0.005534 0.031493 0.022633 0.015426 -0.009802 0.010908 -0.010233 -0.002800
0.013732 0.024370 -0.030898 -0.005964 -0.003103 0.039474 0.022189 0.046728 0.025568 0.050286 0.044876 0.050273 0.078609 0.061431 0.026673 -0.027664
-0.023445 -0.005914 -0.019502 -0.059592 -0.086121 -0.026240 0.017626 0.030981 0.024143 0.051657 0.008477 -0.036399 -0.022829 -0.031556 -0.032711 -0.037868
-0.032410 -0.035028 -0.037713 -0.023005 0.005089 0.015541 0.013646 0.027555 0.046791 0.032538 0.060988 0.044329 0.049904 0.041379 0.049535 0.046514
0.065760 0.046388 0.009574 -0.010079 -0.012334 -0.009549 -0.020579 -0.042861 -0.062354 -0.020655 0.010984 0.017326 0.041246 0.030591 -0.002476 -0.015116
-0.036973 -0.039407 -0.039030 -0.042487 -0.045091 -0.023653 -0.024854 -0.003305 0.001697 0.008415 0.019949 0.040350 0.039173 0.034225 0.044988 0.050289
0.053964 0.047597 0.050107 0.054596 0.048683 0.055510 0.059879 0.060256 0.053527 0.030486 -0.001815 -0.037111 -0.061760 -0.049850 -0.051199 -0.044284
-0.027849 -0.040215 -0.027594 -0.017861 -0.014251 -0.010672 -0.015678 -0.045818 -0.036594 -0.001777 0.032157 0.069362 0.102346 0.115530 0.080334 0.028906
-0.009658 -0.000763 0.031900 0.044795 0.033470 0.042297 0.059455 0.067139 0.041253 0.042766 0.050196 0.053819 0.068770 0.022341 -0.013621 -0.053085
-0.060212 -0.044473 -0.062663 -0.047291 -0.042644 -0.057189 -0.045463 -0.026130 -0.010488 -0.019361 -0.013366 -0.044725 -0.041135 0.006425 0.039078 0.061480
0.108468 0.129538 0.064683 -0.012138 -0.017527 0.005754 0.021019 0.029407 0.028862 0.037688 0.068405 0.062551 0.035284 0.044302 0.021894 0.006801
0.005546 0.009382 -0.039866 -0.068700 -0.076597 -0.022246 -0.033051 -0.074017 -0.049550 -0.067725 -0.054012 -0.010445 0.008809 -0.027944 -0.056219 -0.016208
-0.018152 -0.055330 -0.039501 0.005673 0.011492 0.020498 0.008959 0.005932 0.004711 0.008229 0.004357 -0.022907 -0.001943 0.014515 0.024719 0.038634
0.031866 0.041116 0.038846 0.024743 -0.021769 0.002895 -0.001451 -0.004756 -0.029369 -0.065000 -0.049290 -0.021033 -0.064521 -0.076351 -0.035392 0.018804
0.040495 0.004029 -0.046767 -0.048745 -0.037420 -0.070586 -0.052411 -0.053728 -0.066843 -0.069086 -0.020445 -0.035332 -0.047886 -0.020630 -0.051965 -0.013331
-0.011730 -0.017151 -0.015184 -0.005694 0.010969 -0.018931 0.053237 0.046361 0.014599 -0.007408 0.035227 0.050718 0.011285 -0.054719 -0.064900 -0.033055
0.014385 0.015900 0.037700 0.012384 -0.001998 0.005640 -0.021618 -0.069236 -0.029033 -0.029448 -0.010264 0.008820 -0.029921 -0.038286 -0.037637 -0.024860
-0.036616 -0.015034 0.008071 0.015985 0.017195 0.018062 -0.001120 0.004106 0.010862 -0.000134 -0.007513 0.007204 -0.028254 -0.006117 -0.003064 -0.025014
-0.026615 -0.017540 0.012630 0.031316 0.012073 0.013175 0.040951 0.059879 0.073974 0.073116 0.056213 0.034788 0.018103 0.037460 0.022909 0.026295
0.036722 0.022043 0.002715 -0.008804 -0.022568 -0.008491 0.004955 -0.011313 -0.001976 0.020489 -0.004228 -0.004439 0.032252 0.017451 -0.017640 -0.036668
-0.051796 -0.054293 -0.036933 -0.031228 -0.074322 -0.054014 0.003905 0.021539 0.043288 0.004423 0.046469 0.066556 0.083804 0.077174 0.056827 0.026745
0.017821 0.025665 0.016696 -0.054184 -0.033013 0.003721 0.042002 0.011073 -0.009651 -0.035299 -0.018718 -0.009182 -0.021476 -0.023131 0.000451 0.002487
0.049887 0.060051 0.051738 -0.004000 -0.038372 0.006442 0.023589 0.005899 0.032512 0.020538 -0.049181 -0.054971 -0.069836 -0.036803 -0.039325 -0.028406
-0.009317 -0.023142 -0.044588 -0.046308 -0.055794 -0.065187 -0.113372 -0.081382 -0.054336 -0.045200 -0.053166 -0.046154 -0.023383 -0.001825 0.035679 0.037144
0.020993 0.000991 0.012154 0.007020 0.052064 0.025287 0.037402 -0.005662 0.002126 0.083880 0.067415 0.045789 0.064008 0.032499 -0.016272 -0.034805
-0.032925 -0.048513 -0.021262 0.002281 -0.028584 -0.074421 -0.063255 -0.050011 -0.041878 -0.065141 -0.044639 -0.052188 -0.031141 -0.043447 -0.056335 -0.044818
-0.005957 0.032584 0.039714 0.044402 0.011206 0.034695 0.009035 0.022698 0.082216 0.092042 0.012433 -0.019049 -0.031036 -0.004140 0.034921 0.040913
0.038590 -0.024449 -0.044559 -0.026163 0.006557 0.017171 -0.009669 0.027716 0.003388 -0.031365 -0.033091 -0.019647 -0.000087 0.002912 0.001737 0.029054
0.025156 0.019961 -0.015467 0.000821 0.047450 0.046571 0.076450 0.049884 0.046508 -0.010162 0.015149 0.019091 0.093510 0.086577 0.028921 -0.028721
-0.066076 -0.092570 -0.032050 -0.018502 -0.014327 -0.000066 -0.055926 -0.036787 -0.024899 -0.026666 -0.000708 -0.025770 -0.055889 -0.049778 -0.024035 0.002013
0.056611 0.073547 0.067116 0.023600 -0.005085 -0.038724 -0.048118 -0.025636 0.030795 0.062789 0.055982 0.053676 0.051112 0.012330 0.010229 0.015320
0.088847 0.071878 0.026602 -0.026369 -0.086691 -0.087458 -0.097929 -0.072807 -0.070344 -0.084606 -0.024888 -0.022181 -0.038830 -0.062090 -0.077377 -0.067258
-0.039124 -0.036168 0.003465 0.064822 0.109247 0.122481 0.081062 0.047690 -0.010753 -0.096123 -0.091373 -0.077251 -0.057559 -0.012889 0.049845 0.096206
0.098304 0.064402 0.022928 0.010552 0.079932 0.057806 0.018796 -0.035361 -0.085487 -0.099451 -0.095999 -0.085914 -0.067218 -0.062802 -0.049596 -0.026589
-0.045994 -0.064277 -0.075742 -0.058122 -0.030490 -0.028328 -0.009843 0.036730 0.091159 0.104610 0.051103 0.019797 -0.042583 -0.092781 -0.102159 -0.089973
-0.064816 -0.020165 0.029932 0.081980 0.106432 0.091668 0.058619 0.028221 0.118996 0.108429 0.097455 0.076088 0.040574 -0.011735 -0.055589 -0.086087
-0.099425 -0.084827 -0.090042 -0.068250 -0.075452 -0.095504 -0.072877 -0.054997 -0.045848 -0.048276 -0.033101 -0.067613 -0.096812 -0.090430 -0.096832 -0.100707
-0.068061 -0.033623 -0.067474 -0.092097 -0.103945 -0.079261 -0.026787 0.028373 0.065807 0.075629 0.076534 0.079769 0.116626 0.107164 0.091483 0.083801
0.072716 0.006411 -0.053590 -0.098587 -0.098714 -0.064187 -0.085278 -0.039822 -0.046851 -0.096879 -0.056079 -0.045436 -0.040297 -0.023174 -0.025665 -0.052195
-0.097856 -0.055480 -0.078943 -0.114928 -0.058075 -0.002447 -0.054511 -0.102537 -0.099921 -0.054685 -0.036690 0.026108 0.074351 0.076643 0.076072 0.071815
0.117166 0.112620 0.092506 0.070240 0.049902 0.029223 -0.005680 -0.018502 -0.012160 0.007306 0.015526 0.008621 0.033309 0.023325 0.014301 0.031651
0.036380 -0.014681 0.009150 0.024037 0.009224 -0.038840 -0.021222 -0.025639 0.014868 0.007160 -0.007521 -0.036273 -0.014265 -0.055580 -0.016743 0.009048
0.027313 0.021292 0.037513 0.053694 0.105459 0.100490 0.073320 0.044206 0.012452 0.019837 0.004978 -0.004568 0.021015 0.053231 0.084120 0.065387
0.024205 -0.015323 -0.015760 0.029576 0.035625 0.035498 0.005489 0.061099 0.076033 0.056239 0.067442 0.076567 0.042576 0.074221 0.085092 0.082926
0.051604 0.044342 -0.008741 -0.002378 -0.000319 -0.014815 0.021746 0.013586 0.112054 0.119904 0.060335 0.011226 -0.013402 -0.037090 -0.019688 -0.038000
-0.017284 -0.019981 -0.008764 0.017944 -0.014867 0.013814 0.007138 -0.043669 -0.041071 -0.005048 0.010945 -0.022119 0.010435 0.009673 -0.000105 0.009419
-0.014339 -0.029487 0.016339 0.027152 -0.013110 0.013336 0.026365 0.010979 0.007348 -0.001181 -0.026093 -0.011466 0.105925 0.095801 0.026569 -0.015454
-0.036963 -0.012778 -0.006590 -0.003191 -0.006503 0.002111 0.001439 -0.009428 -0.048770 -0.028116 -0.014086 -0.026634 -0.030975 -0.017993 -0.022283 -0.029121
-0.034605 -0.029264 -0.062998 -0.042714 -0.035863 -0.036394 -0.046131 -0.029389 -0.014290 0.003868 0.030137 0.020561 0.027891 0.027272 0.008014 -0.000340
0.095601 0.085834 0.042442 0.003516 -0.032663 0.008900 0.022325 0.025122 0.000854 0.012787 0.020457 0.051637 0.037350 -0.010780 0.020631 0.019931
0.051790 0.051757 0.034305 -0.014016 -0.008694 0.030114 0.044516 0.015994 0.015198 0.002902 0.013105 0.044321 0.016390 0.009730 0.023795 0.057685
0.023433 0.006219 -0.046828 -0.025807 0.049953 0.045450 0.043749 0.020078 -0.014065 0.004793 0.025010 -0.010161 0.039300 0.044980 0.053002 0.071137
0.066051 0.044335 0.005341 0.008930 0.045790 0.061121 0.016413 0.056598 0.059925 0.072530 0.032333 0.048599 0.050027 0.003215 0.016479 -0.040172
-0.012496 0.003292 0.025828 0.027436 -0.009611 -0.040959 -0.032536 -0.045873 0.040266 0.023102 0.042082 0.021124 -0.001322 0.010328 -0.027315 -0.047739
-0.002712 0.045135 0.035887 0.019557 0.027176 0.008887 0.009873 0.005364 0.003613 -0.038492 0.013091 0.032857 0.059062 0.035796 0.000947 -0.061620
-0.045926 -0.043993 -0.056418 0.007130 0.007517 -0.019612 -0.059104 -0.064114 -0.034576 -0.001025 -0.014039 -0.011001 0.033145 0.031997 0.003715 0.020124
0.031050 -0.040545 -0.062160 -0.038863 -0.019495 0.026326 0.042639 0.001718 -0.005577 0.001027 -0.035784 0.004865 -0.025371 -0.039652 -0.030193 -0.023712
-0.024777 -0.037622 -0.038365 -0.067412 -0.066988 -0.030283 0.011613 0.021064 -0.018577 -0.086811 -0.096572 -0.066533 -0.041601 -0.021862 0.014648 0.003426
0.029750 0.026255 0.026482 0.034015 0.013430 0.018990 0.011512 -0.017059 0.025475 -0.008834 -0.014477 0.030087 0.023207 0.004747 0.038160 -0.010716
-0.040476 -0.036738 -0.039056 -0.051934 -0.073019 -0.081404 -0.084837 -0.067854 -0.016372 0.002128 0.075958 -0.000055 -0.050742 -0.078038 -0.086482 -0.051920
-0.015885 -0.011847 0.013292 0.017342 0.031510 0.032024 0.033699 0.020601 0.015346 0.034998 0.064261 0.082267 0.036611 -0.002736 -0.034919 0.009180
0.005526 -0.002899 -0.036132 0.021362 0.060179 0.069944 0.050611 0.023664 0.001907 -0.020829 -0.001498 -0.002899 0.016883 0.010639 -0.026639 0.006582
-0.033376 -0.059780 -0.069360 -0.013951 0.021868 0.013370 0.006857 0.019119 0.034088 0.035603 0.028366 0.022944 0.038434 0.065827 0.072882 0.053332
0.031028 -0.002118 -0.024584 -0.016625 -0.001543 -0.027227 -0.013571 0.005415 0.025505 0.060192 0.054872 0.031998 0.010103 -0.016603 0.007023 0.010288
0.005572 0.009878 -0.001854 -0.022649 -0.019348 -0.038930 -0.038444 -0.001516 0.019414 0.019289 0.015068 0.010086 -0.018877 -0.025480 -0.033456 -0.027331
-0.022361 -0.018884 -0.013717 0.022400 0.048718 0.087968 0.110086 0.098971 0.056486 0.010713 0.007495 0.032990 0.054758 0.059921 0.080208 0.099568
0.107753 0.063519 0.013375 -0.004629 0.002701 0.022377 0.029394 0.019561 0.010305 0.004467 0.027455 0.061307 0.077080 0.066259 0.051757 0.030394
-0.014371 -0.021502 -0.035588 -0.032878 -0.022634 -0.023544 -0.019904 0.007970 0.044516 0.080847 0.133896 0.121965 0.067497 -0.004551 -0.008895 0.026648
0.054130 0.064164 0.080384 0.113436 0.119689 0.050024 -0.021701 -0.013250 -0.004854 0.031155 0.021319 0.023542 0.012535 0.006991 0.023638 0.055381
0.076992 0.074623 0.037606 0.015305 -0.000678 -0.021306 -0.012024 -0.019460 -0.001799 -0.009937 -0.036275 -0.034546 0.018804 0.044654 0.040443 0.028976
-0.001378 -0.034780 -0.039989 -0.027852 -0.030104 -0.012570 -0.006151 0.009514 -0.002114 -0.012694 -0.006221 -0.027161 -0.002086 -0.014723 0.025546 0.029511
0.017871 0.008433 0.044104 0.058181 0.030748 0.023967 0.019716 -0.005167 0.018402 0.013993 0.003910 -0.032081 -0.010288 0.030717 -0.004417 -0.029023
-0.016206 -0.010674 0.000916 -0.003037 -0.023763 -0.045166 -0.062806 -0.065608 -0.072463 -0.050729 0.000999 -0.037951 -0.060061 -0.038827 -0.045146 -0.038282
-0.038697 -0.008795 -0.021522 0.000410 0.055922 0.033766 0.043303 -0.005343 0.001406 0.011947 0.009687 -0.009753 0.030606 0.025202 -0.016453 0.044363
0.034089 0.010550 -0.011347 -0.021887 -0.005216 0.013252 0.025785 0.046482 0.013616 0.013693 -0.014946 -0.023885 -0.017716 -0.009100 -0.025146 -0.012797
-0.009064 -0.019636 -0.033570 -0.052893 -0.066716 -0.050069 -0.035400 -0.008361 -0.019043 -0.043318 -0.024533 0.010844 0.021638 -0.010266 -0.021164 -0.007232
0.015912 0.014404 0.011936 -0.010154 0.045263 0.007374 -0.013662 0.024104 0.006165 0.007814 0.033281 0.064123 0.062149 0.071210 0.040322 0.008388
-0.018825 -0.022772 -0.017697 0.008166 0.035654 0.029469 0.016642 0.024945 -0.008980 -0.034299 -0.045664 -0.026908 -0.020816 -0.024126 -0.005521 -0.006974
-0.020011 -0.015424 0.000348 0.007365 -0.008812 -0.020821 -0.025087 0.008208 0.006932 0.023994 0.023834 0.032033 0.061577 0.066253 0.088739 0.134114
0.112803 0.110601 0.056777 0.021375 0.028143 0.033023 0.043095 0.037891 0.060067 0.075771 0.114486 0.084735 0.060393 0.055266 0.026586 0.018342
0.025223 0.049167 0.001238 0.002877 -0.017838 -0.013890 -0.005306 -0.007381 0.023808 0.044163 0.006491 0.029911 0.050258 0.015394 0.023566 0.022040
0.062315 0.094519 0.109622 0.085209 0.083058 0.021636 -0.019148 -0.048270 -0.051779 -0.017740 -0.029715 -0.000175 0.013140 0.043560 0.076738 0.094137
0.075690 0.068337 0.049686 0.076598 0.067175 0.065197 0.017224 0.021034 0.034221 -0.003468 0.026571 0.022098 0.031355 0.018246 0.020860 0.016679
-0.015593 -0.049627 -0.069268 -0.040467 0.004419 0.021933 0.021596 0.004323 -0.026460 -0.008271 -0.035775 -0.095247 -0.067100 -0.052936 -0.029372 -0.031213
-0.016168 -0.001797 -0.008696 -0.013593 0.000413 0.006884 0.006830 0.056012 0.051450 -0.011472 -0.054563 -0.044202 0.002777 0.011352 0.020433 0.036982
0.035811 0.029847 -0.002083 -0.034986 -0.067924 -0.072770 -0.067133 -0.042895 -0.034734 -0.019352 -0.043924 -0.057228 -0.075591 -0.059415 -0.073511 -0.049059
-0.041190 -0.047062 -0.051657 -0.071494 -0.077411 -0.067617 -0.048423 -0.045216 -0.053976 -0.057260 -0.041716 -0.012142 -0.028213 -0.053429 -0.100406 -0.037499
-0.004313 0.056512 0.063116 0.055591 0.032793 0.024252 0.006941 -0.020287 -0.049724 -0.045917 -0.040813 -0.013809 0.024800 0.045930 0.035426 -0.018083
0.000443 0.001279 -0.041997 -0.041941 -0.075158 -0.087069 -0.094935 -0.105135 -0.103093 -0.062911 -0.019620 -0.054380 -0.003791 -0.008033 -0.024815 -0.042176
-0.047379 -0.068056 -0.034633 0.015613 0.044419 0.070792 0.079535 0.076955 0.029029 0.020152 0.004662 -0.027469 -0.066168 -0.072343 -0.020340 0.029196
0.080076 0.069155 0.039001 0.064075 0.074717 0.039923 -0.007157 -0.057345 -0.058925 -0.092525 -0.093359 -0.065248 -0.032359 0.001119 0.037148 0.035830
-0.009335 0.018203 -0.006904 0.007697 -0.018569 -0.031610 0.008346 0.067815 0.099460 0.080244 0.083881 0.089313 0.024870 0.014435 -0.000017 -0.044274
-0.060063 -0.033867 0.000251 0.035509 0.071245 0.071888 0.057483 0.046245 0.070265 0.054092 0.016053 -0.026149 -0.061244 -0.070062 -0.072241 -0.047277
-0.019704 0.024065 0.046761 0.029546 0.023607 0.028857 0.025132 0.017794 0.002715 -0.012146 0.019429 0.073184 0.098971 0.095246 0.089142 0.091267
-0.003476 0.026104 0.050720 0.057229 0.057729 0.048833 0.016053 -0.003558 -0.010808 -0.025048 -0.018471 -0.008394 0.003326 0.019206 0.025552 0.006327
-0.010168 -0.008997 -0.011063 -0.002124 0.001674 -0.002103 -0.024549 -0.042805 -0.033264 -0.024814 -0.008930 -0.006978 -0.005606 0.018867 0.048132 0.080109
0.097718 0.119993 0.123420 0.109465 -0.016103 0.001186 0.040140 0.052623 0.053813 0.044136 -0.001829 -0.021029 -0.021937 -0.017859 -0.020389 -0.018379
0.007302 0.032731 0.042159 0.010795 -0.010239 -0.005427 -0.011332 -0.001927 0.009338 -0.014886 -0.033065 -0.053829 -0.045630 -0.026182 -0.010610 -0.020139
-0.002242 0.001228 0.035454 0.053565 0.101059 0.113731 0.111900 0.083717 -0.013097 -0.017391 -0.001037 0.013235 0.008164 -0.002126 -0.004305 -0.051760
-0.059267 -0.058832 -0.041251 -0.035783 -0.035546 -0.018471 -0.017227 -0.019142 -0.032230 -0.004623 -0.002375 -0.009835 -0.007973 0.012219 -0.010888 -0.025714
-0.025278 -0.014531 -0.028897 -0.032542 -0.008567 -0.002947 -0.008231 0.030882 0.022065 0.041306 0.032598 0.026678 -0.001297 0.010164 -0.024236 -0.026033
-0.021459 -0.017459 -0.038139 -0.014408 0.007528 -0.005272 0.005102 0.035430 0.042650 0.051417 0.052547 0.040930 0.033974 0.026683 0.040649 0.036970
0.037089 0.074298 0.060762 0.057784 0.066702 0.039922 0.033269 0.019398 -0.009519 -0.028063 -0.002049 -0.017347 -0.025002 -0.029527 -0.019784 -0.001316
-0.005089 0.007645 -0.001429 -0.004009 -0.016053 0.017555 0.037706 0.043195 0.088689 0.078198 0.088505 0.080586 0.112683 0.096548 0.108210 0.085997
0.077709 0.072316 0.076384 0.092254 0.081583 0.058031 0.047974 0.059029 0.067825 0.055329 0.035745 0.027550 0.027304 0.024523 0.039283 -0.003807
-0.001134 -0.020100 0.024441 0.008598 -0.028768 -0.033435 0.020883 0.015956 0.024057 0.030126 0.029002 0.041730 0.018481 0.008112 0.021068 0.019155
0.012178 0.007932 0.005350 0.016156 0.008697 0.013707 0.021878 0.031529 0.034310 0.016566 0.003779 -0.009645 -0.004309 -0.004397 0.002515 0.036169
0.044246 0.029760 0.036420 0.033100 0.018509 0.030647 -0.022703 -0.008673 -0.059150 -0.049757 -0.030951 -0.003664 -0.001176 -0.029269 -0.039126 -0.049474
-0.018448 -0.040600 -0.013394 -0.035103 -0.018922 -0.030953 -0.056389 -0.062434 -0.065669 -0.062553 -0.054896 -0.045157 -0.041521 -0.030992 -0.019077 0.008792
-0.000397 -0.009388 -0.013491 -0.029166 -0.003214 -0.000275 -0.040309 -0.025323 -0.009410 -0.032203 -0.016539 -0.023433 -0.089965 -0.093516 -0.068371 -0.030010
-0.018364 -0.028285 -0.032372 -0.030621 -0.038625 -0.001662 -0.010914 0.019074 0.027192 0.009194 0.003638 -0.031873 -0.027299 -0.020318 -0.013250 -0.011145
-0.006469 -0.007372 0.033173 0.021406 0.015697 0.022840 -0.024586 0.006362 -0.030537 -0.042788 -0.049089 -0.050742 -0.034189 -0.015474 -0.042776 -0.038303
-0.077951 -0.067756 -0.029846 -0.004042 -0.001595 0.002323 -0.009928 0.005199 0.005610 0.003133 0.003569 0.016303 0.026429 0.055164 0.036064 0.034731
0.045529 0.058864 0.043846 0.050412 0.049589 0.056112 0.030188 0.029725 0.034703 0.017360 0.013341 0.033259 0.008590 -0.018185 -0.021214 0.006724
0.041472 0.047141 0.018213 -0.001432 -0.062845 -0.041173 -0.030972 -0.019742 -0.019405 -0.002644 0.008423 -0.004545 -0.014053 -0.021699 -0.021805 0.002368
0.025589 0.066511 0.075678 0.049413 0.066649 0.061129 0.049459 0.052887 0.055057 0.049966 0.022638 -0.007960 -0.030673 -0.029545 0.026159 0.062455
0.058279 0.042952 0.017750 0.032224 0.054278 0.086359 0.074421 0.045496 -0.052381 -0.042185 -0.029043 -0.028389 -0.022184 -0.020366 0.009785 0.031370
0.006780 -0.039757 -0.007269 -0.015241 -0.008881 0.011554 0.022067 0.010955 0.044550 0.031689 0.032437 0.033600 0.032680 0.019483 0.003349 -0.035234
-0.080175 -0.038025 0.021814 0.100039 0.098475 0.088361 0.071710 0.094625 0.096101 0.116774 0.098893 0.075112 -0.049386 -0.038895 -0.031069 -0.028268
-0.033506 -0.013849 -0.000896 0.014252 0.038316 0.045293 -0.023139 -0.043907 -0.036683 -0.031869 -0.021761 -0.030971 -0.024542 0.013038 0.020128 0.008815
-0.018403 -0.018675 -0.040864 -0.061342 -0.017042 0.004184 0.040677 0.086681 0.107090 0.097666 0.100395 0.135769 0.171971 0.129994 0.111099 0.095332
-0.045824 -0.037205 -0.029683 -0.038087 -0.015789 -0.003565 0.006534 0.020679 0.041730 0.034620 0.001669 -0.030066 -0.038309 -0.034341 -0.028332 -0.041506
-0.033361 -0.007160 -0.004154 -0.017722 -0.034888 -0.044630 -0.057622 -0.056685 -0.009243 0.025644 0.044876 0.072527 0.096564 0.099414 0.115697 0.154579
0.167965 0.151170 0.120945 0.101912 -0.119390 -0.114688 -0.105255 -0.096287 -0.089637 -0.094742 -0.094051 -0.093086 -0.092236 -0.078965 -0.071364 -0.062779
-0.061985 -0.049911 -0.028111 -0.010010 0.000224 -0.000098 -0.009921 -0.014875 -0.035443 -0.049930 -0.054492 -0.047366 -0.048448 -0.049730 -0.040756 -0.026773
-0.027988 -0.046874 -0.060247 -0.056459 -0.050133 -0.072735 -0.087796 -0.075255 -0.119617 -0.116058 -0.106941 -0.099356 -0.092735 -0.088438 -0.092431 -0.084799
-0.089787 -0.080525 -0.048887 -0.056720 -0.073680 -0.071683 -0.042053 -0.007589 0.005843 0.000648 -0.016754 -0.022724 -0.028680 -0.039399 -0.055332 -0.054029
-0.054256 -0.052784 -0.032941 -0.009251 -0.023594 -0.038922 -0.062280 -0.047708 -0.050673 -0.070311 -0.083666 -0.063824 -0.107717 -0.120590 -0.094272 -0.078198
-0.081210 -0.075546 -0.053956 -0.052728 -0.019321 -0.008617 -0.020588 -0.031417 -0.051982 -0.049281 -0.028433 -0.030358 -0.025358 -0.015363 -0.008518 -0.001488
-0.008441 -0.020502 -0.018407 -0.018754 -0.014529 -0.007150 0.004747 0.000005 -0.018807 -0.038867 -0.035348 -0.039332 -0.047002 -0.074917 -0.059476 -0.042343
-0.066037 -0.067884 -0.027943 -0.007217 0.018997 0.018870 0.014301 0.011397 0.035612 0.032773 0.020669 0.015655 0.019271 0.025507 0.013513 0.019825
0.042771 0.027277 0.032490 0.044955 0.042318 0.029415 0.026127 0.026561 0.049708 0.048033 0.034471 0.028599 0.038595 0.020840 -0.020335 -0.037746
-0.050497 -0.055502 -0.041369 -0.020359 -0.025099 -0.015951 0.006168 0.048655 0.062308 0.053821 0.041986 0.025451 0.023994 0.012993 0.021141 0.008331
0.017630 0.037937 0.034519 0.039685 0.018914 0.041924 0.055374 0.067892 0.048719 0.045556 0.041173 0.027346 0.007667 0.009382 0.030180 0.061137
0.066380 0.046816 0.044815 0.037469 0.006964 -0.013373 -0.007795 0.004779 0.014753 0.003216 0.007110 -0.013217 -0.014513 -0.039235 -0.038925 -0.032440
-0.021737 -0.031222 -0.033052 -0.035358 -0.018917 -0.008178 -0.001962 -0.002480 -0.007922 0.009844 0.021293 0.027749 0.017111 0.002408 0.010243 0.014954
0.002982 0.001763 0.017963 -0.001944 -0.005640 -0.005470 -0.011966 0.010750 0.027578 0.017751 0.029389 0.020991 0.027118 0.045160 -0.013924 -0.030831
-0.041691 -0.036821 -0.038806 -0.048589 -0.031511 -0.034013 -0.024876 -0.014510 -0.020512 0.007609 0.017930 0.026308 0.027899 0.037235 0.047122 0.062893
0.053843 0.028548 0.024911 0.056200 0.054721 0.028371 -0.015596 -0.010500 -0.021302 -0.033030 -0.038720 -0.039253 -0.023089 -0.026115 -0.010655 0.007743
0.030949 0.021728 0.051582 0.034177 0.042314 0.037857 0.043334 0.051144 0.026050 0.015791 0.007468 0.003099 0.031173 0.025859 0.039273 0.063514
0.073174 0.081899 0.096832 0.100534 0.108591 0.088177 0.080413 0.085678 0.065610 0.031068 0.042060 0.046136 0.045608 0.044397 0.003459 0.011154
-0.006607 0.022009 0.008398 0.019590 0.045220 0.056730 0.066989 0.081443 0.070947 0.063604 0.087277 0.078169 0.058635 0.037885 0.036346 0.020601
-0.004555 -0.008376 0.001829 0.017931 0.036639 0.062652 0.072601 0.072430 0.071554 0.080918 0.089998 0.051783 0.015948 0.021281 0.028414 0.032170
0.037556 0.017716 0.057309 0.049759 0.065028 0.049085 0.071543 0.052176 0.047612 0.045398 0.046993 0.048260 0.046284 0.054435 0.032226 0.031192
0.025935 0.024245 -0.018185 -0.028779 -0.049551 -0.071843 -0.054719 -0.040079 -0.014757 -0.002967 0.016956 0.023459 0.024133 0.033540 0.039999 0.008385
0.009007 -0.000230 -0.005500 -0.003503 -0.004022 0.033884 0.034088 0.042138 0.038591 0.054300 0.068109 0.070464 0.039095 0.033508 0.038916 0.051849
0.051723 0.033207 0.016272 -0.007176 -0.014579 -0.026913 -0.024354 -0.045593 -0.045385 -0.047672 -0.078277 -0.055886 -0.072812 -0.052257 -0.040766 -0.016048
-0.004906 0.028285 0.035583 0.032069 0.019615 -0.006437 -0.029755 -0.041784 -0.032997 0.007609 0.029312 0.016268 0.039594 0.044034 0.064587 0.069654
0.033860 0.031448 0.039989 0.044900 0.040857 0.026280 -0.001555 -0.025398 -0.037993 -0.043635 -0.031173 -0.023377 -0.007028 -0.023257 -0.039977 -0.064023
-0.084036 -0.090770 -0.074545 -0.063914 -0.024370 0.021137 0.034557 0.036593 0.003933 -0.012694 -0.029438 -0.039249 -0.022171 -0.002142 0.001031 0.020140
0.019086 0.040347 0.053802 0.069037 0.031367 0.033576 0.039109 0.036616 0.032752 0.015798 -0.003276 -0.022153 -0.047743 -0.044870 -0.035133 -0.020403
-0.008802 -0.021103 -0.048499 -0.067952 -0.088024 -0.094992 -0.082691 -0.067336 -0.038169 0.004244 0.025284 0.016021 -0.004084 -0.027778 -0.031413 -0.039880
-0.033662 -0.017606 -0.000402 0.010572 0.021058 0.025663 0.046006 0.057808 -0.027144 -0.025206 -0.018113 -0.008777 0.001363 0.009825 0.017625 -0.001337
-0.012283 -0.015759 -0.010648 0.009927 0.009502 0.008629 -0.003388 -0.026266 -0.035025 -0.018661 -0.000168 0.018458 0.031629 0.042525 0.038364 0.033408
0.032041 0.029063 0.028005 0.025336 0.018256 0.022163 0.020830 0.016721 0.009495 0.005906 0.012977 0.017953 -0.024326 -0.032317 -0.024889 -0.015133
-0.003731 -0.002315 0.007636 0.005951 -0.016868 -0.016590 -0.007080 -0.000756 0.015750 0.019617 -0.002646 -0.025421 -0.035565 -0.017690 0.009235 0.028515
0.023313 0.044241 0.044558 0.025547 0.022244 0.020266 0.025636 0.016180 0.021769 0.024283 0.015891 0.014923 0.006108 0.005260 0.018004 0.019465
-0.018845 -0.026834 -0.039186 -0.028251 -0.027000 -0.021097 -0.006685 -0.000356 0.009490 0.000499 -0.009090 -0.006471 0.002517 0.011007 0.033687 0.017051
0.012255 0.025957 0.039623 0.033465 0.028609 0.025621 0.027166 0.012911 -0.001675 0.003345 0.002117 0.007910 0.017216 0.026638 0.016949 -0.004340
0.005771 0.007127 0.011624 0.018045 -0.009603 -0.012678 -0.009113 -0.009819 0.003187 -0.000368 -0.010448 -0.011992 0.008497 0.003814 -0.001943 -0.000798
-0.004409 0.014850 0.013089 0.018834 0.004283 0.024370 0.031992 0.027842 0.015694 0.006944 0.004442 0.000496 -0.005448 -0.007525 -0.009190 0.005998
0.028947 0.028953 -0.004859 0.008526 0.009616 0.003665 0.003425 -0.003308 -0.006533 -0.013343 -0.002282 -0.000782 -0.006211 0.002142 0.011637 0.008967
-0.012570 -0.026360 -0.027235 -0.042489 -0.026314 -0.029780 -0.023082 -0.031585 -0.017830 -0.028147 -0.031659 -0.022061 -0.027331 -0.021685 -0.014930 -0.008468
0.021597 0.008895 0.001774 -0.003694 -0.003867 -0.010084 -0.007749 -0.010698 -0.005895 -0.013434 -0.027562 -0.015261 -0.016033 -0.016799 -0.034155 -0.006527
-0.019300 -0.013004 -0.003867 -0.006772 -0.001035 -0.011650 -0.015657 -0.026771 -0.018117 -0.013239 -0.008190 -0.002064 0.007819 0.000609 0.002789 0.001043
0.001952 -0.004759 0.011444 0.025494 0.033640 0.039865 0.040100 0.019724 0.008668 -0.008144 -0.031449 -0.025091 -0.022932 0.006042 0.013732 0.003351
-0.010297 -0.016542 -0.005342 -0.007186 0.009143 0.024938 0.035823 0.021456 0.026507 0.044117 0.048671 0.025853 0.025726 0.044294 0.046073 0.050037
0.039437 0.043008 0.049519 0.067332 0.059047 0.033672 0.034331 0.047630 0.051833 0.062083 0.032467 0.036924 0.013317 -0.005229 -0.004115 -0.013010
-0.009992 0.006948 0.004206 0.004874 0.004663 0.015079 0.009693 0.012353 0.020158 0.034940 0.041078 0.043145 0.016249 -0.001911 -0.013156 -0.003627
-0.004047 0.010062 0.019415 0.024307 0.020079 0.009831 0.025882 0.018738 0.019357 0.034649 0.018535 -0.007319 -0.009172 -0.007056 -0.001708 -0.000806
0.013777 0.018166 0.018890 0.022290 0.023124 0.008417 -0.012371 -0.011712 0.045656 0.050154 0.044048 0.036331 0.044636 0.040886 0.029233 0.016095
0.000987 -0.028473 -0.047547 -0.048793 -0.033339 -0.041717 -0.028215 -0.011454 -0.014279 -0.007715 -0.020686 -0.022925 -0.027125 -0.019417 -0.025099 -0.013116
-0.009744 -0.011049 -0.006684 -0.014247 0.007512 0.013103 0.027390 0.024441 0.017405 0.007147 -0.005897 -0.007659 0.068964 0.078622 0.067523 0.059212
0.065066 0.074272 0.064656 0.038667 0.007820 -0.017751 -0.037925 -0.038280 -0.028377 -0.035388 -0.018439 0.003653 0.008708 -0.003389 -0.000309 0.003477
0.010005 -0.001262 -0.007298 0.008887 0.007878 0.016017 0.013622 0.015366 0.020584 0.027734 0.037824 0.043947 0.041350 0.016360 0.017174 0.005026
0.082089 0.096247 0.092685 0.094964 0.099034 0.107594 0.093526 0.065215 0.034187 0.019550 0.016652 0.015494 0.020242 0.042199 0.046630 0.061570
0.059404 0.062813 0.063059 0.070742 0.065643 0.077191 0.066025 0.067931 0.051857 0.049135 0.062818 0.063369 0.080282 0.074405 0.054321 0.048708
0.055881 0.027740 0.020588 0.012235 0.094994 0.103583 0.109377 0.104311 0.113242 0.131530 0.130155 0.097980 0.068148 0.060911 0.052636 0.035026
0.053681 0.085353 0.106931 0.111561 0.119318 0.129662 0.131351 0.119166 0.107517 0.099429 0.098555 0.090634 0.099904 0.100424 0.074245 0.071790
0.086331 0.092687 0.094188 0.084076 0.062080 0.051217 0.029143 0.016833 0.101469 0.110081 0.116286 0.118979 0.122705 0.134144 0.121899 0.095748
0.069579 0.062291 0.056155 0.050978 0.062992 0.080544 0.098110 0.107825 0.117349 0.121474 0.123227 0.115522 0.099647 0.094623 0.091473 0.092913
0.090134 0.091522 0.083032 0.077049 0.074178 0.094376 0.105551 0.094684 0.077728 0.058380 0.044665 0.026914 -0.039982 -0.033588 -0.018466 -0.007462
-0.004383 0.006708 0.013719 0.009336 0.011373 0.017750 0.007136 -0.008418 0.007474 0.016233 0.014812 0.011804 0.001740 -0.010693 -0.024724 -0.047757
-0.029070 -0.010841 0.002666 0.007394 0.007825 0.013604 0.008443 -0.002626 -0.021791 -0.049195 -0.050179 -0.041631 -0.038157 -0.045190 -0.047759 -0.044767
-0.043675 -0.035213 -0.026640 -0.009114 -0.002527 -0.001397 0.021228 0.017425 0.010804 0.021951 0.004135 -0.007104 -0.000747 0.016558 0.012410 0.014565
-0.012891 -0.024814 -0.044972 -0.065236 -0.047152 -0.023780 -0.006438 0.006123 0.008444 0.015297 0.003611 -0.012652 -0.039644 -0.054677 -0.047756 -0.035021
-0.038320 -0.042171 -0.046329 -0.038993 -0.036472 -0.044033 -0.019997 -0.008968 0.010817 0.010832 -0.008218 0.013405 0.000896 0.001248 -0.006159 -0.014940
0.006978 -0.013706 -0.008598 -0.021586 -0.036001 -0.047579 -0.056525 -0.084464 -0.065247 -0.043085 -0.026127 -0.021256 -0.015682 -0.006193 -0.011172 -0.029490
-0.057487 -0.059302 -0.030470 -0.028163 -0.030392 -0.036195 -0.029442 -0.027435 -0.017830 -0.018245 -0.001167 0.025365 0.009892 0.001267 -0.003373 0.018147
0.006280 0.006012 0.024696 0.023464 0.008304 -0.000658 -0.020689 -0.020063 -0.027061 -0.040180 -0.056647 -0.071443 -0.050678 -0.031824 -0.022519 -0.023353
-0.023371 -0.020146 -0.035700 -0.044865 -0.040566 -0.028917 -0.030821 -0.026482 -0.027268 -0.019985 -0.016169 -0.020095 -0.005165 0.004531 0.021132 0.009035
-0.003181 -0.007982 -0.007382 0.018743 -0.002761 0.028556 0.006729 0.030502 -0.003237 -0.014397 -0.038150 -0.042436 -0.049789 -0.052004 -0.063196 -0.076305
-0.060600 -0.038880 -0.037096 -0.037820 -0.035804 -0.047790 -0.040351 -0.035698 -0.016610 -0.005958 0.001912 0.026164 0.024587 0.010912 -0.017701 -0.003680
-0.000350 0.004217 0.023462 -0.010141 -0.037001 -0.015598 0.012399 -0.004987 -0.012284 -0.009547 -0.025419 -0.017577 -0.023183 -0.028517 -0.052691 -0.081534
-0.087493 -0.089140 -0.095524 -0.110026 -0.092169 -0.086844 -0.081997 -0.065755 -0.070009 -0.069743 -0.067870 -0.049347 -0.017441 0.007489 0.029086 0.012069
0.005918 -0.009765 0.015536 0.012180 0.017022 0.012326 0.026691 -0.006690 -0.034892 -0.012941 -0.000414 0.015697 -0.010999 -0.025522 -0.048873 -0.039311
-0.045751 -0.048897 -0.054511 -0.067261 -0.085756 -0.100771 -0.112943 -0.126416 -0.113696 -0.105517 -0.099699 -0.088930 -0.093172 -0.083424 -0.077496 -0.056815
-0.035051 -0.007710 0.016852 -0.010228 -0.035263 -0.010172 0.015943 0.013785 0.039713 0.045913 0.012882 -0.003148 -0.021616 -0.023128 -0.001272 0.007568
0.030506 0.001845 -0.005898 -0.016318 -0.011797 -0.020879 -0.028870 -0.037789 -0.052356 -0.065577 -0.081787 -0.090505 -0.105543 -0.106801 -0.102113 -0.080831
-0.069133 -0.066100 -0.036508 -0.024739 -0.008497 -0.004133 0.015757 -0.005968 -0.016272 -0.002742 0.028727 0.022432 0.058436 0.071910 0.033255 0.031090
0.007434 -0.011006 -0.000562 0.011810 0.020768 0.042202 0.020199 0.019906 0.012230 0.005256 -0.008142 -0.025995 -0.030155 -0.040329 -0.050333 -0.070235
-0.092195 -0.112446 -0.098640 -0.082797 -0.059750 -0.034133 -0.017534 0.006995 0.015626 0.033918 0.006958 -0.004290 0.013612 0.036276 0.027476 0.029831
0.063637 0.059279 0.078945 0.066031 0.035202 0.026327 0.004787 0.006999 0.008694 0.014185 0.028726 0.026368 0.011423 0.003352 -0.013731 -0.011282
-0.017016 -0.027211 -0.044481 -0.070406 -0.095053 -0.119573 -0.112560 -0.096381 -0.065335 -0.043668 -0.021846 0.005851 0.040862 0.021176 0.016374 0.030488
0.051733 0.041014 0.041623 0.032861 0.058430 0.066357 0.070225 0.063022 0.080977 0.052590 0.040673 0.018892 0.006301 0.022570 0.002722 -0.009995
-0.012130 -0.010107 0.010679 0.005470 -0.018292 -0.034371 -0.058169 -0.081653 -0.112092 -0.124407 -0.120558 -0.098549 -0.068987 -0.047135 -0.033129 -0.001534
0.036283 0.036412 0.046810 0.074910 0.052220 0.047662 0.039905 0.037659 0.061828 0.066146 0.065540 0.072191 0.076183 0.087959 0.069981 0.048723
0.037279 0.004247 -0.006291 -0.015126 -0.013801 0.000112 0.005462 0.017481 -0.007667 -0.035121 -0.058457 -0.084026 -0.103695 -0.117728 -0.112494 -0.082960
-0.061973 -0.038309 -0.018498 0.007181 0.035968 0.074428 0.087474 0.066341 0.057516 0.046637 0.043581 0.037947 0.062679 0.064768 0.065846 0.070902
0.081912 0.077581 0.058493 0.041614 0.028062 0.013933 -0.005246 -0.015862 -0.010742 -0.000066 0.012674 0.015519 -0.000710 -0.019450 -0.041156 -0.065274
-0.087123 -0.099197 -0.095710 -0.071387 -0.050782 -0.031259 -0.011778 0.008507 0.040797 0.063381 0.077972 0.075364 0.059893 0.050798 0.043589 0.040504
