-0.046839 0.053663 -0.040523 -0.032524 -0.004493 -0.038718 -0.038718 -0.089864 -0.008085 0.003787 -0.007308 -0.060228 -0.036243 -0.038250 -0.060991 -0.013363
0.005587 -0.000600 -0.000600 0.040073 -0.008637 -0.036846 -0.044737 -0.062153 -0.021585 -0.016428 -0.003866 -0.046590 -0.004270 0.016857 0.016857 0.041919
0.015500 -0.059775 -0.041115 -0.007223 -0.013381 0.079954 0.009144 -0.059602 0.029157 0.000340 0.000340 0.048568 0.016613 -0.001898 -0.012386 -0.041469
-0.050139 -0.008870 0.013642 0.050881 -0.018786 -0.042424 -0.042424 -0.093623 -0.058247 -0.072215 -0.061465 0.009273 -0.010196 -0.041043 -0.082655 -0.022763
-0.014141 0.009986 0.009986 0.033389 0.054907 -0.050145 -0.032034 -0.049647 -0.013381 0.079954 0.009144 -0.059602 0.029157 0.000340 0.000340 0.048568
0.016613 -0.001898 -0.012386 -0.041469 -0.050139 -0.008870 0.013642 0.050881 -0.018786 -0.042424 -0.042424 -0.093623 -0.058247 -0.072215 -0.061465 0.009273
-0.010196 -0.041043 -0.082655 -0.022763 -0.014141 0.009986 0.009986 0.033389 0.054907 -0.050145 -0.032034 -0.049647 0.036606 0.103113 0.074010 0.063754
0.018476 0.020835 0.020835 0.047115 0.068543 -0.037406 0.006304 0.001338 -0.004657 0.053717 0.088009 0.070163 -0.030790 -0.019854 -0.019854 -0.008611
-0.052249 -0.025279 -0.006874 0.033621 -0.015269 -0.039174 0.022314 -0.035541 -0.025533 -0.014084 -0.014084 -0.006287 -0.006885 -0.003920 0.031097 0.027086
0.030965 -0.019936 0.022688 0.047797 0.040506 0.010412 0.010412 0.005010 -0.006337 -0.018309 -0.017791 0.046552 0.050583 0.073751 0.053777 0.057889
-0.006354 0.031080 0.031080 0.020909 0.038797 0.039170 0.068852 0.020925 0.013451 -0.015695 0.014674 -0.045264 0.016261 -0.064321 -0.064321 -0.047765
-0.005144 0.032224 0.035674 -0.028663 -0.057283 -0.038459 -0.042757 -0.032150 -0.051437 -0.096252 -0.096252 -0.074644 0.023081 0.047955 0.034708 0.081694
0.025952 0.000884 0.016258 0.067817 0.071455 0.052121 0.052121 0.076822 0.113368 0.063016 0.085816 0.082446 0.050577 0.082536 0.105439 0.062882
0.013658 -0.019895 -0.019895 0.017893 -0.018693 -0.079832 -0.082217 -0.011926 -0.057283 -0.038459 -0.042757 -0.032150 -0.051437 -0.096252 -0.096252 -0.074644
0.023081 0.047955 0.034708 0.081694 0.025952 0.000884 0.016258 0.067817 0.071455 0.052121 0.052121 0.076822 0.113368 0.063016 0.085816 0.082446
0.050577 0.082536 0.105439 0.062882 0.013658 -0.019895 -0.019895 0.017893 -0.018693 -0.079832 -0.082217 -0.011926 0.013881 0.067246 0.013717 0.071793
0.062611 0.118341 0.118341 0.085703 0.094870 0.075663 0.097098 0.034064 0.028737 0.024997 -0.015780 -0.042411 -0.038075 -0.020244 -0.020244 -0.015254
-0.000630 -0.022484 -0.011163 0.016503 0.006250 0.030544 0.054188 0.015426 0.051159 0.047542 0.047542 0.028275 0.053390 0.033183 0.048180 0.037491
0.031575 0.073875 0.044837 0.031089 0.000313 0.020761 0.020761 0.042656 0.037732 0.043647 -0.001556 -0.054879 -0.072572 -0.048345 -0.041551 -0.048352
-0.067415 -0.070965 -0.070965 -0.051329 -0.056103 -0.033581 -0.048302 -0.051418 0.011458 0.004728 -0.032965 -0.003944 -0.005505 -0.006808 -0.006808 -0.018101
0.050401 0.000109 0.005896 0.046223 -0.056996 0.021710 -0.037683 -0.038513 -0.044899 -0.001287 -0.001287 0.001667 0.015148 -0.044573 -0.033299 -0.070497
-0.119218 -0.054638 -0.054398 -0.021426 -0.022288 -0.055370 -0.055370 -0.065404 -0.075339 0.003534 -0.088668 0.011010 -0.050780 -0.055246 -0.044539 -0.015897
-0.028441 0.002773 0.002773 -0.011808 -0.020701 -0.013263 -0.005622 -0.012285 -0.045795 -0.010010 -0.019475 0.037132 -0.035430 0.009528 0.009528 -0.057660
-0.094159 0.010891 0.027933 0.066591 0.048181 0.024184 0.020208 -0.052045 -0.035852 -0.038922 -0.038922 -0.024762 -0.032968 -0.032841 0.002951 0.109325
0.012026 0.089034 -0.013684 -0.008005 -0.054645 -0.002897 -0.002897 0.002339 0.000062 0.022914 0.049434 -0.029391 -0.045795 -0.010010 -0.019475 0.037132
-0.035430 0.009528 0.009528 -0.057660 -0.094159 0.010891 0.027933 0.066591 0.048181 0.024184 0.020208 -0.052045 -0.035852 -0.038922 -0.038922 -0.024762
-0.032968 -0.032841 0.002951 0.109325 0.012026 0.089034 -0.013684 -0.008005 -0.054645 -0.002897 -0.002897 0.002339 0.000062 0.022914 0.049434 -0.029391
-0.107630 0.004633 -0.009820 0.009962 0.015045 0.001771 0.001771 -0.029779 0.003917 0.015190 0.034880 0.102489 0.101726 0.078722 0.034659 0.023795
-0.016991 -0.015682 -0.015682 -0.019248 -0.012584 0.002193 -0.001640 0.025457 0.092507 0.068504 0.038953 -0.003496 0.017515 -0.038292 -0.038292 -0.034367
0.004621 0.010845 0.084044 0.026504 -0.021277 -0.021506 -0.059602 -0.053410 0.004820 -0.029107 -0.029107 0.062771 0.006959 0.017237 -0.016763 0.037992
0.004473 0.006954 0.004541 -0.042392 -0.021603 -0.058049 -0.058049 -0.091257 0.015018 -0.003516 0.014987 0.064171 0.019249 -0.014505 -0.051459 -0.026970
0.017036 -0.056170 -0.056170 -0.055431 -0.048259 0.004756 -0.013052 -0.003447 0.015448 0.024495 0.028710 -0.039840 -0.018765 0.005808 0.005808 -0.003709
-0.053697 -0.058240 -0.009897 -0.019937 0.037421 -0.023096 -0.057105 -0.019499 -0.015757 -0.013874 -0.013874 0.018820 0.002734 0.013628 0.006197 0.020770
-0.023548 -0.047334 -0.047305 0.077858 0.032242 -0.033747 -0.033747 -0.024658 -0.029431 0.034042 0.018032 -0.008523 0.015448 0.024495 0.028710 -0.039840
-0.018765 0.005808 0.005808 -0.003709 -0.053697 -0.058240 -0.009897 -0.019937 0.037421 -0.023096 -0.057105 -0.019499 -0.015757 -0.013874 -0.013874 0.018820
0.002734 0.013628 0.006197 0.020770 -0.023548 -0.047334 -0.047305 0.077858 0.032242 -0.033747 -0.033747 -0.024658 -0.029431 0.034042 0.018032 -0.008523
-0.043207 0.035855 -0.015762 -0.041261 -0.040528 -0.060515 -0.060515 -0.029794 -0.043338 -0.042060 -0.037435 -0.085022 -0.024411 -0.064439 -0.017608 -0.019529
-0.014268 0.045488 0.045488 0.028827 0.045071 0.003398 -0.020219 0.024074 -0.023083 -0.006124 0.078260 0.020667 0.019119 0.032669 0.032669 -0.022705
-0.010390 -0.002163 0.016556 0.011815 -0.041414 -0.063340 -0.065654 -0.051906 -0.036342 -0.091120 -0.091120 -0.134727 -0.124305 -0.072184 -0.052122 -0.057431
-0.050398 -0.031333 0.001849 -0.010139 0.112741 0.011483 0.011483 -0.032396 -0.015108 -0.023241 -0.027671 0.046425 -0.077282 0.010658 -0.040059 -0.046511
-0.009429 0.045877 0.045877 -0.000699 -0.011975 -0.000852 0.003908 0.144746 0.063339 0.054015 -0.065282 0.010358 0.105035 0.094787 0.094787 0.081301
0.052167 -0.023826 -0.025386 -0.009287 -0.003083 0.004961 0.004542 -0.008328 -0.041737 -0.026482 -0.026482 -0.005047 -0.011410 0.042024 0.041120 0.029618
-0.003203 -0.008952 -0.010858 -0.007495 0.006879 -0.051514 -0.051514 -0.130210 -0.005281 0.023544 0.041822 -0.177678 0.063339 0.054015 -0.065282 0.010358
0.105035 0.094787 0.094787 0.081301 0.052167 -0.023826 -0.025386 -0.009287 -0.003083 0.004961 0.004542 -0.008328 -0.041737 -0.026482 -0.026482 -0.005047
-0.011410 0.042024 0.041120 0.029618 -0.003203 -0.008952 -0.010858 -0.007495 0.006879 -0.051514 -0.051514 -0.130210 -0.005281 0.023544 0.041822 -0.177678
-0.043375 -0.059588 0.053848 0.025662 0.005482 -0.067762 -0.067762 -0.034275 -0.012055 0.067788 0.022576 -0.004368 -0.057348 -0.020196 0.030482 0.005645
-0.004313 -0.032937 -0.032937 -0.009588 -0.046699 0.005428 0.011467 0.016527 -0.028400 0.023038 0.002260 -0.036994 -0.057575 -0.003004 -0.003004 0.062027
-0.002400 0.051170 0.010693 -0.070747 0.006092 0.002858 -0.019062 -0.028865 0.058707 -0.026837 -0.026837 -0.062918 -0.039507 -0.036082 0.006305 0.044436
0.043632 0.039750 0.053154 0.031288 0.025779 0.022194 0.022194 0.020415 0.010487 0.011913 -0.001027 -0.043632 0.008363 -0.011073 -0.013552 -0.002649
-0.003726 0.057337 0.057337 0.062593 -0.008901 -0.025429 -0.064382 -0.000133 0.087001 0.042730 0.033576 -0.000529 0.027742 0.032309 0.032309 -0.029141
-0.060350 -0.073280 -0.019391 0.007386 0.062230 0.049192 0.013323 -0.008193 0.015433 0.021327 0.021327 0.038357 0.004554 -0.006152 0.035432 -0.047365
-0.056297 -0.034920 -0.067566 -0.070584 0.045635 0.001690 0.001690 -0.024632 -0.043275 -0.039626 0.026921 0.028294 0.039700 -0.034708 -0.073074 -0.104592
-0.044267 -0.027486 -0.027486 0.067260 0.151690 0.048987 -0.003945 0.037434 0.005989 -0.000213 0.032398 0.005750 0.039251 -0.018887 -0.018887 0.019053
-0.013295 0.058168 0.105624 -0.081741 0.014444 0.042480 0.129998 0.025640 0.077403 -0.019108 -0.019108 -0.081269 -0.013141 -0.044606 -0.066672 -0.016437
0.039700 -0.034708 -0.073074 -0.104592 -0.044267 -0.027486 -0.027486 0.067260 0.151690 0.048987 -0.003945 0.037434 0.005989 -0.000213 0.032398 0.005750
0.039251 -0.018887 -0.018887 0.019053 -0.013295 0.058168 0.105624 -0.081741 0.014444 0.042480 0.129998 0.025640 0.077403 -0.019108 -0.019108 -0.081269
-0.013141 -0.044606 -0.066672 -0.016437 0.110296 -0.086121 -0.052906 -0.075322 -0.023879 0.032373 0.032373 0.081449 0.018910 -0.016972 -0.017965 -0.026241
-0.033832 -0.082331 0.017694 0.068401 0.032239 -0.004299 -0.004299 0.005972 0.009927 -0.037657 -0.009728 0.032880 -0.027789 0.014988 0.009921 0.036642
0.034789 -0.038066 -0.038066 -0.014797 -0.012154 -0.094099 -0.014310 -0.035310 -0.062195 -0.007509 -0.109592 -0.041288 -0.092468 -0.013846 -0.013846 -0.001981
-0.033237 -0.034467 -0.029085 0.009167 -0.048788 -0.039941 0.009563 0.026457 0.030868 0.047324 0.047324 0.071327 -0.010855 -0.028481 -0.012909 0.087725
0.076804 -0.024763 -0.010156 -0.021291 0.022447 0.013094 0.013094 -0.014029 -0.044764 -0.021020 -0.046800 -0.016303 -0.053556 -0.013139 -0.122086 -0.069464
-0.013959 -0.085330 -0.085330 0.068782 -0.021791 -0.026120 -0.043984 -0.055488 -0.021500 -0.014950 -0.023189 0.094553 0.061451 0.030542 0.030542 -0.093453
-0.092257 -0.074949 -0.013159 0.002620 0.084324 0.029355 0.015899 0.028979 0.044134 -0.027316 -0.027316 -0.024202 0.008848 -0.020536 -0.036051 -0.047097
-0.053556 -0.013139 -0.122086 -0.069464 -0.013959 -0.085330 -0.085330 0.068782 -0.021791 -0.026120 -0.043984 -0.055488 -0.021500 -0.014950 -0.023189 0.094553
0.061451 0.030542 0.030542 -0.093453 -0.092257 -0.074949 -0.013159 0.002620 0.084324 0.029355 0.015899 0.028979 0.044134 -0.027316 -0.027316 -0.024202
0.008848 -0.020536 -0.036051 -0.047097 -0.006291 0.084458 -0.096718 -0.052918 -0.036386 -0.047627 -0.047627 -0.053100 0.008502 -0.022349 -0.001255 -0.031365
-0.009180 0.024151 0.059189 -0.012380 -0.004891 -0.013151 -0.013151 -0.078765 -0.048609 -0.055834 -0.096535 -0.059155 -0.009671 0.055195 0.058079 0.024722
-0.009722 -0.045192 -0.045192 -0.034383 0.039522 0.004306 0.019857 0.002857 0.033316 -0.003112 0.084352 0.048278 0.030095 -0.010190 -0.010190 0.012662
-0.047044 -0.030466 -0.027708 0.008574 -0.006813 -0.008735 0.022700 0.020035 -0.024842 0.014784 0.014784 0.010721 0.014410 0.019851 -0.022543 0.037548
-0.017566 -0.070024 0.035198 0.000868 -0.059696 -0.021515 -0.021515 0.041650 -0.005422 0.042617 0.059640 0.001549 -0.011582 -0.051740 0.002790 0.048962
-0.013395 -0.049534 -0.049534 -0.036298 0.053613 0.017454 0.002350 0.034629 -0.016389 -0.076870 0.000465 0.021774 0.002908 0.075194 0.075194 0.035700
0.029215 0.036209 0.047430 -0.039393 0.042101 0.017770 0.033176 -0.052152 -0.007038 0.021319 0.021319 0.010805 -0.002389 0.003085 -0.018710 -0.007993
-0.011582 -0.051740 0.002790 0.048962 -0.013395 -0.049534 -0.049534 -0.036298 0.053613 0.017454 0.002350 0.034629 -0.016389 -0.076870 0.000465 0.021774
0.002908 0.075194 0.075194 0.035700 0.029215 0.036209 0.047430 -0.039393 0.042101 0.017770 0.033176 -0.052152 -0.007038 0.021319 0.021319 0.010805
-0.002389 0.003085 -0.018710 -0.007993 -0.046924 -0.030294 -0.053245 0.037243 0.072240 0.121842 0.121842 0.113111 0.056038 0.091139 0.063720 0.018056
-0.065747 -0.026834 -0.068189 -0.029974 -0.030292 -0.026631 -0.026631 -0.075578 -0.067962 -0.039030 0.002604 0.089218 -0.014842 -0.008783 -0.000093 -0.004007
0.044234 -0.038966 -0.038966 -0.049170 -0.049157 -0.079067 -0.034513 0.040981 0.014049 0.107606 0.048938 -0.018831 -0.070589 -0.029783 -0.029783 0.027084
-0.030195 -0.045321 -0.045246 -0.047505 0.030735 0.032776 0.007365 0.054234 0.046525 0.066557 0.066557 0.062286 0.062042 0.053310 0.044710 -0.048660
0.063516 0.010704 0.041077 0.060027 0.098098 0.057915 0.057915 -0.008754 -0.009214 -0.000949 0.007320 0.022255 0.015771 0.091168 -0.027962 -0.028069
-0.010867 -0.006304 -0.006304 -0.013545 0.034676 0.070761 0.055672 0.046515 -0.011287 0.074753 0.060724 0.063363 0.068217 0.050718 0.050718 0.049662
0.043324 0.003547 -0.007177 -0.007329 -0.009779 0.026398 0.109570 0.058448 -0.004586 0.029434 0.029434 0.033335 0.048001 0.035650 0.014710 0.039646
-0.049183 -0.059973 -0.049091 -0.011666 -0.040053 -0.027137 -0.027137 -0.000838 0.052519 0.025486 0.034564 0.080058 0.019024 -0.021958 -0.023803 -0.051552
-0.050438 -0.092217 -0.092217 -0.055841 -0.003416 0.012674 -0.014744 0.090945 -0.017500 0.054018 0.062373 0.045998 0.033489 0.027775 0.027775 0.029937
0.045309 0.025173 -0.046352 -0.024819 -0.049183 -0.059973 -0.049091 -0.011666 -0.040053 -0.027137 -0.027137 -0.000838 0.052519 0.025486 0.034564 0.080058
0.019024 -0.021958 -0.023803 -0.051552 -0.050438 -0.092217 -0.092217 -0.055841 -0.003416 0.012674 -0.014744 0.090945 -0.017500 0.054018 0.062373 0.045998
0.033489 0.027775 0.027775 0.029937 0.045309 0.025173 -0.046352 -0.024819 -0.086333 -0.071418 0.072830 0.082008 0.014608 0.013680 0.013680 0.026485
0.020008 -0.004292 0.025886 0.040485 0.016695 0.038326 0.016315 0.033186 0.025606 -0.010103 -0.010103 0.000540 -0.039955 -0.118516 -0.129071 -0.024074
0.051096 -0.022703 0.030765 0.021918 0.008769 -0.000942 -0.000942 -0.033258 0.058378 -0.026668 0.059258 -0.008639 0.013017 -0.001568 0.090051 -0.047545
0.019005 0.020062 0.020062 0.026683 0.070259 0.067488 0.023501 -0.003549 -0.033759 0.036021 0.067041 0.012947 0.037424 -0.029517 -0.029517 0.039526
0.013954 0.049351 -0.005067 0.021813 0.051282 0.044404 0.035898 0.075835 0.056951 0.001421 0.001421 0.039865 0.083365 0.023185 0.012163 0.009958
0.057218 -0.019410 0.003237 0.088981 0.017625 0.033973 0.033973 -0.015427 -0.024085 0.078309 -0.074666 -0.025953 0.012209 -0.080440 0.019493 -0.000380
0.035251 0.037152 0.037152 0.014225 0.000692 0.001004 0.012975 -0.087613 0.009963 0.040805 0.109941 0.034521 -0.035740 -0.030765 -0.030765 0.033843
0.051979 0.010196 0.043879 0.060409 0.057218 -0.019410 0.003237 0.088981 0.017625 0.033973 0.033973 -0.015427 -0.024085 0.078309 -0.074666 -0.025953
0.012209 -0.080440 0.019493 -0.000380 0.035251 0.037152 0.037152 0.014225 0.000692 0.001004 0.012975 -0.087613 0.009963 0.040805 0.109941 0.034521
-0.035740 -0.030765 -0.030765 0.033843 0.051979 0.010196 0.043879 0.060409 0.047036 -0.005057 -0.062926 -0.002713 0.103536 0.002960 0.002960 0.041794
-0.034028 -0.032146 0.006375 -0.017036 0.069633 -0.028611 -0.054340 0.026245 0.061080 0.007292 0.007292 0.007778 0.026101 -0.019760 -0.059898 -0.101784
-0.002475 0.053443 -0.016728 -0.022578 -0.009308 0.056123 0.056123 0.017736 0.046278 -0.055626 -0.046340 -0.032976 -0.007581 -0.043274 -0.010750 0.021180
0.052235 -0.014909 -0.014909 0.054855 -0.039475 -0.033135 -0.024748 0.005600 0.009890 -0.015987 -0.003563 -0.013315 0.027063 -0.003580 -0.003580 0.023460
-0.034454 -0.073085 -0.096323 -0.055988 0.034682 0.015150 0.027232 0.085011 0.089483 0.022663 0.022663 0.027257 -0.128286 -0.048907 -0.002569 0.014920
-0.013976 0.020730 -0.050054 -0.046086 -0.054738 0.011241 0.011241 -0.029019 -0.045234 0.001912 -0.038416 -0.017313 0.000751 0.017998 0.016376 -0.013668
-0.048420 -0.014369 -0.014369 -0.010393 -0.030052 0.005621 -0.117066 -0.106491 0.054715 0.017080 0.006439 -0.036903 -0.006691 0.040180 0.040180 -0.020996
-0.149695 -0.003008 0.038974 0.002137 -0.013976 0.020730 -0.050054 -0.046086 -0.054738 0.011241 0.011241 -0.029019 -0.045234 0.001912 -0.038416 -0.017313
0.000751 0.017998 0.016376 -0.013668 -0.048420 -0.014369 -0.014369 -0.010393 -0.030052 0.005621 -0.117066 -0.106491 0.054715 0.017080 0.006439 -0.036903
-0.006691 0.040180 0.040180 -0.020996 -0.149695 -0.003008 0.038974 0.002137 -0.034487 0.097357 0.073664 -0.029692 0.001436 -0.027488 -0.027488 0.038241
0.014598 -0.043342 0.024088 0.066009 -0.044426 -0.022582 -0.082088 -0.019191 -0.028646 -0.102654 -0.102654 -0.092688 -0.049103 -0.044304 -0.047739 -0.054568
0.076543 0.034476 -0.042089 -0.039778 -0.024213 -0.001516 -0.001516 -0.022823 0.077843 0.011501 -0.071452 0.041682 -0.023320 -0.078034 -0.021825 -0.049476
-0.034636 -0.050852 -0.050852 0.073790 0.033587 -0.007664 -0.066236 -0.007818 0.037853 -0.034656 0.001267 -0.033686 -0.016659 0.033810 0.033810 0.046700
0.003553 -0.033532 -0.007729 -0.020929 -0.000664 0.020262 -0.024160 0.077009 0.012484 -0.008557 -0.008557 -0.017371 0.007852 0.015700 0.040081 -0.109874
0.018787 -0.011822 -0.045569 -0.072010 -0.000909 0.009158 0.009158 -0.050903 0.025667 0.020946 -0.038203 0.015205 0.080786 0.075610 0.032945 -0.038796
-0.071162 0.011787 0.011787 0.029712 -0.006785 0.079839 0.093224 0.036157 -0.013739 0.071218 0.049525 0.072071 0.049973 -0.028258 -0.028258 0.014835
-0.037998 0.024279 -0.020474 -0.073721 0.003179 -0.022027 0.051689 0.023976 0.023501 -0.039530 -0.039530 -0.082735 -0.028840 0.115345 0.037676 0.064875
0.045583 0.024253 0.046036 0.032732 0.078527 -0.059177 -0.059177 0.063351 0.058269 0.087222 -0.016482 0.001835 0.009368 -0.005836 0.041251 -0.020454
0.084901 -0.008065 -0.008065 0.000099 -0.004365 -0.091748 0.009116 0.025855 0.003179 -0.022027 0.051689 0.023976 0.023501 -0.039530 -0.039530 -0.082735
-0.028840 0.115345 0.037676 0.064875 0.045583 0.024253 0.046036 0.032732 0.078527 -0.059177 -0.059177 0.063351 0.058269 0.087222 -0.016482 0.001835
0.009368 -0.005836 0.041251 -0.020454 0.084901 -0.008065 -0.008065 0.000099 -0.004365 -0.091748 0.009116 0.025855 0.081919 0.014456 0.057245 0.030066
-0.056325 -0.018949 -0.018949 -0.023971 -0.055637 -0.024355 0.075277 0.042324 0.043170 0.029651 0.068245 0.092746 -0.031643 -0.043551 -0.043551 -0.033101
-0.023458 -0.033337 -0.016531 -0.003836 -0.020937 -0.013341 -0.040633 0.073077 -0.009342 0.014190 0.014190 -0.037915 -0.104786 -0.055301 -0.125888 -0.020736
-0.009394 -0.001282 0.059698 0.060904 0.016744 -0.014260 -0.014260 0.022328 -0.051457 -0.049262 0.052531 0.046637 -0.002256 0.028800 -0.017178 0.052949
0.008621 0.009984 0.009984 -0.069730 -0.069810 -0.035653 -0.013040 0.049997 0.043579 -0.004439 -0.015947 -0.005374 -0.017555 0.055798 0.055798 -0.009212
0.016171 0.007650 0.049065 -0.020224 -0.024335 -0.004679 0.040200 0.036684 0.077964 0.060259 0.060259 -0.019295 -0.061992 -0.064322 -0.108049 -0.048481
-0.048284 0.022824 0.047690 0.032625 0.045952 0.050253 0.050253 0.079214 -0.015340 -0.039512 -0.012320 -0.016344 0.068656 0.035001 0.015754 -0.027503
0.010026 -0.007623 -0.007623 -0.003850 -0.002658 -0.037014 -0.030829 -0.036747 -0.024335 -0.004679 0.040200 0.036684 0.077964 0.060259 0.060259 -0.019295
-0.061992 -0.064322 -0.108049 -0.048481 -0.048284 0.022824 0.047690 0.032625 0.045952 0.050253 0.050253 0.079214 -0.015340 -0.039512 -0.012320 -0.016344
0.068656 0.035001 0.015754 -0.027503 0.010026 -0.007623 -0.007623 -0.003850 -0.002658 -0.037014 -0.030829 -0.036747 0.021257 -0.051888 -0.057647 -0.044973
-0.046759 0.033633 0.033633 -0.021702 0.003604 -0.042828 -0.062723 -0.035520 -0.051191 0.056324 -0.020025 0.027838 0.078608 0.075772 0.075772 0.094141
0.091049 0.032105 -0.017590 -0.051564 -0.070333 -0.065582 -0.041695 0.070850 -0.014824 -0.040717 -0.040717 0.021154 -0.014707 0.017284 0.001908 -0.019154
-0.069237 -0.080553 -0.084438 -0.053158 -0.117265 0.009424 0.009424 0.061635 0.002383 0.065977 0.011807 -0.029738 0.002638 0.006220 -0.086599 -0.038159
-0.051538 -0.090895 -0.090895 -0.069960 0.021460 0.009114 -0.044182 -0.104544 0.030352 0.049931 -0.010815 0.034237 -0.122949 -0.027508 -0.027508 -0.025362
0.032957 0.001809 -0.006328 -0.042665 0.106736 0.021842 0.017338 0.022319 0.051003 0.025055 0.025055 0.059364 -0.004228 -0.061183 -0.001189 -0.024563
-0.069116 -0.007559 -0.019928 -0.056240 -0.035622 0.020070 0.020070 -0.017919 0.005867 0.034279 0.039074 0.049461 0.001742 0.053187 0.009341 0.000291
0.047691 -0.009542 -0.009542 -0.015773 -0.055331 -0.094089 -0.106904 0.030107 0.106736 0.021842 0.017338 0.022319 0.051003 0.025055 0.025055 0.059364
-0.004228 -0.061183 -0.001189 -0.024563 -0.069116 -0.007559 -0.019928 -0.056240 -0.035622 0.020070 0.020070 -0.017919 0.005867 0.034279 0.039074 0.049461
0.001742 0.053187 0.009341 0.000291 0.047691 -0.009542 -0.009542 -0.015773 -0.055331 -0.094089 -0.106904 0.030107 0.027592 -0.040235 0.046656 0.058244
-0.058114 0.026742 0.026742 0.046125 0.022085 -0.016668 -0.013990 -0.024654 -0.035476 -0.065925 -0.116453 0.026332 0.020950 0.025631 0.025631 -0.018593
-0.028842 0.005191 0.010691 0.001418 0.021856 -0.046997 -0.048613 -0.021477 -0.010194 -0.028001 -0.028001 0.002184 -0.031807 -0.052147 0.009936 -0.013917
-0.095988 0.025980 0.020655 0.016017 -0.050702 -0.011631 -0.011631 0.022843 -0.048690 -0.035343 0.012578 -0.061117 0.008900 -0.041533 -0.077400 -0.005851
-0.024007 0.041992 0.041992 0.027314 0.027872 0.009363 0.014379 0.001133 0.008758 -0.032697 -0.026611 -0.045352 0.009586 0.092613 0.092613 0.028820
0.027426 0.058489 0.125214 0.061963 0.017284 -0.045640 -0.050879 -0.082253 0.026369 0.052528 0.052528 0.042909 0.053646 -0.011728 0.031781 -0.018877
-0.026987 0.053876 0.044455 0.036200 0.040712 0.005067 0.005067 -0.022569 0.024056 -0.103375 -0.047150 -0.023919 0.024622 0.045200 0.059103 0.090974
0.017221 -0.050635 -0.050635 0.028966 0.071504 0.031887 0.010712 0.065990 0.143531 -0.014616 -0.066226 -0.026853 -0.064055 -0.030522 -0.030522 -0.029352
-0.024068 -0.022431 0.073097 -0.048355 -0.031797 0.029417 0.035024 0.070895 0.039327 0.056989 0.056989 0.049340 0.079962 -0.034791 0.033232 -0.032889
-0.047704 -0.001917 0.025914 -0.048779 -0.047214 0.009368 0.009368 0.040429 0.055269 0.032728 -0.057910 -0.000511 0.143531 -0.014616 -0.066226 -0.026853
-0.064055 -0.030522 -0.030522 -0.029352 -0.024068 -0.022431 0.073097 -0.048355 -0.031797 0.029417 0.035024 0.070895 0.039327 0.056989 0.056989 0.049340
0.079962 -0.034791 0.033232 -0.032889 -0.047704 -0.001917 0.025914 -0.048779 -0.047214 0.009368 0.009368 0.040429 0.055269 0.032728 -0.057910 -0.000511
0.008005 -0.023941 -0.013169 0.053834 -0.020169 -0.084412 -0.084412 -0.049770 -0.119384 -0.025826 -0.056264 -0.078416 -0.064197 -0.022236 -0.013093 -0.029157
-0.029622 0.005081 0.005081 -0.016033 0.006006 0.064586 0.025940 0.033526 0.006778 -0.078753 -0.066446 -0.071985 -0.040856 0.000270 0.000270 -0.013777
-0.046393 -0.010564 0.048296 0.019088 0.003494 -0.016534 -0.022067 -0.095235 -0.030307 0.092351 0.092351 0.022795 -0.017892 -0.057978 -0.049925 0.034078
-0.034765 0.039598 -0.060312 0.004038 0.009966 0.002101 0.002101 0.063496 -0.022500 0.008989 0.012323 0.051912 0.021655 -0.077384 -0.065489 -0.051466
-0.030635 -0.027741 -0.027741 0.026190 0.054568 -0.048667 -0.021241 0.010156 -0.074663 0.013261 -0.017164 -0.117486 0.011505 0.027360 0.027360 0.009891
0.000097 -0.012486 0.003921 -0.032570 -0.002012 -0.012842 0.003496 0.079903 0.056576 0.063319 0.063319 0.056306 0.070453 0.066164 0.059337 0.044056
0.059154 0.015385 -0.025686 0.028084 -0.022713 -0.049933 -0.049933 0.036265 -0.000859 -0.012190 -0.032339 0.011863 -0.074663 0.013261 -0.017164 -0.117486
0.011505 0.027360 0.027360 0.009891 0.000097 -0.012486 0.003921 -0.032570 -0.002012 -0.012842 0.003496 0.079903 0.056576 0.063319 0.063319 0.056306
0.070453 0.066164 0.059337 0.044056 0.059154 0.015385 -0.025686 0.028084 -0.022713 -0.049933 -0.049933 0.036265 -0.000859 -0.012190 -0.032339 0.011863
-0.065219 -0.057432 0.038595 -0.058711 -0.000231 -0.054564 -0.054564 0.043940 0.001510 -0.007992 0.035709 -0.026916 -0.012158 0.015093 0.042236 0.032811
0.040474 -0.033029 -0.033029 -0.041547 0.031007 0.040138 0.011763 0.047020 0.030407 0.070202 0.065562 0.036558 -0.016741 0.050529 0.050529 0.002018
-0.046540 -0.016506 0.045495 0.000785 0.159890 -0.041969 -0.042685 -0.024633 -0.093632 -0.106528 -0.106528 -0.055745 0.060155 0.001434 -0.027950 0.033519
0.047543 0.015677 -0.000738 0.050066 -0.005645 0.021262 0.021262 0.037102 -0.022470 -0.014095 -0.054844 -0.019083 0.062735 -0.012840 0.030940 0.019542
0.060999 0.039630 0.039630 -0.051670 -0.041766 -0.020779 -0.046338 -0.112873 -0.045990 0.032234 0.010466 0.039016 0.090779 0.006730 0.006730 -0.035232
-0.068230 -0.026502 -0.031405 0.040509 -0.036478 0.050051 -0.030241 0.023247 0.030303 0.056122 0.056122 0.065337 -0.070464 -0.030136 -0.070821 -0.010696
-0.006088 -0.001791 -0.053153 0.027063 0.096695 -0.043830 -0.043830 0.033413 0.045984 0.015963 -0.015694 0.052185 -0.045990 0.032234 0.010466 0.039016
0.090779 0.006730 0.006730 -0.035232 -0.068230 -0.026502 -0.031405 0.040509 -0.036478 0.050051 -0.030241 0.023247 0.030303 0.056122 0.056122 0.065337
-0.070464 -0.030136 -0.070821 -0.010696 -0.006088 -0.001791 -0.053153 0.027063 0.096695 -0.043830 -0.043830 0.033413 0.045984 0.015963 -0.015694 0.052185
-0.151238 0.026925 -0.002058 0.033526 -0.026075 0.044416 0.044416 0.074309 0.047431 0.050184 -0.017153 0.024494 0.003290 -0.028168 0.018608 0.049715
0.039515 0.016705 0.016705 0.040565 0.038265 0.010809 0.001129 -0.061185 0.030338 0.043792 0.033437 0.059044 -0.057078 -0.029473 -0.029473 -0.002888
0.024166 0.037471 0.055972 0.077612 0.037343 -0.039825 0.025258 -0.032920 0.031942 0.001091 0.001091 0.023042 0.027275 0.005951 0.042129 0.040141
0.005450 -0.037195 -0.036794 -0.019276 0.029164 -0.002422 -0.002422 -0.014532 -0.029489 -0.077314 -0.054467 -0.038882 0.004478 0.036935 0.039166 0.026149
-0.002000 0.000291 0.000291 -0.012245 -0.007911 -0.007051 -0.007852 -0.075787 0.085644 -0.023319 0.027460 0.051714 0.043166 0.016374 0.016374 -0.075456
-0.025813 0.012386 -0.036508 -0.053169 0.030571 -0.051933 -0.028636 0.040302 0.043050 -0.013596 -0.013596 -0.013423 -0.030440 -0.059519 0.006125 -0.025935
-0.034227 0.018369 -0.057937 -0.024070 0.054428 -0.072260 -0.072260 -0.053704 -0.018436 -0.031661 -0.035843 -0.062353 0.028374 0.029916 0.040667 -0.000781
-0.008465 -0.002673 -0.002673 0.029902 -0.031287 -0.000050 -0.063279 -0.114292 -0.065439 0.150393 0.091485 0.031379 -0.030172 -0.068312 -0.068312 0.014307
-0.050225 -0.028963 0.017633 0.009241 -0.065073 -0.054687 -0.047729 -0.032686 0.068995 0.092125 0.092125 0.013038 0.013397 0.000151 -0.092082 -0.010237
0.028374 0.029916 0.040667 -0.000781 -0.008465 -0.002673 -0.002673 0.029902 -0.031287 -0.000050 -0.063279 -0.114292 -0.065439 0.150393 0.091485 0.031379
-0.030172 -0.068312 -0.068312 0.014307 -0.050225 -0.028963 0.017633 0.009241 -0.065073 -0.054687 -0.047729 -0.032686 0.068995 0.092125 0.092125 0.013038
0.013397 0.000151 -0.092082 -0.010237 -0.011369 0.029890 0.068152 -0.005641 -0.084044 -0.072212 -0.072212 0.028810 0.046020 0.064615 -0.022448 0.023456
0.013337 -0.018146 -0.028355 -0.023182 -0.046928 0.003624 0.003624 -0.007541 0.023211 -0.021407 -0.015090 -0.011974 0.057930 0.038490 0.100621 0.050462
0.022349 -0.014171 -0.014171 -0.034127 -0.013472 -0.041365 0.001453 0.035206 0.042038 0.012792 -0.031774 0.078561 -0.027620 -0.023087 -0.023087 0.016679
-0.036563 -0.028297 0.002129 0.045136 0.081629 0.069054 0.075657 0.030400 -0.003342 0.049327 0.049327 0.039227 0.037759 0.018975 0.049964 0.096772
0.099035 0.057935 0.057568 0.026227 0.000339 0.013669 0.013669 -0.045068 -0.028574 0.052151 0.061908 0.025948 0.007609 -0.009241 -0.041651 -0.013890
0.040702 0.007768 0.007768 -0.038871 0.020308 -0.022201 0.035764 0.054521 0.027181 0.068603 -0.006395 -0.029599 -0.029850 -0.017513 -0.017513 0.010160
0.065915 -0.001327 0.004872 0.057796 0.097585 0.053070 0.069325 0.026540 -0.031586 -0.014493 -0.014493 -0.056879 -0.029271 0.069721 0.025901 0.021491
0.007609 -0.009241 -0.041651 -0.013890 0.040702 0.007768 0.007768 -0.038871 0.020308 -0.022201 0.035764 0.054521 0.027181 0.068603 -0.006395 -0.029599
-0.029850 -0.017513 -0.017513 0.010160 0.065915 -0.001327 0.004872 0.057796 0.097585 0.053070 0.069325 0.026540 -0.031586 -0.014493 -0.014493 -0.056879
-0.029271 0.069721 0.025901 0.021491 0.011898 -0.060944 -0.047529 -0.022946 0.006521 0.056888 0.056888 0.024894 0.043843 0.109744 0.004334 -0.047952
-0.040335 -0.120219 -0.052057 -0.074227 -0.002366 -0.048603 -0.048603 -0.059334 -0.016554 0.000444 -0.032717 -0.070661 -0.071058 -0.082944 -0.025451 -0.016939
0.020768 -0.008095 -0.008095 -0.041462 0.015900 -0.006120 -0.037340 -0.040518 0.046278 0.067404 0.063115 0.107367 0.049540 -0.012509 -0.012509 -0.009626
0.024114 0.006089 0.003213 -0.044997 -0.028529 -0.066484 -0.026268 0.049800 0.041964 0.041317 0.041317 -0.112175 -0.031096 -0.006725 -0.020274 0.084643
-0.016353 -0.051144 -0.024795 -0.050311 -0.035286 0.015019 0.015019 0.071368 -0.054658 -0.051853 -0.098705 -0.124271 -0.047052 0.005086 0.006840 0.051738
-0.026386 -0.075393 -0.075393 -0.024320 -0.038682 -0.036232 -0.007687 -0.003004 -0.037412 -0.002170 0.034544 -0.077554 -0.045437 -0.023342 -0.023342 0.001538
-0.058988 -0.008793 0.011480 0.016175 -0.008327 0.071859 -0.018290 -0.055053 0.026035 0.020735 0.020735 0.007921 0.050487 0.064596 0.017609 0.047084
-0.047052 0.005086 0.006840 0.051738 -0.026386 -0.075393 -0.075393 -0.024320 -0.038682 -0.036232 -0.007687 -0.003004 -0.037412 -0.002170 0.034544 -0.077554
-0.045437 -0.023342 -0.023342 0.001538 -0.058988 -0.008793 0.011480 0.016175 -0.008327 0.071859 -0.018290 -0.055053 0.026035 0.020735 0.020735 0.007921
0.050487 0.064596 0.017609 0.047084 -0.019878 -0.134993 -0.035898 -0.060614 -0.026255 -0.008916 -0.008916 0.006701 -0.047731 -0.072310 -0.076059 -0.082019
-0.080431 -0.067776 -0.037080 0.019627 0.004676 0.016023 0.016023 0.054696 -0.003916 -0.010644 -0.008832 -0.058459 -0.086527 -0.060143 -0.058349 0.003060
-0.059821 0.013100 0.013100 0.011224 -0.042311 0.042670 -0.012079 0.066086 -0.081639 -0.018595 -0.046977 -0.033505 -0.045055 0.018265 0.018265 -0.002205
-0.038606 -0.075649 -0.050795 -0.086639 -0.006368 -0.036374 -0.029405 0.030228 0.014720 0.031179 0.031179 -0.003263 0.003765 -0.011258 0.022421 0.040127
-0.018284 -0.164697 0.035687 -0.048274 -0.002790 0.011383 0.011383 0.008818 -0.002992 -0.061670 -0.024794 0.000207 -0.027015 -0.026087 -0.046435 -0.087031
-0.052646 -0.045445 -0.045445 -0.122630 -0.095204 -0.001741 0.027795 0.040850 0.056751 0.077604 0.041890 0.044860 0.100125 0.099855 0.099855 0.074603
0.097010 -0.052980 0.033366 -0.018969 0.004742 -0.023718 -0.034276 -0.014157 0.043955 0.008650 0.008650 -0.033494 -0.047841 -0.077160 -0.078087 0.009432
-0.060171 -0.048240 0.003563 -0.056019 0.047742 -0.002206 -0.002206 -0.003958 -0.001057 0.038307 0.020109 -0.096490 -0.083021 -0.002759 -0.040631 -0.016009
0.009866 0.064273 0.064273 0.037859 0.066066 0.090336 -0.070241 -0.027815 -0.041291 -0.007659 0.018998 0.015324 0.039979 -0.023255 -0.023255 -0.106627
-0.035079 -0.044837 -0.025535 -0.025872 -0.060171 -0.048240 0.003563 -0.056019 0.047742 -0.002206 -0.002206 -0.003958 -0.001057 0.038307 0.020109 -0.096490
-0.083021 -0.002759 -0.040631 -0.016009 0.009866 0.064273 0.064273 0.037859 0.066066 0.090336 -0.070241 -0.027815 -0.041291 -0.007659 0.018998 0.015324
0.039979 -0.023255 -0.023255 -0.106627 -0.035079 -0.044837 -0.025535 -0.025872 -0.011705 -0.013816 0.029683 -0.005590 -0.035555 -0.025740 -0.025740 0.056688
0.078240 0.081011 -0.002492 -0.066804 -0.063538 -0.029476 -0.046995 -0.031036 0.055627 0.038601 0.038601 0.019515 0.011939 -0.009967 0.021081 -0.012838
-0.041816 -0.006309 0.080431 -0.000851 -0.001000 -0.002429 -0.002429 -0.026435 -0.021833 0.023575 -0.032457 -0.011200 -0.052962 -0.013086 0.006520 -0.047387
0.058829 -0.000560 -0.000560 -0.031581 -0.042140 -0.023075 -0.017648 0.001687 0.013023 -0.028185 -0.017010 -0.005797 -0.020950 -0.016632 -0.016632 -0.023429
-0.011403 -0.015952 -0.037198 0.003018 -0.006887 0.019680 0.018534 -0.031168 -0.017063 0.021442 0.021442 -0.050994 -0.048793 0.023963 0.051229 -0.008474
-0.099697 -0.018353 0.059710 -0.034982 0.003821 -0.002220 -0.002220 -0.034128 -0.056410 -0.073250 0.016896 0.026503 0.038882 0.027159 -0.007124 -0.047559
-0.025246 -0.008292 -0.008292 -0.059045 0.005578 0.036349 -0.028380 -0.022838 -0.032157 0.032986 -0.034896 -0.050793 -0.053389 -0.035145 -0.035145 -0.050855
-0.054232 -0.013589 -0.027160 0.025544 -0.099697 -0.018353 0.059710 -0.034982 0.003821 -0.002220 -0.002220 -0.034128 -0.056410 -0.073250 0.016896 0.026503
0.038882 0.027159 -0.007124 -0.047559 -0.025246 -0.008292 -0.008292 -0.059045 0.005578 0.036349 -0.028380 -0.022838 -0.032157 0.032986 -0.034896 -0.050793
-0.053389 -0.035145 -0.035145 -0.050855 -0.054232 -0.013589 -0.027160 0.025544 -0.090265 0.030447 -0.095989 0.013561 -0.036927 0.017157 0.017157 -0.044281
0.041565 -0.033978 -0.074578 -0.048244 -0.012682 0.002377 -0.073225 0.035983 0.025165 -0.035279 -0.035279 0.032282 -0.011435 0.044071 0.056043 0.014368
-0.056908 -0.089199 -0.110300 -0.048957 -0.031221 -0.021881 -0.021881 -0.030428 -0.022391 0.038680 0.009636 0.036771 0.045892 0.027541 -0.009687 -0.014018
-0.003253 0.099188 0.099188 -0.029565 -0.008203 0.030933 -0.023123 -0.019094 0.062205 0.114024 0.036847 -0.004812 -0.095657 -0.077159 -0.077159 0.043287
-0.039942 -0.025026 0.022352 0.022099 -0.010143 -0.048995 0.003965 0.054373 -0.041084 -0.038592 -0.038592 -0.012893 0.036750 0.014108 0.038926 -0.054844
-0.019835 0.032048 0.044039 0.057371 -0.052621 -0.043742 -0.043742 0.018871 0.027214 -0.026458 0.021452 0.045529 -0.023149 -0.042729 0.053710 0.026393
-0.028493 -0.046178 -0.046178 0.010379 0.028561 0.080136 0.007886 -0.011934 -0.050967 0.021676 0.022969 -0.069461 -0.005398 0.044597 0.044597 0.031431
0.015498 0.058529 -0.014088 0.021548 -0.019835 0.032048 0.044039 0.057371 -0.052621 -0.043742 -0.043742 0.018871 0.027214 -0.026458 0.021452 0.045529
-0.023149 -0.042729 0.053710 0.026393 -0.028493 -0.046178 -0.046178 0.010379 0.028561 0.080136 0.007886 -0.011934 -0.050967 0.021676 0.022969 -0.069461
-0.005398 0.044597 0.044597 0.031431 0.015498 0.058529 -0.014088 0.021548 -0.020851 0.033943 0.002122 -0.093168 0.001466 -0.045954 -0.045954 0.044535
0.080956 0.018685 0.086209 0.079060 -0.048675 0.044838 0.004300 0.075513 0.061341 -0.013265 -0.013265 0.043100 0.021409 0.098136 0.075228 0.039420
0.049970 0.013330 -0.048565 -0.091169 -0.066741 0.144996 0.144996 0.092726 0.028420 0.052135 -0.131139 -0.021060 -0.010186 -0.077029 -0.071099 -0.020446
-0.028116 0.007404 0.007404 -0.010626 0.002836 -0.053071 0.030991 -0.051464 0.051551 -0.017470 0.049045 -0.025464 -0.090901 0.011563 0.011563 0.024835
-0.007767 0.031605 0.016751 0.012135 0.034269 -0.040842 -0.133488 -0.013871 -0.035403 -0.029601 -0.029601 0.006203 -0.018432 -0.018038 -0.004040 -0.000809
-0.064356 -0.017971 0.039627 0.046536 0.099424 0.084279 0.084279 -0.007430 -0.048441 -0.030955 -0.030509 0.002392 0.001448 0.080935 0.031405 -0.032920
-0.071353 -0.051485 -0.051485 -0.045285 -0.039976 -0.024409 -0.018010 -0.007320 -0.001123 0.014955 0.013126 -0.006230 -0.104658 -0.083434 -0.083434 -0.021684
-0.071119 -0.027686 0.092889 -0.012245 -0.043816 0.028146 -0.015560 -0.052226 -0.024422 0.004172 0.004172 -0.036332 -0.104451 -0.036069 -0.043302 0.026563
0.016466 0.036649 0.049056 -0.042227 -0.081241 -0.106032 -0.106032 -0.006153 0.071154 -0.010638 0.030562 0.004012 -0.064790 0.024766 0.074279 -0.051533
0.044565 0.088769 0.088769 -0.028082 -0.045193 -0.070648 0.018959 -0.029376 -0.043816 0.028146 -0.015560 -0.052226 -0.024422 0.004172 0.004172 -0.036332
-0.104451 -0.036069 -0.043302 0.026563 0.016466 0.036649 0.049056 -0.042227 -0.081241 -0.106032 -0.106032 -0.006153 0.071154 -0.010638 0.030562 0.004012
-0.064790 0.024766 0.074279 -0.051533 0.044565 0.088769 0.088769 -0.028082 -0.045193 -0.070648 0.018959 -0.029376 -0.071072 -0.002326 -0.036503 -0.070043
-0.074039 0.055639 0.055639 -0.052676 -0.005271 -0.024832 -0.023608 -0.036184 0.006180 -0.016392 0.001466 0.033912 0.009808 0.019861 0.019861 -0.023861
-0.038545 -0.023643 -0.040999 -0.052258 -0.046477 0.014005 -0.052754 0.028448 0.034064 -0.043024 -0.043024 -0.031756 -0.015075 -0.079327 -0.037211 0.006672
-0.036448 0.058041 0.037229 -0.045885 0.058965 0.055200 0.055200 -0.045139 -0.023073 -0.031844 0.011276 -0.028904 -0.006058 0.041502 -0.034432 -0.008588
-0.020213 -0.043763 -0.043763 -0.005743 0.003131 -0.008486 -0.029944 -0.022742 0.031349 -0.008303 -0.007682 0.010654 0.030735 0.028742 0.028742 0.014979
-0.045175 -0.009032 -0.032800 -0.038310 0.009711 0.087249 0.110148 -0.012138 0.019832 0.053816 0.053816 0.051488 0.012073 -0.055033 -0.004611 -0.012100
-0.041351 0.000964 -0.005386 0.043164 0.024432 0.008768 0.008768 -0.024151 -0.022274 0.007243 0.047679 0.041418 0.032374 -0.002961 -0.058367 -0.022544
0.002895 0.020456 0.020456 0.053685 0.017752 -0.022762 -0.065344 -0.063509 0.009711 0.087249 0.110148 -0.012138 0.019832 0.053816 0.053816 0.051488
0.012073 -0.055033 -0.004611 -0.012100 -0.041351 0.000964 -0.005386 0.043164 0.024432 0.008768 0.008768 -0.024151 -0.022274 0.007243 0.047679 0.041418
0.032374 -0.002961 -0.058367 -0.022544 0.002895 0.020456 0.020456 0.053685 0.017752 -0.022762 -0.065344 -0.063509 0.087030 0.093777 0.082158 0.028368
-0.061890 -0.043981 -0.043981 -0.021448 0.030647 -0.010097 -0.036626 0.034636 -0.010378 -0.005884 0.020521 0.081749 0.027467 0.078727 0.078727 0.042234
0.028064 0.019417 0.042630 0.063936 -0.046303 -0.027666 -0.033020 -0.106466 -0.026464 -0.039427 -0.039427 0.032679 0.002321 -0.004169 0.039699 0.004949
0.108987 0.030441 0.034305 0.033878 0.027257 0.029208 0.029208 0.014816 0.004743 0.005105 -0.037384 -0.010295 0.035839 0.060228 0.110344 0.079977
0.040174 0.041872 0.041872 0.013515 0.005016 0.000450 0.012375 -0.054868 -0.014776 0.012183 0.028086 -0.030551 -0.004939 -0.075797 -0.075797 -0.038871
-0.052598 0.051992 0.088664 0.009443 -0.091421 -0.008179 -0.104558 -0.121740 -0.023031 -0.025607 -0.025607 -0.040020 -0.041812 -0.048694 -0.037081 -0.040344
-0.041081 -0.004854 -0.074422 0.008917 -0.011632 -0.013609 -0.013609 -0.037914 0.031078 0.001921 0.008087 0.051640 0.030573 0.008602 0.071744 -0.022354
0.068649 0.007778 0.007778 0.051566 0.002623 0.029565 -0.058036 -0.035629 -0.091421 -0.008179 -0.104558 -0.121740 -0.023031 -0.025607 -0.025607 -0.040020
-0.041812 -0.048694 -0.037081 -0.040344 -0.041081 -0.004854 -0.074422 0.008917 -0.011632 -0.013609 -0.013609 -0.037914 0.031078 0.001921 0.008087 0.051640
0.030573 0.008602 0.071744 -0.022354 0.068649 0.007778 0.007778 0.051566 0.002623 0.029565 -0.058036 -0.035629 -0.068847 -0.041126 0.040098 0.107036
-0.030294 0.004179 0.004179 -0.003008 0.068454 0.038968 0.052888 0.014777 0.002365 -0.063868 -0.117023 -0.101421 -0.090996 -0.082155 -0.082155 -0.117317
-0.094512 -0.081720 -0.062897 0.013497 -0.014147 0.036389 -0.038437 -0.019361 0.026893 -0.026885 -0.026885 -0.010549 0.037114 0.005541 0.027152 -0.000794
0.030958 -0.014046 -0.036749 0.036348 0.009086 -0.020689 -0.020689 -0.009338 -0.021861 0.054590 0.055084 0.013667 -0.026368 -0.022613 -0.035920 -0.060411
-0.077334 -0.031420 -0.031420 -0.014461 -0.009399 0.000658 -0.006709 -0.035661 -0.047881 -0.019558 0.026490 -0.019360 -0.017632 0.013908 0.013908 0.023251
-0.010317 -0.126096 -0.066619 -0.013230 -0.032601 0.004257 -0.036624 -0.053289 -0.044139 -0.007788 -0.007788 -0.023365 -0.089972 -0.154168 -0.027123 0.021820
-0.004785 0.086749 0.107600 0.132832 0.060207 0.038430 0.038430 0.036619 0.062846 0.053945 0.017574 0.103432 -0.073316 -0.024376 -0.038654 0.031077
0.001963 0.021607 0.021607 0.042627 -0.131249 -0.084363 -0.019093 -0.004369 -0.078166 -0.018499 -0.049135 -0.026082 0.007806 0.014981 0.014981 -0.046140
-0.048769 -0.034354 0.007970 0.009548 0.020416 0.016868 0.051206 0.031131 0.021385 0.025612 0.025612 0.007872 -0.012296 -0.003574 -0.066981 -0.012706
0.016472 0.048096 -0.044613 -0.022200 -0.045964 -0.009993 -0.009993 -0.074537 -0.068650 0.063368 0.052767 -0.003134 -0.078166 -0.018499 -0.049135 -0.026082
0.007806 0.014981 0.014981 -0.046140 -0.048769 -0.034354 0.007970 0.009548 0.020416 0.016868 0.051206 0.031131 0.021385 0.025612 0.025612 0.007872
-0.012296 -0.003574 -0.066981 -0.012706 0.016472 0.048096 -0.044613 -0.022200 -0.045964 -0.009993 -0.009993 -0.074537 -0.068650 0.063368 0.052767 -0.003134
-0.006016 -0.059394 -0.131939 -0.110599 -0.062634 0.020404 0.020404 0.068435 0.042264 0.051774 0.046235 0.015679 0.020056 -0.003096 0.003497 -0.033759
-0.007703 -0.070935 -0.070935 -0.079857 -0.044930 0.001790 0.021441 0.023843 0.049907 0.046940 0.001229 0.003797 -0.019037 -0.075908 -0.075908 -0.083780
-0.041436 0.044196 0.071849 0.033356 0.070705 0.087396 0.062339 0.005317 0.059302 -0.056542 -0.056542 -0.093050 -0.040959 0.009251 -0.001520 -0.035002
0.005253 0.042366 0.009723 -0.012854 0.002044 0.068030 0.068030 -0.034393 -0.007796 -0.002749 0.009057 -0.015137 0.051944 0.051508 0.042139 -0.040070
-0.049296 -0.008573 -0.008573 -0.023456 -0.030758 0.000285 -0.011293 0.006138 0.107693 0.070070 0.019505 -0.082524 -0.037900 0.035536 0.035536 -0.036803
-0.022327 -0.009152 0.030715 0.015827 -0.006513 -0.010330 -0.016769 -0.011729 -0.033067 -0.032291 -0.032291 -0.074449 -0.039039 -0.007997 -0.031246 0.056227
0.048751 0.009033 -0.048991 0.035285 0.022196 0.025194 0.025194 -0.029165 -0.012368 0.018354 -0.005522 -0.032686 0.107693 0.070070 0.019505 -0.082524
-0.037900 0.035536 0.035536 -0.036803 -0.022327 -0.009152 0.030715 0.015827 -0.006513 -0.010330 -0.016769 -0.011729 -0.033067 -0.032291 -0.032291 -0.074449
-0.039039 -0.007997 -0.031246 0.056227 0.048751 0.009033 -0.048991 0.035285 0.022196 0.025194 0.025194 -0.029165 -0.012368 0.018354 -0.005522 -0.032686
0.010691 0.019401 -0.032374 -0.052256 -0.011546 0.002192 0.002192 0.094796 0.078860 -0.009285 0.018228 -0.049393 0.024659 -0.004914 0.028569 0.006085
0.003669 -0.009118 -0.009118 0.029070 0.014665 0.006675 0.019974 -0.022326 0.000008 -0.067720 0.006632 0.033377 0.068605 0.019398 0.019398 -0.017159
-0.002579 -0.024227 -0.072378 -0.068731 -0.106962 -0.117751 -0.060450 0.015391 0.040319 -0.014084 -0.014084 -0.067621 -0.041626 -0.040038 -0.011520 -0.013747
-0.020993 -0.017755 -0.067522 -0.021141 -0.023513 -0.034725 -0.034725 0.007613 0.027185 0.014461 0.043304 -0.049674 -0.103381 -0.095588 -0.066773 -0.051876
-0.009654 0.058155 0.058155 0.018709 0.006988 -0.053444 -0.054260 -0.042986 -0.056164 -0.077410 -0.015639 0.041911 -0.017239 -0.063241 -0.063241 -0.028482
-0.037808 -0.012130 0.025679 0.045780 -0.003282 -0.008502 -0.008187 -0.038415 -0.041030 -0.018509 -0.018509 -0.019114 0.005509 0.005185 0.003618 0.035033
-0.083059 -0.021150 -0.040836 -0.057433 0.051541 0.010691 0.010691 0.032232 -0.051046 -0.004129 -0.004930 -0.078861 -0.056164 -0.077410 -0.015639 0.041911
-0.017239 -0.063241 -0.063241 -0.028482 -0.037808 -0.012130 0.025679 0.045780 -0.003282 -0.008502 -0.008187 -0.038415 -0.041030 -0.018509 -0.018509 -0.019114
0.005509 0.005185 0.003618 0.035033 -0.083059 -0.021150 -0.040836 -0.057433 0.051541 0.010691 0.010691 0.032232 -0.051046 -0.004129 -0.004930 -0.078861
0.128017 0.045520 0.070353 0.019397 0.015754 0.028971 0.028971 0.013548 0.060565 0.060082 0.051496 0.016746 -0.035180 0.034548 -0.013965 -0.018748
-0.024458 -0.031557 -0.031557 -0.049851 -0.067766 0.010619 0.007697 0.010500 0.063603 0.020220 0.106672 0.007973 -0.051125 -0.012506 -0.012506 -0.018918
-0.022802 0.003567 0.031253 0.074388 0.002321 0.022988 -0.065640 -0.088576 -0.020459 0.044540 0.044540 0.052508 0.020149 0.053125 0.001033 -0.049300
-0.056200 -0.016851 -0.000525 0.041175 -0.031571 -0.017838 -0.017838 -0.023516 -0.024801 0.044134 0.023152 0.006943 0.046311 0.003136 -0.028222 -0.004830
0.031694 -0.005349 -0.005349 -0.017515 0.017816 0.002827 -0.067512 0.040892 0.019234 -0.001196 -0.092095 -0.059953 -0.034626 0.054977 0.054977 0.051570
0.055116 -0.014123 -0.060530 -0.158195 -0.044906 -0.001185 -0.048874 -0.097477 -0.033383 -0.045482 -0.045482 -0.039444 -0.067340 0.057156 -0.051513 -0.083456
0.002826 -0.056064 -0.093434 -0.014838 0.134452 0.128818 0.128818 0.046817 0.025899 -0.008883 0.001822 0.019375 0.110409 0.050924 0.043274 0.078619
-0.031207 0.038537 0.038537 0.005747 -0.004398 0.075986 0.034302 0.075928 0.029741 0.048974 0.075931 0.007474 0.027404 0.004090 0.004090 -0.013520
-0.068565 -0.056823 -0.098716 -0.024884 -0.068322 0.019512 -0.012429 0.056198 0.039787 0.088259 0.088259 -0.053855 0.054019 -0.009307 0.064203 -0.006331
0.110409 0.050924 0.043274 0.078619 -0.031207 0.038537 0.038537 0.005747 -0.004398 0.075986 0.034302 0.075928 0.029741 0.048974 0.075931 0.007474
0.027404 0.004090 0.004090 -0.013520 -0.068565 -0.056823 -0.098716 -0.024884 -0.068322 0.019512 -0.012429 0.056198 0.039787 0.088259 0.088259 -0.053855
0.054019 -0.009307 0.064203 -0.006331 0.035332 0.109268 0.069936 0.049280 0.030023 -0.056988 -0.056988 -0.020437 -0.042164 0.053947 -0.016872 0.044278
0.051823 -0.048744 -0.074433 0.007541 0.032955 -0.000602 -0.000602 0.012776 0.030931 -0.036306 -0.049611 -0.002571 0.014444 0.021215 0.038698 -0.013155
-0.000428 -0.089738 -0.089738 -0.069416 -0.057393 0.024182 0.030335 0.036158 0.040468 0.032431 0.036098 -0.007808 -0.036753 -0.024451 -0.024451 0.043846
-0.057998 -0.047088 0.017262 0.065773 -0.008276 -0.015049 -0.037045 0.003170 0.020682 0.028953 0.028953 0.012848 0.075704 0.042855 0.051324 0.013207
0.016958 0.032035 0.026283 0.009095 -0.007000 0.025352 0.025352 0.051524 -0.033604 -0.033102 -0.065106 -0.062025 0.055241 0.024590 -0.069361 -0.060011
-0.033758 -0.040750 -0.040750 0.061262 0.000619 -0.033456 -0.015144 0.000984 0.007366 0.013133 -0.042960 -0.015375 -0.000329 -0.000202 -0.000202 0.024430
0.060108 0.024782 0.032295 0.021232 0.055770 0.092615 0.011768 0.087532 0.067242 0.062247 0.062247 0.005185 0.011743 -0.006378 -0.090936 -0.127280
0.055241 0.024590 -0.069361 -0.060011 -0.033758 -0.040750 -0.040750 0.061262 0.000619 -0.033456 -0.015144 0.000984 0.007366 0.013133 -0.042960 -0.015375
-0.000329 -0.000202 -0.000202 0.024430 0.060108 0.024782 0.032295 0.021232 0.055770 0.092615 0.011768 0.087532 0.067242 0.062247 0.062247 0.005185
0.011743 -0.006378 -0.090936 -0.127280 -0.020035 -0.058456 -0.045161 -0.057316 0.008782 -0.030862 -0.030862 0.062810 0.072289 0.026796 0.033414 0.025523
0.050994 0.095838 0.104442 0.036755 0.045690 0.044420 0.044420 0.065048 0.022095 0.023184 -0.001178 -0.032319 0.087264 0.051275 0.034282 0.047333
0.040114 0.024539 0.024539 -0.014216 0.038770 -0.001627 -0.058797 -0.055345 -0.045108 -0.013905 0.026692 0.082317 0.075478 0.052929 0.052929 0.092231
0.016464 0.056715 0.036427 0.029999 0.013987 0.029960 0.052736 0.057460 0.038471 0.021868 0.021868 0.002809 -0.001688 -0.037941 -0.004413 -0.026096
-0.017869 0.006021 -0.014441 0.009798 -0.056576 -0.006225 -0.006225 0.045779 -0.020181 -0.010338 0.013435 0.079734 -0.001314 0.055559 0.000656 0.029617
0.039574 -0.000920 -0.000920 0.002338 -0.016662 -0.020736 0.053387 0.034635 -0.054328 -0.097411 -0.076895 0.009455 0.020270 -0.035623 -0.035623 0.001942
0.025314 -0.030892 -0.003312 -0.041283 0.023776 0.017258 0.021461 0.035715 -0.041388 0.070813 0.070813 0.057069 -0.080242 0.026417 0.104814 0.047789
-0.001314 0.055559 0.000656 0.029617 0.039574 -0.000920 -0.000920 0.002338 -0.016662 -0.020736 0.053387 0.034635 -0.054328 -0.097411 -0.076895 0.009455
0.020270 -0.035623 -0.035623 0.001942 0.025314 -0.030892 -0.003312 -0.041283 0.023776 0.017258 0.021461 0.035715 -0.041388 0.070813 0.070813 0.057069
-0.080242 0.026417 0.104814 0.047789 -0.032482 -0.043379 -0.136224 -0.076013 -0.119741 -0.052367 -0.052367 -0.078545 -0.066070 -0.030202 0.022424 0.049397
0.054030 0.064303 -0.002013 -0.076682 -0.071826 -0.072510 -0.072510 -0.027406 0.007434 -0.061703 -0.066063 -0.051200 0.030851 -0.006246 0.028080 0.004667
0.012787 0.026449 0.026449 0.063537 0.065521 0.021123 -0.048736 -0.148899 -0.047409 0.037630 0.011842 0.023223 0.007657 -0.051029 -0.051029 0.017647
-0.002700 -0.013197 -0.040959 -0.083683 -0.087870 -0.061650 0.003230 -0.038621 -0.064225 -0.054195 -0.054195 -0.046767 -0.050282 -0.022964 -0.056919 -0.077439
-0.045405 -0.032360 -0.038509 -0.050389 -0.019095 -0.019612 -0.019612 -0.097524 0.019322 -0.030815 -0.046127 0.024504 0.102113 0.059372 -0.012879 0.013904
-0.010322 0.011126 0.011126 -0.002574 0.041254 -0.032185 -0.041343 -0.087038 -0.059290 -0.047860 -0.041989 0.026524 0.005393 -0.026196 -0.026196 -0.019746
-0.037668 -0.028395 0.008573 -0.040797 0.013286 -0.027881 -0.044501 -0.052406 -0.018561 -0.078819 -0.078819 -0.088931 -0.044663 0.007397 0.002522 0.026429
0.068635 0.062158 -0.062388 -0.086416 -0.088040 -0.043646 -0.043646 -0.036073 -0.006770 -0.046143 -0.056689 0.005780 -0.026599 -0.052782 -0.013680 -0.030709
0.015717 -0.010668 -0.010668 0.030979 0.025707 0.053585 0.057947 0.007273 0.046988 -0.013194 -0.035521 0.058420 0.037090 0.012588 0.012588 0.032933
-0.021370 -0.044777 -0.043690 -0.062446 0.068635 0.062158 -0.062388 -0.086416 -0.088040 -0.043646 -0.043646 -0.036073 -0.006770 -0.046143 -0.056689 0.005780
-0.026599 -0.052782 -0.013680 -0.030709 0.015717 -0.010668 -0.010668 0.030979 0.025707 0.053585 0.057947 0.007273 0.046988 -0.013194 -0.035521 0.058420
0.037090 0.012588 0.012588 0.032933 -0.021370 -0.044777 -0.043690 -0.062446 -0.038034 0.080119 -0.041167 -0.060876 -0.006019 -0.035178 -0.035178 -0.047028
-0.016079 0.000333 0.019900 0.000278 0.003494 -0.009117 -0.032831 -0.028041 0.064505 0.024662 0.024662 0.042848 0.035055 0.021482 0.029073 0.007884
-0.062811 -0.001482 0.002224 -0.009731 -0.008708 0.083430 0.083430 0.045437 -0.020280 -0.073543 0.075654 0.013010 0.079562 0.006161 0.085644 0.008516
0.053458 0.035764 0.035764 0.059661 0.002074 0.026239 0.017704 0.064330 0.048868 0.051479 0.047374 0.045164 0.071766 0.080846 0.080846 0.024330
0.021234 0.074566 0.072200 0.013529 -0.012977 0.044642 0.039513 0.009229 0.008482 0.004464 0.004464 0.024195 0.025655 -0.015995 0.006977 0.025019
-0.006626 0.003605 0.032824 0.004430 -0.059692 -0.006482 -0.006482 0.036780 0.069618 0.022174 0.095826 0.082650 0.081357 0.071607 0.070601 0.073486
0.087337 0.074307 0.074307 0.022316 -0.005080 0.112138 -0.014832 -0.009072 -0.023186 -0.002218 -0.053072 0.001664 0.041647 0.011032 0.011032 0.000883
-0.029692 0.013975 0.020378 0.045373 -0.006626 0.003605 0.032824 0.004430 -0.059692 -0.006482 -0.006482 0.036780 0.069618 0.022174 0.095826 0.082650
0.081357 0.071607 0.070601 0.073486 0.087337 0.074307 0.074307 0.022316 -0.005080 0.112138 -0.014832 -0.009072 -0.023186 -0.002218 -0.053072 0.001664
0.041647 0.011032 0.011032 0.000883 -0.029692 0.013975 0.020378 0.045373 -0.119075 0.000276 -0.024000 -0.035552 -0.046291 -0.088791 -0.088791 -0.028376
-0.056368 -0.056466 -0.094025 -0.055417 -0.062876 -0.024751 -0.042180 -0.055633 -0.090504 -0.034728 -0.034728 -0.017482 -0.031783 -0.073525 0.011140 -0.006860
0.038656 -0.008927 -0.032178 -0.024876 -0.001217 -0.054864 -0.054864 0.002701 -0.003401 0.029024 0.014498 0.027143 0.013411 0.000570 0.010641 -0.054959
0.011743 0.010242 0.010242 -0.029293 -0.006958 0.027038 0.040436 0.035086 -0.003330 0.047693 0.046200 0.003557 0.007059 0.001779 0.001779 0.127109
0.082861 0.055317 0.064844 0.006511 0.003892 0.060415 0.050866 0.052349 -0.067474 0.022014 0.022014 0.047891 0.057430 -0.020012 -0.035770 -0.000130
0.073766 -0.025159 -0.001664 -0.029118 -0.021451 0.008559 0.008559 0.006904 -0.015214 0.012773 0.043351 0.006867 0.014847 -0.043890 -0.049991 0.020969
0.003023 0.022281 0.022281 -0.041680 0.034798 -0.018884 -0.033638 -0.022400 -0.045059 -0.078313 -0.002723 -0.014184 0.050720 -0.011874 -0.011874 0.008358
0.039995 0.058247 0.089444 -0.023871 0.073766 -0.025159 -0.001664 -0.029118 -0.021451 0.008559 0.008559 0.006904 -0.015214 0.012773 0.043351 0.006867
0.014847 -0.043890 -0.049991 0.020969 0.003023 0.022281 0.022281 -0.041680 0.034798 -0.018884 -0.033638 -0.022400 -0.045059 -0.078313 -0.002723 -0.014184
0.050720 -0.011874 -0.011874 0.008358 0.039995 0.058247 0.089444 -0.023871 -0.011675 0.027325 -0.010162 -0.025484 -0.015095 -0.003030 -0.003030 -0.048211
-0.007598 -0.002441 -0.079272 -0.077670 -0.080510 -0.014317 -0.007832 -0.026373 -0.011932 -0.002850 -0.002850 -0.104807 -0.066588 0.027281 0.001767 -0.015892
-0.000207 -0.047263 -0.016625 -0.020556 -0.004803 -0.053345 -0.053345 -0.057357 -0.048157 -0.038774 0.002721 0.000244 -0.082183 -0.056538 -0.029239 -0.031097
0.005917 0.029719 0.029719 -0.041146 0.033182 0.051398 0.027021 0.009325 -0.035086 0.033272 -0.033001 -0.003743 -0.005224 -0.086556 -0.086556 -0.061174
-0.055608 0.012143 -0.045162 -0.025643 0.013443 0.053492 0.053795 -0.002318 -0.040012 -0.028621 -0.028621 -0.003994 -0.041509 0.013433 -0.062185 -0.065389
-0.007793 -0.063150 -0.031353 0.010179 -0.002572 -0.027592 -0.027592 0.031228 0.007054 0.063160 0.048852 0.074834 0.093251 0.024885 0.085889 0.033564
-0.012338 0.014920 0.014920 0.032481 0.014368 0.054052 0.042481 0.043639 0.129496 0.090642 0.132598 0.063488 0.041454 0.050580 0.050580 0.027395
0.043152 -0.005023 0.012812 -0.061803 0.022358 -0.054255 -0.048206 0.050351 -0.100063 -0.093067 -0.093067 -0.081625 0.000113 -0.016854 -0.087744 0.022863
-0.009016 -0.005892 0.002569 -0.014650 -0.073720 0.045378 0.045378 0.014478 -0.014735 -0.003370 -0.009482 -0.054198 0.023014 0.039417 0.020310 0.049584
0.036446 0.033089 0.033089 -0.030488 0.011943 -0.025353 -0.023480 -0.011202 0.022358 -0.054255 -0.048206 0.050351 -0.100063 -0.093067 -0.093067 -0.081625
0.000113 -0.016854 -0.087744 0.022863 -0.009016 -0.005892 0.002569 -0.014650 -0.073720 0.045378 0.045378 0.014478 -0.014735 -0.003370 -0.009482 -0.054198
0.023014 0.039417 0.020310 0.049584 0.036446 0.033089 0.033089 -0.030488 0.011943 -0.025353 -0.023480 -0.011202 -0.037792 -0.055539 0.003458 0.004371
-0.018760 -0.042965 -0.042965 -0.002284 -0.052849 -0.106045 -0.027873 -0.065362 -0.060946 -0.116492 -0.098704 -0.075743 -0.052913 -0.006118 -0.006118 0.010849
0.013607 -0.018649 -0.028265 -0.066798 -0.041116 -0.044809 -0.137255 -0.086855 -0.003497 -0.049560 -0.049560 -0.076287 -0.057432 -0.043480 -0.054703 0.005011
-0.017414 0.061770 -0.018136 -0.027973 0.017517 0.040001 0.040001 -0.031307 0.006899 0.028108 -0.027162 0.008022 -0.030508 -0.017675 -0.003691 -0.036666
-0.044501 -0.011220 -0.011220 -0.047893 -0.027770 -0.037443 -0.010924 -0.019694 -0.028605 0.003646 0.003118 -0.022264 0.018075 -0.006781 -0.006781 0.021420
0.037276 0.011244 0.004141 0.020730 0.001127 0.019588 -0.013053 -0.042140 0.016560 0.030884 0.030884 0.034285 -0.043261 -0.012046 -0.064711 -0.096951
-0.048474 -0.021140 0.035994 -0.011469 -0.097408 -0.089872 -0.089872 -0.057754 -0.042705 -0.094432 -0.068029 0.010699 -0.043299 -0.046032 -0.013257 -0.010496
-0.026908 -0.032242 -0.032242 -0.010804 0.015062 -0.003755 0.037419 0.022162 0.001127 0.019588 -0.013053 -0.042140 0.016560 0.030884 0.030884 0.034285
-0.043261 -0.012046 -0.064711 -0.096951 -0.048474 -0.021140 0.035994 -0.011469 -0.097408 -0.089872 -0.089872 -0.057754 -0.042705 -0.094432 -0.068029 0.010699
-0.043299 -0.046032 -0.013257 -0.010496 -0.026908 -0.032242 -0.032242 -0.010804 0.015062 -0.003755 0.037419 0.022162 -0.026858 -0.060227 -0.009248 0.012114
0.005929 0.012450 0.012450 0.019491 0.026021 -0.021547 -0.010752 -0.065563 -0.027676 -0.010144 0.056796 0.063277 -0.006513 -0.033910 -0.033910 -0.011452
-0.028648 -0.030083 -0.039983 0.014122 -0.022417 -0.056814 0.046760 0.000597 -0.032164 0.009366 0.009366 -0.011960 0.008557 -0.039460 -0.021109 -0.006479
-0.014296 -0.016764 -0.000868 0.062090 0.064192 -0.034939 -0.034939 0.003600 0.004965 0.013455 0.053287 0.128439 0.082770 0.078645 0.064379 0.113162
0.125800 0.122719 0.122719 0.073619 0.127375 0.114964 0.113445 0.103245 0.109464 0.090108 0.087156 0.000641 0.023876 0.012564 0.012564 0.031843
-0.043498 -0.011330 -0.028288 -0.016151 0.028871 0.033698 0.002346 0.004217 -0.022633 -0.046379 -0.046379 -0.026490 0.056059 0.031714 -0.053485 0.022589
0.031926 0.040896 0.042038 -0.028060 0.003129 -0.010123 -0.010123 0.004949 0.011596 -0.004003 0.024977 0.020938 -0.014623 0.051779 0.009324 0.039578
0.008969 -0.072419 -0.072419 -0.053793 0.043598 -0.019991 0.011910 -0.007214 0.028871 0.033698 0.002346 0.004217 -0.022633 -0.046379 -0.046379 -0.026490
0.056059 0.031714 -0.053485 0.022589 0.031926 0.040896 0.042038 -0.028060 0.003129 -0.010123 -0.010123 0.004949 0.011596 -0.004003 0.024977 0.020938
-0.014623 0.051779 0.009324 0.039578 0.008969 -0.072419 -0.072419 -0.053793 0.043598 -0.019991 0.011910 -0.007214 -0.023005 0.024077 0.018273 -0.034695
-0.012065 0.000583 0.000583 -0.016220 -0.032666 -0.020863 0.028095 -0.024272 -0.001247 -0.001475 -0.024446 -0.025369 -0.027524 -0.015771 -0.015771 0.005228
0.005061 -0.031129 -0.039446 -0.069987 -0.006103 0.017358 0.061949 0.071043 0.043797 0.062736 0.062736 0.044983 0.019312 0.021813 0.028976 0.053770
-0.050961 -0.012247 -0.024669 -0.029687 -0.040675 0.006627 0.006627 0.033463 0.006384 -0.006171 -0.013780 -0.023888 -0.071934 -0.067018 -0.046621 -0.021822
-0.035991 -0.036514 -0.036514 -0.048485 -0.044723 -0.036326 -0.047489 -0.041134 0.026788 -0.002285 0.043762 -0.005662 0.037032 0.020403 0.020403 -0.040199
0.028677 0.011780 0.011556 -0.005034 -0.046530 -0.044236 -0.076531 -0.082437 -0.071218 -0.036385 -0.036385 -0.015200 0.025944 -0.016817 -0.029732 -0.032484
-0.027661 -0.031712 -0.048555 -0.064168 -0.026540 -0.001414 -0.001414 -0.012188 -0.007737 -0.072815 -0.009981 0.041496 0.032454 -0.008800 -0.028674 -0.021030
-0.060931 -0.055427 -0.055427 -0.061816 0.006458 -0.002454 -0.065793 -0.021173 0.021718 -0.022955 -0.050659 -0.064906 -0.076836 -0.075300 -0.075300 -0.043604
-0.017518 0.069183 0.027683 0.005792 0.003265 -0.017362 -0.034713 -0.097046 -0.049615 -0.025745 -0.025745 -0.064624 -0.071675 -0.079769 0.018898 -0.002917
-0.078133 -0.005007 0.023053 -0.098117 -0.094592 -0.082567 -0.082567 -0.052204 0.008521 -0.090373 -0.062066 -0.044691 0.021718 -0.022955 -0.050659 -0.064906
-0.076836 -0.075300 -0.075300 -0.043604 -0.017518 0.069183 0.027683 0.005792 0.003265 -0.017362 -0.034713 -0.097046 -0.049615 -0.025745 -0.025745 -0.064624
-0.071675 -0.079769 0.018898 -0.002917 -0.078133 -0.005007 0.023053 -0.098117 -0.094592 -0.082567 -0.082567 -0.052204 0.008521 -0.090373 -0.062066 -0.044691
-0.052454 0.020498 -0.013518 -0.008237 -0.024146 -0.109570 -0.109570 -0.094925 -0.079246 -0.017990 -0.026244 0.020768 0.025505 -0.001472 -0.046683 -0.046939
-0.093651 -0.088752 -0.088752 -0.081550 -0.075002 -0.016979 -0.025050 -0.066968 -0.018941 -0.030912 -0.041299 -0.042706 -0.014242 -0.013706 -0.013706 -0.041626
-0.081580 -0.059226 -0.040161 -0.050455 0.041364 0.085436 0.080449 0.059697 0.050691 0.047686 0.047686 0.035010 0.038836 0.015572 -0.034315 0.038827
0.021956 0.042684 0.056406 0.036688 0.014708 0.009924 0.009924 -0.009181 -0.010802 0.005601 0.009542 0.021504 0.035884 0.056508 0.052912 0.061494
0.062544 0.060434 0.060434 0.029642 0.025424 0.033133 0.029117 -0.002836 0.032089 0.006190 0.009919 0.050548 -0.011184 -0.005221 -0.005221 0.013589
-0.036274 -0.014202 -0.012334 -0.053771 -0.052337 -0.003379 0.036334 0.001275 -0.002325 -0.015660 -0.015660 -0.018848 -0.045759 0.012544 0.034603 0.030114
0.074792 0.062268 0.087945 0.016292 0.057901 0.060240 0.060240 0.047229 0.055602 -0.004786 0.014508 0.002159 0.032089 0.006190 0.009919 0.050548
-0.011184 -0.005221 -0.005221 0.013589 -0.036274 -0.014202 -0.012334 -0.053771 -0.052337 -0.003379 0.036334 0.001275 -0.002325 -0.015660 -0.015660 -0.018848
-0.045759 0.012544 0.034603 0.030114 0.074792 0.062268 0.087945 0.016292 0.057901 0.060240 0.060240 0.047229 0.055602 -0.004786 0.014508 0.002159
0.016190 -0.070605 -0.085139 -0.046888 -0.092683 -0.059967 -0.059967 -0.108296 -0.074787 -0.028676 -0.036980 0.029842 -0.080453 -0.051582 -0.061741 -0.008844
-0.022432 0.023347 0.023347 0.006613 0.038157 0.011932 0.014416 0.005239 -0.008710 -0.009675 -0.011582 -0.006672 0.006016 -0.035957 -0.035957 0.034774
0.013322 -0.030480 -0.034932 -0.033015 0.025354 -0.006088 0.009251 -0.052046 -0.034247 -0.034494 -0.034494 -0.003052 0.024563 -0.031273 -0.036750 -0.011747
-0.067235 -0.041058 -0.024016 -0.032578 -0.024750 -0.038889 -0.038889 0.034499 -0.022371 -0.043109 -0.041825 -0.092569 -0.033015 0.006383 -0.016385 -0.028167
-0.095613 -0.077813 -0.077813 -0.034927 -0.054978 -0.012369 0.002955 -0.026305 -0.053678 0.024692 0.063979 0.034940 0.047643 0.097046 0.097046 0.113891
0.109740 0.063593 0.017054 0.019844 0.066853 0.064310 0.055747 0.034493 0.039801 0.034231 0.034231 0.011620 -0.043616 -0.089660 -0.057543 -0.065930
-0.052656 -0.055261 -0.020199 -0.058118 0.033067 0.058367 0.058367 0.060977 0.063278 0.080144 0.064046 0.072423 -0.053678 0.024692 0.063979 0.034940
0.047643 0.097046 0.097046 0.113891 0.109740 0.063593 0.017054 0.019844 0.066853 0.064310 0.055747 0.034493 0.039801 0.034231 0.034231 0.011620
-0.043616 -0.089660 -0.057543 -0.065930 -0.052656 -0.055261 -0.020199 -0.058118 0.033067 0.058367 0.058367 0.060977 0.063278 0.080144 0.064046 0.072423
-0.043879 -0.023004 0.028024 0.023042 -0.023381 -0.008052 -0.008052 -0.032550 -0.013454 -0.033957 0.036031 0.077624 0.084830 0.045042 -0.019447 0.006659
0.017149 0.040438 0.040438 0.009768 0.037164 0.020781 0.032448 0.080763 0.062799 0.054885 0.029826 0.043109 0.037002 -0.012500 -0.012500 -0.026160
-0.017711 -0.056197 -0.017272 -0.026495 0.012156 -0.058979 -0.077612 -0.032216 -0.110234 -0.082143 -0.082143 -0.058690 -0.084863 -0.053960 0.018372 -0.007585
0.006107 0.012922 0.001442 0.005815 -0.012445 0.022198 0.022198 0.030191 0.040297 0.053530 0.033018 0.009036 0.014553 0.009562 0.030028 0.004835
0.039102 -0.013633 -0.013633 -0.057811 -0.033713 -0.099647 -0.043492 -0.062822 0.019419 -0.044134 -0.056500 0.028913 0.021089 -0.064481 -0.064481 -0.011703
-0.028230 0.002505 -0.022333 -0.028299 -0.083912 -0.002625 0.006464 -0.019053 -0.041843 -0.018851 -0.018851 -0.031988 0.004633 -0.042862 -0.056110 0.003845
-0.046645 -0.038957 -0.012113 0.005312 -0.058510 -0.046415 -0.046415 -0.007045 -0.055790 -0.033798 -0.060973 -0.018283 0.017171 -0.008057 -0.028100 0.001043
0.010369 0.033646 0.033646 0.058489 0.071317 -0.006756 0.041051 0.008831 0.076960 -0.003934 0.024427 0.026239 -0.053931 -0.027576 -0.027576 -0.093623
-0.066549 -0.101350 -0.100543 -0.103822 -0.067222 -0.060210 -0.020722 0.028440 -0.051693 -0.054114 -0.054114 -0.081045 -0.035982 -0.037275 -0.016043 -0.029401
0.017171 -0.008057 -0.028100 0.001043 0.010369 0.033646 0.033646 0.058489 0.071317 -0.006756 0.041051 0.008831 0.076960 -0.003934 0.024427 0.026239
-0.053931 -0.027576 -0.027576 -0.093623 -0.066549 -0.101350 -0.100543 -0.103822 -0.067222 -0.060210 -0.020722 0.028440 -0.051693 -0.054114 -0.054114 -0.081045
-0.035982 -0.037275 -0.016043 -0.029401 0.020028 0.011008 -0.003326 -0.057978 0.002686 0.021380 0.021380 0.026562 0.002890 0.031862 -0.070738 -0.008196
-0.001327 0.022754 0.018590 -0.024666 0.037889 0.014377 0.014377 -0.023913 -0.028765 -0.063353 -0.067089 -0.058482 -0.038543 -0.065525 0.001332 -0.002875
-0.017906 0.011427 0.011427 -0.003816 -0.009460 -0.023184 -0.011924 -0.043080 -0.031351 -0.021955 -0.004791 0.001791 -0.007854 -0.017507 -0.017507 0.014189
0.046150 0.051868 0.068288 0.051570 0.044421 0.013454 0.026358 0.023410 0.009842 0.021800 0.021800 0.000011 0.008254 0.039954 0.042520 0.020708
0.009995 0.043625 0.037906 0.023811 0.024879 0.027497 0.027497 0.014932 0.030396 0.011024 0.012745 -0.011282 -0.028732 0.030551 0.045643 0.045859
0.077361 0.050274 0.050274 0.086987 0.087112 0.093630 0.085366 0.072487 0.061481 0.108478 0.061208 0.041718 0.016386 0.017363 0.017363 0.029892
0.031243 0.058435 0.022045 0.049763 0.045005 0.079142 0.041718 0.060198 0.052253 0.065407 0.065407 0.061842 0.062805 0.017930 -0.019299 -0.015829
-0.028732 0.030551 0.045643 0.045859 0.077361 0.050274 0.050274 0.086987 0.087112 0.093630 0.085366 0.072487 0.061481 0.108478 0.061208 0.041718
0.016386 0.017363 0.017363 0.029892 0.031243 0.058435 0.022045 0.049763 0.045005 0.079142 0.041718 0.060198 0.052253 0.065407 0.065407 0.061842
0.062805 0.017930 -0.019299 -0.015829 0.003846 0.069501 0.054283 0.098997 0.073251 0.074984 0.074984 0.070834 0.035370 -0.032618 -0.004364 0.016655
-0.006270 -0.004693 0.036094 0.029882 -0.005234 0.007428 0.007428 0.015888 0.025425 -0.005903 0.025884 0.018549 0.025318 -0.008977 0.026538 -0.005959
0.042644 0.034353 0.034353 0.079954 0.054541 0.040462 0.027564 0.041033 0.007048 0.009745 0.005707 -0.030131 -0.036423 -0.082042 -0.082042 -0.064861
-0.078820 -0.085447 -0.102628 -0.077003 -0.079284 -0.064556 -0.016383 -0.018020 -0.035494 -0.051290 -0.051290 -0.063359 -0.055830 -0.076783 -0.077414 -0.041114
-0.072890 -0.048705 -0.063974 -0.088066 -0.028315 -0.015448 -0.015448 -0.015795 -0.004560 0.029368 0.013780 0.037126 0.030144 0.024242 -0.047518 -0.062125
-0.069301 -0.084904 -0.084904 -0.049869 0.007170 0.026097 0.030865 0.045626 0.005686 -0.030713 0.015427 0.029111 0.041949 0.048231 0.048231 0.023094
0.041098 0.015634 0.012102 -0.007346 0.031708 0.065596 0.069414 0.014221 -0.010505 -0.050680 -0.050680 -0.087087 -0.072835 -0.057007 -0.032848 -0.042508
0.030144 0.024242 -0.047518 -0.062125 -0.069301 -0.084904 -0.084904 -0.049869 0.007170 0.026097 0.030865 0.045626 0.005686 -0.030713 0.015427 0.029111
0.041949 0.048231 0.048231 0.023094 0.041098 0.015634 0.012102 -0.007346 0.031708 0.065596 0.069414 0.014221 -0.010505 -0.050680 -0.050680 -0.087087
-0.072835 -0.057007 -0.032848 -0.042508 -0.023803 0.024802 0.036401 0.045893 0.039808 0.094871 0.094871 0.079089 0.058781 0.017979 0.013804 0.006498
0.018176 0.050778 0.024985 0.065579 0.070167 0.080384 0.080384 0.042754 0.058938 0.079484 0.063642 0.035451 0.050971 0.058480 0.037888 0.024422
0.043464 0.039810 0.039810 0.049578 0.039959 0.053007 -0.021623 -0.011241 -0.080137 0.024898 0.042012 0.091295 0.037820 0.062635 0.062635 0.051522
0.054421 0.030579 0.036909 -0.018948 -0.007878 -0.001438 -0.025759 0.005624 -0.005161 -0.010407 -0.010407 -0.007227 -0.003215 0.020531 0.005106 0.031240
0.027012 -0.041738 -0.021009 0.019688 0.024712 0.055775 0.055775 0.046735 0.045149 0.031191 0.055494 0.044278 0.039362 -0.035602 -0.029661 -0.022336
0.003438 -0.044629 -0.044629 -0.062479 -0.046491 0.002818 0.039652 -0.015984 -0.066124 -0.066030 -0.037937 -0.046071 -0.049569 -0.072993 -0.072993 -0.081982
-0.062477 -0.042176 -0.081189 -0.039118 -0.062472 -0.098805 -0.046696 -0.056841 0.036012 -0.016447 -0.016447 -0.015415 -0.025412 -0.032266 -0.022448 -0.002996
-0.000143 -0.039170 -0.047680 -0.026833 -0.019237 -0.059506 -0.059506 -0.080395 -0.053252 0.012475 -0.026973 -0.005960 -0.004076 -0.015330 -0.018180 -0.051478
-0.081382 -0.058522 -0.058522 -0.067636 -0.021830 -0.017818 -0.010952 -0.025076 0.013744 0.060198 0.026643 0.023325 0.006421 -0.078935 -0.078935 -0.032396
-0.047778 -0.041516 -0.028767 -0.030301 -0.000143 -0.039170 -0.047680 -0.026833 -0.019237 -0.059506 -0.059506 -0.080395 -0.053252 0.012475 -0.026973 -0.005960
-0.004076 -0.015330 -0.018180 -0.051478 -0.081382 -0.058522 -0.058522 -0.067636 -0.021830 -0.017818 -0.010952 -0.025076 0.013744 0.060198 0.026643 0.023325
0.006421 -0.078935 -0.078935 -0.032396 -0.047778 -0.041516 -0.028767 -0.030301 -0.010709 -0.020388 -0.001129 -0.022589 -0.034028 -0.003860 -0.003860 0.024663
0.000290 -0.057427 -0.047604 0.009901 0.023471 0.039545 0.032098 0.019861 0.000482 0.002933 0.002933 -0.008536 -0.025926 0.007146 0.023224 0.012597
0.037907 0.045637 0.016123 -0.023514 -0.008645 0.004152 0.004152 0.008592 -0.036805 -0.017284 -0.032674 0.006498 0.068214 0.065926 -0.003796 -0.010642
-0.005274 -0.047611 -0.047611 -0.023503 -0.001171 -0.000719 0.002890 -0.008323 0.000169 0.016855 0.014987 0.036118 0.035261 0.031901 0.031901 0.004389
0.049831 0.006324 0.001191 0.016585 0.018047 -0.010369 -0.017459 -0.014507 -0.009858 0.021782 0.021782 0.024175 0.024563 -0.012380 0.009701 0.009720
0.028288 0.063821 -0.003932 -0.011543 0.005572 0.000159 0.000159 -0.032808 -0.005296 -0.012995 -0.008937 -0.018127 -0.030086 -0.016513 0.000109 0.034038
0.020217 0.008749 0.008749 0.001287 -0.008846 -0.028037 -0.059359 -0.050027 -0.023824 -0.046438 -0.062554 -0.033264 -0.008471 0.003486 0.003486 0.004174
-0.003538 -0.009815 0.006285 0.015944 0.028288 0.063821 -0.003932 -0.011543 0.005572 0.000159 0.000159 -0.032808 -0.005296 -0.012995 -0.008937 -0.018127
-0.030086 -0.016513 0.000109 0.034038 0.020217 0.008749 0.008749 0.001287 -0.008846 -0.028037 -0.059359 -0.050027 -0.023824 -0.046438 -0.062554 -0.033264
-0.008471 0.003486 0.003486 0.004174 -0.003538 -0.009815 0.006285 0.015944 -0.002250 0.000081 0.000776 0.004899 -0.000677 -0.005479 -0.005479 -0.002300
-0.053580 -0.071798 -0.068001 -0.064894 -0.070137 -0.050460 -0.057770 -0.065833 -0.073787 -0.046393 -0.046393 -0.058129 -0.082408 -0.086390 -0.058564 -0.059532
-0.055674 -0.044084 -0.019304 -0.012518 -0.014068 -0.033171 -0.033171 -0.039957 -0.051739 -0.029799 -0.012365 -0.021314 0.009261 -0.043336 -0.024894 -0.020820
-0.022902 -0.010212 -0.010212 0.007417 0.009809 -0.006361 -0.010333 0.006801 0.008287 0.006573 -0.010379 -0.010544 0.001018 -0.020663 -0.020663 -0.007751
-0.002710 -0.017629 0.004101 -0.006834 0.014824 0.039614 0.030612 0.021014 -0.005193 -0.042783 -0.042783 -0.044647 -0.018017 -0.039604 -0.054704 -0.042044
-0.003694 0.007918 -0.016825 0.015677 0.040752 0.030731 0.030731 0.036020 0.064180 0.102922 0.100525 0.110550 0.094839 0.083611 0.090715 0.106996
0.101254 0.083830 0.083830 0.103226 0.107938 0.085272 0.083511 0.090629 0.088433 0.083881 0.098402 0.067544 0.068188 0.052625 0.052625 0.022736
0.021403 -0.012822 -0.001012 0.017585 -0.003694 0.007918 -0.016825 0.015677 0.040752 0.030731 0.030731 0.036020 0.064180 0.102922 0.100525 0.110550
0.094839 0.083611 0.090715 0.106996 0.101254 0.083830 0.083830 0.103226 0.107938 0.085272 0.083511 0.090629 0.088433 0.083881 0.098402 0.067544
0.068188 0.052625 0.052625 0.022736 0.021403 -0.012822 -0.001012 0.017585 -0.001559 0.045141 0.021059 0.037315 0.036421 0.050498 0.050498 0.041207
0.036366 0.015220 0.027792 0.014049 -0.011277 -0.008527 0.003302 -0.024258 -0.021815 -0.017308 -0.017308 0.007631 0.017267 -0.019546 -0.019288 -0.021670
-0.041357 -0.047986 -0.029690 -0.020863 -0.026955 0.006869 0.006869 0.025403 0.050717 0.052512 0.084033 0.009573 -0.009690 0.007237 0.020231 -0.012484
-0.019689 -0.049167 -0.049167 -0.065094 -0.036859 -0.062227 -0.076966 -0.092312 -0.079633 -0.073337 -0.058031 -0.075232 -0.066579 -0.090871 -0.090871 -0.088892
-0.087417 -0.080238 -0.081166 -0.078323 -0.053259 -0.037900 -0.057098 -0.054802 -0.071377 -0.040225 -0.040225 -0.024401 0.012698 -0.011004 -0.021529 -0.039683
-0.038554 -0.026977 -0.022284 -0.011349 -0.024064 -0.054505 -0.054505 -0.043082 -0.032234 -0.021492 -0.046176 -0.052440 -0.064715 -0.072170 -0.047702 -0.023969
-0.031357 -0.038189 -0.038189 -0.039599 -0.036568 -0.019937 -0.058363 -0.028093 -0.008044 0.002253 -0.003887 -0.024400 0.017919 -0.038275 -0.038275 -0.037041
-0.035706 -0.034175 -0.043315 -0.051770 -0.027430 -0.037504 0.024759 0.010699 0.010627 -0.001538 -0.001538 -0.019545 -0.003380 0.055204 0.038232 0.051046
0.040073 0.066761 0.060325 0.043660 0.039688 0.078235 0.078235 0.077480 0.084232 0.065066 0.037702 0.065334 0.070383 0.075403 0.041026 0.051844
0.036450 0.002558 0.002558 -0.027159 -0.011663 -0.012171 0.007670 0.006841 -0.027430 -0.037504 0.024759 0.010699 0.010627 -0.001538 -0.001538 -0.019545
-0.003380 0.055204 0.038232 0.051046 0.040073 0.066761 0.060325 0.043660 0.039688 0.078235 0.078235 0.077480 0.084232 0.065066 0.037702 0.065334
0.070383 0.075403 0.041026 0.051844 0.036450 0.002558 0.002558 -0.027159 -0.011663 -0.012171 0.007670 0.006841 -0.056982 -0.030086 0.000381 -0.001108
0.025188 0.001488 0.001488 0.029437 0.041348 0.026019 0.043650 0.054429 0.050425 0.045531 0.068601 0.052218 0.050834 0.087779 0.087779 0.087356
0.083846 0.061688 0.045217 0.066504 0.031707 0.044420 0.033471 0.026153 0.045937 0.001730 0.001730 -0.008014 0.002473 0.008865 -0.014766 0.021512
